%YAML 1.1
%TAG !u! tag:unity3d.com,2011:
--- !u!114 &11400000
MonoBehaviour:
  m_ObjectHideFlags: 0
  m_CorrespondingSourceObject: {fileID: 0}
  m_PrefabInstance: {fileID: 0}
  m_PrefabAsset: {fileID: 0}
  m_GameObject: {fileID: 0}
  m_Enabled: 1
  m_EditorHideFlags: 0
  m_Script: {fileID: 11500000, guid: c8771789151ae2e499f98c547b2e3f39, type: 3}
  m_Name: RewardWindow
  m_EditorClassIdentifier: 
  <TechnologyMainConfig>k__BackingField: {fileID: 11400000, guid: 7efb0570e3ead504ab6bf9fa552e1bf0,
    type: 2}
  <Congratulations>k__BackingField: {fileID: 11400000, guid: b7d2dafd8035e57489311f508eef1999,
    type: 2}
  <Excellent>k__BackingField: {fileID: 11400000, guid: c3b0b753d6a70ec4699653b21e903371,
    type: 2}
  <StageTransition>k__BackingField: {fileID: 11400000, guid: ef8b4105c93de36488013fd21466c135,
    type: 2}
  <CompletedQuest>k__BackingField: {fileID: 11400000, guid: a23271ed765b6d44fbb4c0cb7279b91f,
    type: 2}
  <SkillTree>k__BackingField: {fileID: 11400000, guid: 114ce646a96b0f749a56829dfcf6fb0e,
    type: 2}
  <Quest>k__BackingField: {fileID: 11400000, guid: b44cc78884b328c49972bfb97b9cc487,
    type: 2}
  <QuestReward>k__BackingField: {fileID: 21300000, guid: 58e3f722c187f4a48ad094b90169811c,
    type: 3}
  <QuestGirl>k__BackingField: {fileID: 21300000, guid: 79aa6ba6288614048bb31b31a6bd763f,
    type: 3}
