%YAML 1.1
%TAG !u! tag:unity3d.com,2011:
--- !u!114 &11400000
MonoBehaviour:
  m_ObjectHideFlags: 0
  m_CorrespondingSourceObject: {fileID: 0}
  m_PrefabInstance: {fileID: 0}
  m_PrefabAsset: {fileID: 0}
  m_GameObject: {fileID: 0}
  m_Enabled: 1
  m_EditorHideFlags: 0
  m_Script: {fileID: 11500000, guid: cd8c578fd5426984fa367ec08c62c9b7, type: 3}
  m_Name: String 24
  m_EditorClassIdentifier: 
  id: 5042
  text:
  - "\u0410 \u0442\u0435\u043F\u0435\u0440\u044C \u0434\u0430\u0432\u0430\u0439 \u043F\u0435\u0440\u0435\u0440\u0430\u0431\u043E\u0442\u0430\u0435\u043C
    \u043D\u0435\u043C\u043D\u043E\u0433\u043E \u0434\u0435\u0440\u0435\u0432\u0430,
    \u0432 \u0434\u0430\u043B\u044C\u043D\u0435\u0439\u0448\u0435\u043C \u044D\u0442\u043E
    \u043F\u0440\u0438\u0433\u043E\u0434\u0438\u0442\u0441\u044F."
  - Now, let's recycle some wood, it'll come handy in the future
