%YAML 1.1
%TAG !u! tag:unity3d.com,2011:
--- !u!114 &11400000
MonoBehaviour:
  m_ObjectHideFlags: 0
  m_CorrespondingSourceObject: {fileID: 0}
  m_PrefabInstance: {fileID: 0}
  m_PrefabAsset: {fileID: 0}
  m_GameObject: {fileID: 0}
  m_Enabled: 1
  m_EditorHideFlags: 0
  m_Script: {fileID: 11500000, guid: cd8c578fd5426984fa367ec08c62c9b7, type: 3}
  m_Name: String 5
  m_EditorClassIdentifier: 
  id: 5009
  text:
  - "\u0412 \u043A\u0430\u0447\u0435\u0441\u0442\u0432\u0435 \u043C\u0430\u0442\u0435\u0440\u0438\u0430\u043B\u0430
    \u0434\u043B\u044F \u0441\u0442\u0440\u043E\u0438\u0442\u0435\u043B\u044C\u0441\u0442\u0432\u0430
    \u043C\u043E\u0433\u0443\u0442 \u043F\u043E\u0442\u0440\u0435\u0431\u043E\u0432\u0430\u0442\u044C\u0441\u044F
    \u043A\u0430\u043A \u043E\u0431\u044B\u0447\u043D\u044B\u0439 \u043C\u0443\u0441\u043E\u0440,
    \u0442\u0430\u043A \u0438 \u043F\u0435\u0440\u0435\u0440\u0430\u0431\u043E\u0442\u0430\u043D\u044B\u0435
    \u043E\u0442\u0445\u043E\u0434\u044B."
  - Both unprocessed and recycled rubbish can de used for crafting
