%YAML 1.1
%TAG !u! tag:unity3d.com,2011:
--- !u!114 &11400000
MonoBehaviour:
  m_ObjectHideFlags: 0
  m_CorrespondingSourceObject: {fileID: 0}
  m_PrefabInstance: {fileID: 0}
  m_PrefabAsset: {fileID: 0}
  m_GameObject: {fileID: 0}
  m_Enabled: 1
  m_EditorHideFlags: 0
  m_Script: {fileID: 11500000, guid: 6787b7a456a4fcc45aec9b8d8272ff5c, type: 3}
  m_Name: 10X1
  m_EditorClassIdentifier: 
  _resource:
    name: {fileID: 11400000, guid: 1384ff8f6f57aee4fa6d8f1bfc9a92c9, type: 2}
    count: 10
