%YAML 1.1
%TAG !u! tag:unity3d.com,2011:
--- !u!114 &11400000
MonoBehaviour:
  m_ObjectHideFlags: 0
  m_CorrespondingSourceObject: {fileID: 0}
  m_PrefabInstance: {fileID: 0}
  m_PrefabAsset: {fileID: 0}
  m_GameObject: {fileID: 0}
  m_Enabled: 1
  m_EditorHideFlags: 0
  m_Script: {fileID: 11500000, guid: 0a00c108c798aaf4e85c47f483348dbc, type: 3}
  m_Name: "\u041C\u0435\u0442\u0430\u043B\u043B\u0443\u0440\u0433\u0438\u0447\u0435\u0441\u043A\u0438\u0439
    \u0437\u0430\u0432\u043E\u0434"
  m_EditorClassIdentifier: 
  nameStructure: {fileID: 11400000, guid: 876fc73d341615247ade9460944c0fc2, type: 2}
  technology: {fileID: 11400000, guid: c1bf291a6b3ccea4b97428944c7f98f4, type: 2}
  recipes:
  - {fileID: 11400000, guid: e56d80788e1b60c45b4e75488c7f64fd, type: 2}
  - {fileID: 11400000, guid: b8ef915d722c2f94f9c5e751a16aadeb, type: 2}
  - {fileID: 11400000, guid: 07efb6995c0b6dc4ea6705e174453b5b, type: 2}
  - {fileID: 11400000, guid: a251bfbf920a65e4f9ff259e354ca66a, type: 2}
  - {fileID: 11400000, guid: 2dd351ca3c1854448a348df8c33d90e2, type: 2}
  - {fileID: 11400000, guid: 849310bb4b1102a44926a010bd13d970, type: 2}
  - {fileID: 11400000, guid: 7c29f2d035b335845a2e37c04329c0c9, type: 2}
  defCounActiveRicepes: 3
