%YAML 1.1
%TAG !u! tag:unity3d.com,2011:
--- !u!114 &11400000
MonoBehaviour:
  m_ObjectHideFlags: 0
  m_CorrespondingSourceObject: {fileID: 0}
  m_PrefabInstance: {fileID: 0}
  m_PrefabAsset: {fileID: 0}
  m_GameObject: {fileID: 0}
  m_Enabled: 1
  m_EditorHideFlags: 0
  m_Script: {fileID: 11500000, guid: 0a00c108c798aaf4e85c47f483348dbc, type: 3}
  m_Name: "\u0424\u0435\u0440\u043C\u0430 \u0416\u0438\u0432\u043E\u0442\u043D\u044B\u0445"
  m_EditorClassIdentifier: 
  nameStructure: {fileID: 11400000, guid: 619c2b1642af9934e80bd141fa5c31b7, type: 2}
  technology: {fileID: 11400000, guid: c16fdbded4acca54d9195f918dbac15f, type: 2}
  recipes:
  - {fileID: 11400000, guid: a984b4e1dfc2f5b4cba4629c245c3689, type: 2}
  - {fileID: 11400000, guid: a109c5984166b814188748a5c6ce5fc4, type: 2}
  - {fileID: 11400000, guid: 28d116a0ff5d24b42bd36bcd8d4d384b, type: 2}
  - {fileID: 11400000, guid: 20e640716baf63748816fab3b29aa232, type: 2}
  - {fileID: 11400000, guid: 7019d221583fda945a3551377416e77d, type: 2}
  - {fileID: 11400000, guid: d6fada544df45c64b81fea754bc140ef, type: 2}
  defCounActiveRicepes: 3
