%YAML 1.1
%TAG !u! tag:unity3d.com,2011:
--- !u!114 &11400000
MonoBehaviour:
  m_ObjectHideFlags: 0
  m_CorrespondingSourceObject: {fileID: 0}
  m_PrefabInstance: {fileID: 0}
  m_PrefabAsset: {fileID: 0}
  m_GameObject: {fileID: 0}
  m_Enabled: 1
  m_EditorHideFlags: 0
  m_Script: {fileID: 11500000, guid: cd8c578fd5426984fa367ec08c62c9b7, type: 3}
  m_Name: String 1
  m_EditorClassIdentifier: 
  id: 5006
  text:
  - "\u0422\u044B \u0443 \u043D\u0430\u0441 \u043D\u043E\u0432\u0435\u043D\u044C\u043A\u0438\u0439?
    \u041E\u0442\u043B\u0438\u0447\u043D\u043E, \u044F \u043F\u043E\u043C\u043E\u0433\u0443
    \u0442\u0435\u0431\u0435 \u0440\u0430\u0437\u043E\u0431\u0440\u0430\u0442\u044C\u0441\u044F
    \u0432 \u044D\u0442\u043E\u0439 \u043C\u0443\u0441\u043E\u0440\u043A\u0435!"
  - New around here? Fine, I'll help you around in this mess!
