%YAML 1.1
%TAG !u! tag:unity3d.com,2011:
--- !u!114 &11400000
MonoBehaviour:
  m_ObjectHideFlags: 0
  m_CorrespondingSourceObject: {fileID: 0}
  m_PrefabInstance: {fileID: 0}
  m_PrefabAsset: {fileID: 0}
  m_GameObject: {fileID: 0}
  m_Enabled: 1
  m_EditorHideFlags: 0
  m_Script: {fileID: 11500000, guid: cd8c578fd5426984fa367ec08c62c9b7, type: 3}
  m_Name: "\u0413\u0435\u043D\u0435\u0440\u0430\u0442\u043E\u0440 \u0432 \u0421\u043E\u0440\u0442\u0438\u0440\u043E\u0432\u043E\u0447\u043D\u043E\u043C
    \u0446\u0435\u0445\u0435 \u0440\u0430\u0431\u043E\u0442\u0430\u0435\u0442 \u043D\u0430
    \u043C\u0430\u043A\u0441\u0438\u043C\u0443\u043C\u0435."
  m_EditorClassIdentifier: 
  id: 194
  text:
  - "\u0413\u0435\u043D\u0435\u0440\u0430\u0442\u043E\u0440 \u0432 \u0421\u043E\u0440\u0442\u0438\u0440\u043E\u0432\u043E\u0447\u043D\u043E\u043C
    \u0446\u0435\u0445\u0435 \u0440\u0430\u0431\u043E\u0442\u0430\u0435\u0442 \u043D\u0430
    \u043C\u0430\u043A\u0441\u0438\u043C\u0443\u043C\u0435."
  - A sorting office works at maximum power and it is not enough.
