%YAML 1.1
%TAG !u! tag:unity3d.com,2011:
--- !u!114 &11400000
MonoBehaviour:
  m_ObjectHideFlags: 0
  m_CorrespondingSourceObject: {fileID: 0}
  m_PrefabInstance: {fileID: 0}
  m_PrefabAsset: {fileID: 0}
  m_GameObject: {fileID: 0}
  m_Enabled: 1
  m_EditorHideFlags: 0
  m_Script: {fileID: 11500000, guid: cd8c578fd5426984fa367ec08c62c9b7, type: 3}
  m_Name: "\u0415\u0434\u0443 \u0442\u043E\u0436\u0435 \u0433\u0434\u0435-\u0442\u043E
    \u043D\u0430\u0434\u043E \u0445\u0440\u0430\u043D\u0438\u0442\u044C. \u041A \u0441\u043E\u0436\u0430\u043B\u0435\u043D\u0438\u044E
    \u0441\u043A\u043B\u0430\u0434 \u0434\u043B\u044F \u044D\u0442\u043E\u0433\u043E
    \u043D\u0435 \u043F\u043E\u0434\u043E\u0439\u0434\u0435\u0442."
  m_EditorClassIdentifier: 
  id: 232
  text:
  - "\u0415\u0434\u0443 \u0442\u043E\u0436\u0435 \u0433\u0434\u0435-\u0442\u043E
    \u043D\u0430\u0434\u043E \u0445\u0440\u0430\u043D\u0438\u0442\u044C. \u041A \u0441\u043E\u0436\u0430\u043B\u0435\u043D\u0438\u044E
    \u0441\u043A\u043B\u0430\u0434 \u0434\u043B\u044F \u044D\u0442\u043E\u0433\u043E
    \u043D\u0435 \u043F\u043E\u0434\u043E\u0439\u0434\u0435\u0442."
  - Food should be stored somewhere. Unfortunately a warehouse is not suitable for
    the purpose
