%YAML 1.1
%TAG !u! tag:unity3d.com,2011:
--- !u!114 &11400000
MonoBehaviour:
  m_ObjectHideFlags: 0
  m_CorrespondingSourceObject: {fileID: 0}
  m_PrefabInstance: {fileID: 0}
  m_PrefabAsset: {fileID: 0}
  m_GameObject: {fileID: 0}
  m_Enabled: 1
  m_EditorHideFlags: 0
  m_Script: {fileID: 11500000, guid: cd8c578fd5426984fa367ec08c62c9b7, type: 3}
  m_Name: "\u041B\u044E\u0431\u043E\u0435 \u0436\u0438\u043B\u043E\u0435 \u0437\u0434\u0430\u043D\u0438\u0435
    \u0433\u0435\u043D\u0435\u0440\u0438\u0440\u0443\u0435\u0442 \u0442\u0440\u0430\u0444\u0438\u043A.
    \u0422\u0440\u0430\u0444\u0438\u043A \u0438 \u041F\u0440\u0435\u0441\u0442\u0438\u0436
    -  \u043E\u0441\u043D\u043E\u0432\u044B \u0432\u0441\u0435\u0439 \u043D\u0430\u0448\u0435\u0439
    \u044D\u043A\u043E\u043D\u043E\u043C\u0438\u043A\u0438."
  m_EditorClassIdentifier: 
  id: 278
  text:
  - "\u041B\u044E\u0431\u043E\u0435 \u0436\u0438\u043B\u043E\u0435 \u0437\u0434\u0430\u043D\u0438\u0435
    \u0433\u0435\u043D\u0435\u0440\u0438\u0440\u0443\u0435\u0442 \u0442\u0440\u0430\u0444\u0438\u043A.
    \u0422\u0440\u0430\u0444\u0438\u043A \u0438 \u041F\u0440\u0435\u0441\u0442\u0438\u0436
    -  \u043E\u0441\u043D\u043E\u0432\u044B \u0432\u0441\u0435\u0439 \u043D\u0430\u0448\u0435\u0439
    \u044D\u043A\u043E\u043D\u043E\u043C\u0438\u043A\u0438."
  - Any accomodation generates the rating. Rating and prestige are the foundation
    of our economics
