%YAML 1.1
%TAG !u! tag:unity3d.com,2011:
--- !u!114 &11400000
MonoBehaviour:
  m_ObjectHideFlags: 0
  m_CorrespondingSourceObject: {fileID: 0}
  m_PrefabInstance: {fileID: 0}
  m_PrefabAsset: {fileID: 0}
  m_GameObject: {fileID: 0}
  m_Enabled: 1
  m_EditorHideFlags: 0
  m_Script: {fileID: 11500000, guid: cd8c578fd5426984fa367ec08c62c9b7, type: 3}
  m_Name: "\u041B\u044E\u0434\u0438 \u0435\u0441\u0442\u044C. \u041E\u0441\u0442\u0430\u043B\u043E\u0441\u044C
    \u0442\u043E\u043B\u044C\u043A\u043E \u0443\u0431\u0435\u0434\u0438\u0442\u044C
    \u0438\u0445 \u043F\u043B\u0430\u0442\u0438\u0442\u044C \u0435\u0449\u0435 \u0431\u043E\u043B\u044C\u0448\u0435.
    \u041F\u0440\u0435\u0441\u0442\u0438\u0436 - \u043E\u0442\u0432\u0435\u0442 \u043D\u0430
    \u0432\u0441\u0435 \u043D\u0430\u0448\u0438 \u0432\u043E\u043F\u0440\u043E\u0441\u044B."
  m_EditorClassIdentifier: 
  id: 279
  text:
  - "\u041B\u044E\u0434\u0438 \u0435\u0441\u0442\u044C. \u041E\u0441\u0442\u0430\u043B\u043E\u0441\u044C
    \u0442\u043E\u043B\u044C\u043A\u043E \u0443\u0431\u0435\u0434\u0438\u0442\u044C
    \u0438\u0445 \u043F\u043B\u0430\u0442\u0438\u0442\u044C \u0435\u0449\u0435 \u0431\u043E\u043B\u044C\u0448\u0435.
    \u041F\u0440\u0435\u0441\u0442\u0438\u0436 - \u043E\u0442\u0432\u0435\u0442 \u043D\u0430
    \u0432\u0441\u0435 \u043D\u0430\u0448\u0438 \u0432\u043E\u043F\u0440\u043E\u0441\u044B."
  - So people are here. We just need to persuade them to consume more. Prestige is
    a solution
