%YAML 1.1
%TAG !u! tag:unity3d.com,2011:
--- !u!114 &11400000
MonoBehaviour:
  m_ObjectHideFlags: 0
  m_CorrespondingSourceObject: {fileID: 0}
  m_PrefabInstance: {fileID: 0}
  m_PrefabAsset: {fileID: 0}
  m_GameObject: {fileID: 0}
  m_Enabled: 1
  m_EditorHideFlags: 0
  m_Script: {fileID: 11500000, guid: cd8c578fd5426984fa367ec08c62c9b7, type: 3}
  m_Name: "\u041C\u044B \u043C\u043E\u0436\u0435\u043C \u043F\u043E\u0441\u0442\u0440\u043E\u0438\u0442\u044C
    \u0435\u0435 \u0441\u0435\u0439\u0447\u0430\u0441, \u0435\u0441\u043B\u0438 \u0445\u0432\u0430\u0442\u0438\u0442
    \u043C\u0430\u0442\u0435\u0440\u0438\u0430\u043B\u043E\u0432."
  m_EditorClassIdentifier: 
  id: 298
  text:
  - "\"\u041C\u044B \u043C\u043E\u0436\u0435\u043C \u043F\u043E\u0441\u0442\u0440\u043E\u0438\u0442\u044C
    \u0435\u0435 \u0441\u0435\u0439\u0447\u0430\u0441, \u0435\u0441\u043B\u0438 \u0445\u0432\u0430\u0442\u0438\u0442
    \u043C\u0430\u0442\u0435\u0440\u0438\u0430\u043B\u043E\u0432.\""
  - '"It can be built now, if there are enouth materials."'
