%YAML 1.1
%TAG !u! tag:unity3d.com,2011:
--- !u!114 &11400000
MonoBehaviour:
  m_ObjectHideFlags: 0
  m_CorrespondingSourceObject: {fileID: 0}
  m_PrefabInstance: {fileID: 0}
  m_PrefabAsset: {fileID: 0}
  m_GameObject: {fileID: 0}
  m_Enabled: 1
  m_EditorHideFlags: 0
  m_Script: {fileID: 11500000, guid: cd8c578fd5426984fa367ec08c62c9b7, type: 3}
  m_Name: "\u041D\u0430\u0436\u0430\u0432 \u0441\u044E\u0434\u0430 \u0442\u044B \u043C\u043E\u0436\u0435\u0448\u044C
    \u0443\u0432\u0438\u0434\u0435\u0442\u044C \u0434\u043E\u043F\u043E\u043B\u043D\u0438\u0442\u0435\u043B\u044C\u043D\u0443\u044E
    \u0438\u043D\u0444\u043E\u0440\u043C\u0430\u0446\u0438\u044E \u043E \u0437\u0434\u0430\u043D\u0438\u0438."
  m_EditorClassIdentifier: 
  id: 301
  text:
  - "\u041D\u0430\u0436\u0430\u0432 \u0441\u044E\u0434\u0430 \u0442\u044B \u043C\u043E\u0436\u0435\u0448\u044C
    \u0443\u0432\u0438\u0434\u0435\u0442\u044C \u0434\u043E\u043F\u043E\u043B\u043D\u0438\u0442\u0435\u043B\u044C\u043D\u0443\u044E
    \u0438\u043D\u0444\u043E\u0440\u043C\u0430\u0446\u0438\u044E \u043E \u0437\u0434\u0430\u043D\u0438\u0438."
  - Press here to get extra information about the object.
