%YAML 1.1
%TAG !u! tag:unity3d.com,2011:
--- !u!114 &11400000
MonoBehaviour:
  m_ObjectHideFlags: 0
  m_CorrespondingSourceObject: {fileID: 0}
  m_PrefabInstance: {fileID: 0}
  m_PrefabAsset: {fileID: 0}
  m_GameObject: {fileID: 0}
  m_Enabled: 1
  m_EditorHideFlags: 0
  m_Script: {fileID: 11500000, guid: cd8c578fd5426984fa367ec08c62c9b7, type: 3}
  m_Name: "\u041D\u0443\u0436\u0435\u043D \u0448\u0438\u043A, \u043F\u0430\u0444\u043E\u0441,
    \u0438\u0441\u043A\u0443\u0441\u0441\u0442\u0432\u043E."
  m_EditorClassIdentifier: 
  id: 306
  text:
  - "\"\u041D\u0443\u0436\u0435\u043D \u0448\u0438\u043A, \u043F\u0430\u0444\u043E\u0441,
    \u0438\u0441\u043A\u0443\u0441\u0441\u0442\u0432\u043E.\""
  - '"Let''s get shick, pompous, artistic"'
