%YAML 1.1
%TAG !u! tag:unity3d.com,2011:
--- !u!114 &11400000
MonoBehaviour:
  m_ObjectHideFlags: 0
  m_CorrespondingSourceObject: {fileID: 0}
  m_PrefabInstance: {fileID: 0}
  m_PrefabAsset: {fileID: 0}
  m_GameObject: {fileID: 0}
  m_Enabled: 1
  m_EditorHideFlags: 0
  m_Script: {fileID: 11500000, guid: cd8c578fd5426984fa367ec08c62c9b7, type: 3}
  m_Name: "\u041F\u0435\u0440\u0432\u044B\u0435 \u0448\u0430\u0433\u0438 \u0421\u0442\u0435\u043A\u043B\u043E-\u043F\u0435\u0440\u0435\u0440\u0430\u0431\u0430\u0442\u044B\u0432\u0430\u044E\u0449\u0438\u0439
    \u0437\u0430\u0432\u043E\u0434"
  m_EditorClassIdentifier: 
  id: 3001
  text:
  - "\u041F\u0435\u0440\u0432\u044B\u0435 \u0448\u0430\u0433\u0438: \u0421\u0442\u0435\u043A\u043B\u043E-\u043F\u0435\u0440\u0435\u0440\u0430\u0431\u0430\u0442\u044B\u0432\u0430\u044E\u0449\u0438\u0439
    \u0437\u0430\u0432\u043E\u0434"
  - 'First Steps: Glass Processing Plant'
