%YAML 1.1
%TAG !u! tag:unity3d.com,2011:
--- !u!114 &11400000
MonoBehaviour:
  m_ObjectHideFlags: 0
  m_CorrespondingSourceObject: {fileID: 0}
  m_PrefabInstance: {fileID: 0}
  m_PrefabAsset: {fileID: 0}
  m_GameObject: {fileID: 0}
  m_Enabled: 1
  m_EditorHideFlags: 0
  m_Script: {fileID: 11500000, guid: cd8c578fd5426984fa367ec08c62c9b7, type: 3}
  m_Name: "\u041F\u043E\u0434\u0432\u043E\u0434\u043D\u0430\u044F \u0444\u0435\u0440\u043C\u0430"
  m_EditorClassIdentifier: 
  id: 329
  text:
  - "\u041F\u043E\u0434\u0432\u043E\u0434\u043D\u0430\u044F \u0444\u0435\u0440\u043C\u0430"
  - Aqua Farm
