%YAML 1.1
%TAG !u! tag:unity3d.com,2011:
--- !u!114 &11400000
MonoBehaviour:
  m_ObjectHideFlags: 0
  m_CorrespondingSourceObject: {fileID: 0}
  m_PrefabInstance: {fileID: 0}
  m_PrefabAsset: {fileID: 0}
  m_GameObject: {fileID: 0}
  m_Enabled: 1
  m_EditorHideFlags: 0
  m_Script: {fileID: 11500000, guid: cd8c578fd5426984fa367ec08c62c9b7, type: 3}
  m_Name: "\u041F\u0440\u0435\u0434\u043B\u0430\u0433\u0430\u044E \u043F\u043E\u0441\u0442\u0440\u043E\u0438\u0442\u044C
    \u0435\u0449\u0435 \u043F\u0430\u0440\u043E\u0447\u043A\u0443 \u0437\u0430\u0432\u043E\u0434\u043E\u0432."
  m_EditorClassIdentifier: 
  id: 334
  text:
  - "\u041F\u0440\u0435\u0434\u043B\u0430\u0433\u0430\u044E \u043F\u043E\u0441\u0442\u0440\u043E\u0438\u0442\u044C
    \u0435\u0449\u0435 \u043F\u0430\u0440\u043E\u0447\u043A\u0443 \u0437\u0430\u0432\u043E\u0434\u043E\u0432."
  - I would recommend building a couple of factories
