%YAML 1.1
%TAG !u! tag:unity3d.com,2011:
--- !u!114 &11400000
MonoBehaviour:
  m_ObjectHideFlags: 0
  m_CorrespondingSourceObject: {fileID: 0}
  m_PrefabInstance: {fileID: 0}
  m_PrefabAsset: {fileID: 0}
  m_GameObject: {fileID: 0}
  m_Enabled: 1
  m_EditorHideFlags: 0
  m_Script: {fileID: 11500000, guid: cd8c578fd5426984fa367ec08c62c9b7, type: 3}
  m_Name: "\u0423 \u043D\u0430\u0441 \u043D\u0430 \u0442\u0435\u0440\u0440\u0438\u0442\u043E\u0440\u0438\u0438
    \u043D\u0435\u0442 \u043D\u0438 \u043E\u0434\u043D\u043E\u0433\u043E \u0431\u0430\u0440\u0430.
    \u042D\u0442\u043E \u0430\u0431\u0441\u043E\u043B\u044E\u0442\u043D\u043E \u0442\u043E\u0447\u043D\u043E
    \u043D\u0430\u0434\u043E \u0438\u0441\u043F\u0440\u0430\u0432\u0438\u0442\u044C."
  m_EditorClassIdentifier: 
  id: 370
  text:
  - "\u0423 \u043D\u0430\u0441 \u043D\u0430 \u0442\u0435\u0440\u0440\u0438\u0442\u043E\u0440\u0438\u0438
    \u043D\u0435\u0442 \u043D\u0438 \u043E\u0434\u043D\u043E\u0433\u043E \u0431\u0430\u0440\u0430.
    \u042D\u0442\u043E \u0430\u0431\u0441\u043E\u043B\u044E\u0442\u043D\u043E \u0442\u043E\u0447\u043D\u043E
    \u043D\u0430\u0434\u043E \u0438\u0441\u043F\u0440\u0430\u0432\u0438\u0442\u044C."
  - We do not have a single bar on the territory. This definitely needs to be corrected.
