%YAML 1.1
%TAG !u! tag:unity3d.com,2011:
--- !u!114 &11400000
MonoBehaviour:
  m_ObjectHideFlags: 0
  m_CorrespondingSourceObject: {fileID: 0}
  m_PrefabInstance: {fileID: 0}
  m_PrefabAsset: {fileID: 0}
  m_GameObject: {fileID: 0}
  m_Enabled: 1
  m_EditorHideFlags: 0
  m_Script: {fileID: 11500000, guid: cd8c578fd5426984fa367ec08c62c9b7, type: 3}
  m_Name: "\u042D\u0442\u043E \u0432\u0440\u0435\u043C\u0435\u043D\u043D\u043E \u0443\u0432\u0435\u043B\u0438\u0447\u0438\u0442
    \u0434\u043E\u0445\u043E\u0434 \u043F\u0440\u0438\u043D\u043E\u0441\u0438\u043C\u044B\u0439
    \u0437\u0434\u0430\u043D\u0438\u0435\u043C. \u0427\u0435\u043C \u043A\u0430\u0447\u0435\u0441\u0442\u0432\u0435\u043D\u043D\u0435\u0435
    \u0435\u0434\u0430, \u0442\u0435\u043C \u0441\u0438\u043B\u044C\u043D\u0435\u0435
    \u0440\u0430\u0441\u0442\u0435\u0442 \u0434\u043E\u0445\u043E\u0434."
  m_EditorClassIdentifier: 
  id: 391
  text:
  - "\"\u042D\u0442\u043E \u0432\u0440\u0435\u043C\u0435\u043D\u043D\u043E \u0443\u0432\u0435\u043B\u0438\u0447\u0438\u0442
    \u0434\u043E\u0445\u043E\u0434 \u043F\u0440\u0438\u043D\u043E\u0441\u0438\u043C\u044B\u0439
    \u0437\u0434\u0430\u043D\u0438\u0435\u043C. \u0427\u0435\u043C \u043A\u0430\u0447\u0435\u0441\u0442\u0432\u0435\u043D\u043D\u0435\u0435
    \u0435\u0434\u0430, \u0442\u0435\u043C \u0441\u0438\u043B\u044C\u043D\u0435\u0435
    \u0440\u0430\u0441\u0442\u0435\u0442 \u0434\u043E\u0445\u043E\u0434.\""
  - '"This will temporary increase the building profit. The better the food, the
    higher the price."'
