%YAML 1.1
%TAG !u! tag:unity3d.com,2011:
--- !u!114 &11400000
MonoBehaviour:
  m_ObjectHideFlags: 0
  m_CorrespondingSourceObject: {fileID: 0}
  m_PrefabInstance: {fileID: 0}
  m_PrefabAsset: {fileID: 0}
  m_GameObject: {fileID: 0}
  m_Enabled: 1
  m_EditorHideFlags: 0
  m_Script: {fileID: 11500000, guid: 3803d5d0208eb674bb27394fb20d46f6, type: 3}
  m_Name: "31 \u0427\u0435\u0440\u0432\u0438 +1"
  m_EditorClassIdentifier: 
  id: 83
  product:
    name: {fileID: 11400000, guid: ceba85284d8f8be4082c131bf1878458, type: 2}
    count: 7
  timeSec: 1000
  needResours:
  - name: {fileID: 11400000, guid: 2554047ede9863144960b28bd07c5c45, type: 2}
    count: 1
