%YAML 1.1
%TAG !u! tag:unity3d.com,2011:
--- !u!114 &11400000
MonoBehaviour:
  m_ObjectHideFlags: 0
  m_CorrespondingSourceObject: {fileID: 0}
  m_PrefabInstance: {fileID: 0}
  m_PrefabAsset: {fileID: 0}
  m_GameObject: {fileID: 0}
  m_Enabled: 1
  m_EditorHideFlags: 0
  m_Script: {fileID: 11500000, guid: 3803d5d0208eb674bb27394fb20d46f6, type: 3}
  m_Name: "78 \u041F\u0448\u0435\u043D\u0438\u0446\u0430 -1\u041A\u043E\u043C\u043F\u043E\u0441\u0442"
  m_EditorClassIdentifier: 
  id: 84
  product:
    name: {fileID: 11400000, guid: 892f2494720ee9042bd0137b42fc099a, type: 2}
    count: 90
  timeSec: 560
  needResours:
  - name: {fileID: 11400000, guid: b41483789907dcb4b968bb24e9fb8b87, type: 2}
    count: 6
