%YAML 1.1
%TAG !u! tag:unity3d.com,2011:
--- !u!114 &11400000
MonoBehaviour:
  m_ObjectHideFlags: 0
  m_CorrespondingSourceObject: {fileID: 0}
  m_PrefabInstance: {fileID: 0}
  m_PrefabAsset: {fileID: 0}
  m_GameObject: {fileID: 0}
  m_Enabled: 1
  m_EditorHideFlags: 0
  m_Script: {fileID: 11500000, guid: cf87e15c4bb7ae04f9274eec1c2a5cf8, type: 3}
  m_Name: Materials
  m_EditorClassIdentifier: 
  Name: {fileID: 11400000, guid: 46ffc2c30655e474f9782ebd9dab9317, type: 2}
  type: 1
  maxCountCell: 30
