%YAML 1.1
%TAG !u! tag:unity3d.com,2011:
--- !u!114 &11400000
MonoBehaviour:
  m_ObjectHideFlags: 0
  m_CorrespondingSourceObject: {fileID: 0}
  m_PrefabInstance: {fileID: 0}
  m_PrefabAsset: {fileID: 0}
  m_GameObject: {fileID: 0}
  m_Enabled: 1
  m_EditorHideFlags: 0
  m_Script: {fileID: 11500000, guid: 32b276c320f42ad42a16366e0feb8238, type: 3}
  m_Name: "\u0410\u043C\u0431\u0430\u0440X1"
  m_EditorClassIdentifier: 
  _building: {fileID: 11400000, guid: 82f3d6e12e30acf40920eb308f53702d, type: 2}
  _count: 1
