%YAML 1.1
%TAG !u! tag:unity3d.com,2011:
--- !u!114 &11400000
MonoBehaviour:
  m_ObjectHideFlags: 0
  m_CorrespondingSourceObject: {fileID: 0}
  m_PrefabInstance: {fileID: 0}
  m_PrefabAsset: {fileID: 0}
  m_GameObject: {fileID: 0}
  m_Enabled: 1
  m_EditorHideFlags: 0
  m_Script: {fileID: 11500000, guid: 32b276c320f42ad42a16366e0feb8238, type: 3}
  m_Name: "\u0421\u0446\u0435\u043D\u0430X1"
  m_EditorClassIdentifier: 
  _building: {fileID: 11400000, guid: 6be1e3dca295a8744abe04b1ffc5e82f, type: 2}
  _count: 1
