%YAML 1.1
%TAG !u! tag:unity3d.com,2011:
--- !u!1001 &319625266847566818
PrefabInstance:
  m_ObjectHideFlags: 0
  serializedVersion: 2
  m_Modification:
    m_TransformParent: {fileID: 0}
    m_Modifications:
    - target: {fileID: -6857600435509690825, guid: 3e09b54dd17d2ba4e96bdcacd686c5f0,
        type: 3}
      propertyPath: <SizeTile>k__BackingField
      value: 2
      objectReference: {fileID: 0}
    - target: {fileID: -6857600435509690825, guid: 3e09b54dd17d2ba4e96bdcacd686c5f0,
        type: 3}
      propertyPath: <SizeTile>k__BackingField.x
      value: 2
      objectReference: {fileID: 0}
    - target: {fileID: -6857600435509690825, guid: 3e09b54dd17d2ba4e96bdcacd686c5f0,
        type: 3}
      propertyPath: <SizeTile>k__BackingField.y
      value: 2
      objectReference: {fileID: 0}
    - target: {fileID: -6857600435509690825, guid: 3e09b54dd17d2ba4e96bdcacd686c5f0,
        type: 3}
      propertyPath: <DefResource>k__BackingField
      value: 
      objectReference: {fileID: 11400000, guid: 8167d565a148ac84cb170b5404c17883,
        type: 2}
    - target: {fileID: 2692248173118472294, guid: 3e09b54dd17d2ba4e96bdcacd686c5f0,
        type: 3}
      propertyPath: m_RootOrder
      value: 0
      objectReference: {fileID: 0}
    - target: {fileID: 2692248173118472294, guid: 3e09b54dd17d2ba4e96bdcacd686c5f0,
        type: 3}
      propertyPath: m_LocalPosition.x
      value: -2.5183733
      objectReference: {fileID: 0}
    - target: {fileID: 2692248173118472294, guid: 3e09b54dd17d2ba4e96bdcacd686c5f0,
        type: 3}
      propertyPath: m_LocalPosition.y
      value: -0.82354534
      objectReference: {fileID: 0}
    - target: {fileID: 2692248173118472294, guid: 3e09b54dd17d2ba4e96bdcacd686c5f0,
        type: 3}
      propertyPath: m_LocalPosition.z
      value: 0
      objectReference: {fileID: 0}
    - target: {fileID: 2692248173118472294, guid: 3e09b54dd17d2ba4e96bdcacd686c5f0,
        type: 3}
      propertyPath: m_LocalRotation.w
      value: 1
      objectReference: {fileID: 0}
    - target: {fileID: 2692248173118472294, guid: 3e09b54dd17d2ba4e96bdcacd686c5f0,
        type: 3}
      propertyPath: m_LocalRotation.x
      value: -0
      objectReference: {fileID: 0}
    - target: {fileID: 2692248173118472294, guid: 3e09b54dd17d2ba4e96bdcacd686c5f0,
        type: 3}
      propertyPath: m_LocalRotation.y
      value: -0
      objectReference: {fileID: 0}
    - target: {fileID: 2692248173118472294, guid: 3e09b54dd17d2ba4e96bdcacd686c5f0,
        type: 3}
      propertyPath: m_LocalRotation.z
      value: -0
      objectReference: {fileID: 0}
    - target: {fileID: 2692248173118472294, guid: 3e09b54dd17d2ba4e96bdcacd686c5f0,
        type: 3}
      propertyPath: m_LocalEulerAnglesHint.x
      value: 0
      objectReference: {fileID: 0}
    - target: {fileID: 2692248173118472294, guid: 3e09b54dd17d2ba4e96bdcacd686c5f0,
        type: 3}
      propertyPath: m_LocalEulerAnglesHint.y
      value: 0
      objectReference: {fileID: 0}
    - target: {fileID: 2692248173118472294, guid: 3e09b54dd17d2ba4e96bdcacd686c5f0,
        type: 3}
      propertyPath: m_LocalEulerAnglesHint.z
      value: 0
      objectReference: {fileID: 0}
    - target: {fileID: 2692248173118472295, guid: 3e09b54dd17d2ba4e96bdcacd686c5f0,
        type: 3}
      propertyPath: m_Name
      value: Trash_2x2_1
      objectReference: {fileID: 0}
    - target: {fileID: 3158754890314954448, guid: 3e09b54dd17d2ba4e96bdcacd686c5f0,
        type: 3}
      propertyPath: m_Points.m_Paths.Array.data[0].Array.size
      value: 9
      objectReference: {fileID: 0}
    - target: {fileID: 3158754890314954448, guid: 3e09b54dd17d2ba4e96bdcacd686c5f0,
        type: 3}
      propertyPath: m_Points.m_Paths.Array.data[0].Array.data[0].x
      value: 0.9052353
      objectReference: {fileID: 0}
    - target: {fileID: 3158754890314954448, guid: 3e09b54dd17d2ba4e96bdcacd686c5f0,
        type: 3}
      propertyPath: m_Points.m_Paths.Array.data[0].Array.data[0].y
      value: 0.45599377
      objectReference: {fileID: 0}
    - target: {fileID: 3158754890314954448, guid: 3e09b54dd17d2ba4e96bdcacd686c5f0,
        type: 3}
      propertyPath: m_Points.m_Paths.Array.data[0].Array.data[1].x
      value: 0.60765153
      objectReference: {fileID: 0}
    - target: {fileID: 3158754890314954448, guid: 3e09b54dd17d2ba4e96bdcacd686c5f0,
        type: 3}
      propertyPath: m_Points.m_Paths.Array.data[0].Array.data[1].y
      value: 0.73634
      objectReference: {fileID: 0}
    - target: {fileID: 3158754890314954448, guid: 3e09b54dd17d2ba4e96bdcacd686c5f0,
        type: 3}
      propertyPath: m_Points.m_Paths.Array.data[0].Array.data[2].x
      value: 0.30439377
      objectReference: {fileID: 0}
    - target: {fileID: 3158754890314954448, guid: 3e09b54dd17d2ba4e96bdcacd686c5f0,
        type: 3}
      propertyPath: m_Points.m_Paths.Array.data[0].Array.data[2].y
      value: 0.58778745
      objectReference: {fileID: 0}
    - target: {fileID: 3158754890314954448, guid: 3e09b54dd17d2ba4e96bdcacd686c5f0,
        type: 3}
      propertyPath: m_Points.m_Paths.Array.data[0].Array.data[3].x
      value: -0.0032424927
      objectReference: {fileID: 0}
    - target: {fileID: 3158754890314954448, guid: 3e09b54dd17d2ba4e96bdcacd686c5f0,
        type: 3}
      propertyPath: m_Points.m_Paths.Array.data[0].Array.data[3].y
      value: 0.7872518
      objectReference: {fileID: 0}
    - target: {fileID: 3158754890314954448, guid: 3e09b54dd17d2ba4e96bdcacd686c5f0,
        type: 3}
      propertyPath: m_Points.m_Paths.Array.data[0].Array.data[4].x
      value: -0.45211792
      objectReference: {fileID: 0}
    - target: {fileID: 3158754890314954448, guid: 3e09b54dd17d2ba4e96bdcacd686c5f0,
        type: 3}
      propertyPath: m_Points.m_Paths.Array.data[0].Array.data[4].y
      value: 0.40422285
      objectReference: {fileID: 0}
    - target: {fileID: 3158754890314954448, guid: 3e09b54dd17d2ba4e96bdcacd686c5f0,
        type: 3}
      propertyPath: m_Points.m_Paths.Array.data[0].Array.data[5].x
      value: -0.65800554
      objectReference: {fileID: 0}
    - target: {fileID: 3158754890314954448, guid: 3e09b54dd17d2ba4e96bdcacd686c5f0,
        type: 3}
      propertyPath: m_Points.m_Paths.Array.data[0].Array.data[5].y
      value: 0.4901528
      objectReference: {fileID: 0}
    - target: {fileID: 3158754890314954448, guid: 3e09b54dd17d2ba4e96bdcacd686c5f0,
        type: 3}
      propertyPath: m_Points.m_Paths.Array.data[0].Array.data[6].x
      value: -0.904068
      objectReference: {fileID: 0}
    - target: {fileID: 3158754890314954448, guid: 3e09b54dd17d2ba4e96bdcacd686c5f0,
        type: 3}
      propertyPath: m_Points.m_Paths.Array.data[0].Array.data[6].y
      value: 0.32640818
      objectReference: {fileID: 0}
    - target: {fileID: 3158754890314954448, guid: 3e09b54dd17d2ba4e96bdcacd686c5f0,
        type: 3}
      propertyPath: m_Points.m_Paths.Array.data[0].Array.data[7].x
      value: -0.8687561
      objectReference: {fileID: 0}
    - target: {fileID: 3158754890314954448, guid: 3e09b54dd17d2ba4e96bdcacd686c5f0,
        type: 3}
      propertyPath: m_Points.m_Paths.Array.data[0].Array.data[7].y
      value: 0.06003819
      objectReference: {fileID: 0}
    - target: {fileID: 3158754890314954448, guid: 3e09b54dd17d2ba4e96bdcacd686c5f0,
        type: 3}
      propertyPath: m_Points.m_Paths.Array.data[0].Array.data[8].x
      value: 0.89487153
      objectReference: {fileID: 0}
    - target: {fileID: 3158754890314954448, guid: 3e09b54dd17d2ba4e96bdcacd686c5f0,
        type: 3}
      propertyPath: m_Points.m_Paths.Array.data[0].Array.data[8].y
      value: 0.045117747
      objectReference: {fileID: 0}
    - target: {fileID: 5678830504393775144, guid: 3e09b54dd17d2ba4e96bdcacd686c5f0,
        type: 3}
      propertyPath: m_Sprite
      value: 
      objectReference: {fileID: 21300000, guid: 8f9747dbeb6357d49be13d25c143d31a,
        type: 3}
    - target: {fileID: 5678830505808971442, guid: 3e09b54dd17d2ba4e96bdcacd686c5f0,
        type: 3}
      propertyPath: scaleSize.x
      value: 2
      objectReference: {fileID: 0}
    - target: {fileID: 5678830505808971442, guid: 3e09b54dd17d2ba4e96bdcacd686c5f0,
        type: 3}
      propertyPath: scaleSize.y
      value: 2
      objectReference: {fileID: 0}
    - target: {fileID: 8772704392067849164, guid: 3e09b54dd17d2ba4e96bdcacd686c5f0,
        type: 3}
      propertyPath: m_Points.m_Paths.Array.data[0].Array.data[0].y
      value: 0.560625
      objectReference: {fileID: 0}
    - target: {fileID: 8772704392067849164, guid: 3e09b54dd17d2ba4e96bdcacd686c5f0,
        type: 3}
      propertyPath: m_Points.m_Paths.Array.data[0].Array.data[1].x
      value: 0.975
      objectReference: {fileID: 0}
    - target: {fileID: 8772704392067849164, guid: 3e09b54dd17d2ba4e96bdcacd686c5f0,
        type: 3}
      propertyPath: m_Points.m_Paths.Array.data[0].Array.data[2].y
      value: -0.560625
      objectReference: {fileID: 0}
    - target: {fileID: 8772704392067849164, guid: 3e09b54dd17d2ba4e96bdcacd686c5f0,
        type: 3}
      propertyPath: m_Points.m_Paths.Array.data[0].Array.data[3].x
      value: -0.975
      objectReference: {fileID: 0}
    m_RemovedComponents: []
  m_SourcePrefab: {fileID: 100100000, guid: 3e09b54dd17d2ba4e96bdcacd686c5f0, type: 3}
