%YAML 1.1
%TAG !u! tag:unity3d.com,2011:
--- !u!1001 &2210716522081138211
PrefabInstance:
  m_ObjectHideFlags: 0
  serializedVersion: 2
  m_Modification:
    m_TransformParent: {fileID: 0}
    m_Modifications:
    - target: {fileID: -6857600435509690825, guid: 3e09b54dd17d2ba4e96bdcacd686c5f0,
        type: 3}
      propertyPath: <SizeTile>k__BackingField.x
      value: 2
      objectReference: {fileID: 0}
    - target: {fileID: -6857600435509690825, guid: 3e09b54dd17d2ba4e96bdcacd686c5f0,
        type: 3}
      propertyPath: <SizeTile>k__BackingField.y
      value: 2
      objectReference: {fileID: 0}
    - target: {fileID: -6857600435509690825, guid: 3e09b54dd17d2ba4e96bdcacd686c5f0,
        type: 3}
      propertyPath: <DefResource>k__BackingField
      value: 
      objectReference: {fileID: 11400000, guid: ff71cfabb94ae574498397c064202d7b,
        type: 2}
    - target: {fileID: 2692248173118472294, guid: 3e09b54dd17d2ba4e96bdcacd686c5f0,
        type: 3}
      propertyPath: m_RootOrder
      value: 0
      objectReference: {fileID: 0}
    - target: {fileID: 2692248173118472294, guid: 3e09b54dd17d2ba4e96bdcacd686c5f0,
        type: 3}
      propertyPath: m_LocalPosition.x
      value: -3.25
      objectReference: {fileID: 0}
    - target: {fileID: 2692248173118472294, guid: 3e09b54dd17d2ba4e96bdcacd686c5f0,
        type: 3}
      propertyPath: m_LocalPosition.y
      value: -0.14375001
      objectReference: {fileID: 0}
    - target: {fileID: 2692248173118472294, guid: 3e09b54dd17d2ba4e96bdcacd686c5f0,
        type: 3}
      propertyPath: m_LocalPosition.z
      value: 0
      objectReference: {fileID: 0}
    - target: {fileID: 2692248173118472294, guid: 3e09b54dd17d2ba4e96bdcacd686c5f0,
        type: 3}
      propertyPath: m_LocalRotation.w
      value: 1
      objectReference: {fileID: 0}
    - target: {fileID: 2692248173118472294, guid: 3e09b54dd17d2ba4e96bdcacd686c5f0,
        type: 3}
      propertyPath: m_LocalRotation.x
      value: 0
      objectReference: {fileID: 0}
    - target: {fileID: 2692248173118472294, guid: 3e09b54dd17d2ba4e96bdcacd686c5f0,
        type: 3}
      propertyPath: m_LocalRotation.y
      value: 0
      objectReference: {fileID: 0}
    - target: {fileID: 2692248173118472294, guid: 3e09b54dd17d2ba4e96bdcacd686c5f0,
        type: 3}
      propertyPath: m_LocalRotation.z
      value: 0
      objectReference: {fileID: 0}
    - target: {fileID: 2692248173118472294, guid: 3e09b54dd17d2ba4e96bdcacd686c5f0,
        type: 3}
      propertyPath: m_LocalEulerAnglesHint.x
      value: 0
      objectReference: {fileID: 0}
    - target: {fileID: 2692248173118472294, guid: 3e09b54dd17d2ba4e96bdcacd686c5f0,
        type: 3}
      propertyPath: m_LocalEulerAnglesHint.y
      value: 0
      objectReference: {fileID: 0}
    - target: {fileID: 2692248173118472294, guid: 3e09b54dd17d2ba4e96bdcacd686c5f0,
        type: 3}
      propertyPath: m_LocalEulerAnglesHint.z
      value: 0
      objectReference: {fileID: 0}
    - target: {fileID: 2692248173118472295, guid: 3e09b54dd17d2ba4e96bdcacd686c5f0,
        type: 3}
      propertyPath: m_Name
      value: trash_plastic_2x2
      objectReference: {fileID: 0}
    - target: {fileID: 3158754890314954448, guid: 3e09b54dd17d2ba4e96bdcacd686c5f0,
        type: 3}
      propertyPath: m_Points.m_Paths.Array.data[0].Array.size
      value: 8
      objectReference: {fileID: 0}
    - target: {fileID: 3158754890314954448, guid: 3e09b54dd17d2ba4e96bdcacd686c5f0,
        type: 3}
      propertyPath: m_Points.m_Paths.Array.data[0].Array.data[0].x
      value: 0.462322
      objectReference: {fileID: 0}
    - target: {fileID: 3158754890314954448, guid: 3e09b54dd17d2ba4e96bdcacd686c5f0,
        type: 3}
      propertyPath: m_Points.m_Paths.Array.data[0].Array.data[0].y
      value: 0.61086476
      objectReference: {fileID: 0}
    - target: {fileID: 3158754890314954448, guid: 3e09b54dd17d2ba4e96bdcacd686c5f0,
        type: 3}
      propertyPath: m_Points.m_Paths.Array.data[0].Array.data[1].x
      value: 0.24033551
      objectReference: {fileID: 0}
    - target: {fileID: 3158754890314954448, guid: 3e09b54dd17d2ba4e96bdcacd686c5f0,
        type: 3}
      propertyPath: m_Points.m_Paths.Array.data[0].Array.data[1].y
      value: 0.80076677
      objectReference: {fileID: 0}
    - target: {fileID: 3158754890314954448, guid: 3e09b54dd17d2ba4e96bdcacd686c5f0,
        type: 3}
      propertyPath: m_Points.m_Paths.Array.data[0].Array.data[2].x
      value: -0.10678458
      objectReference: {fileID: 0}
    - target: {fileID: 3158754890314954448, guid: 3e09b54dd17d2ba4e96bdcacd686c5f0,
        type: 3}
      propertyPath: m_Points.m_Paths.Array.data[0].Array.data[2].y
      value: 1.0095519
      objectReference: {fileID: 0}
    - target: {fileID: 3158754890314954448, guid: 3e09b54dd17d2ba4e96bdcacd686c5f0,
        type: 3}
      propertyPath: m_Points.m_Paths.Array.data[0].Array.data[3].x
      value: -0.4666229
      objectReference: {fileID: 0}
    - target: {fileID: 3158754890314954448, guid: 3e09b54dd17d2ba4e96bdcacd686c5f0,
        type: 3}
      propertyPath: m_Points.m_Paths.Array.data[0].Array.data[3].y
      value: 0.8028818
      objectReference: {fileID: 0}
    - target: {fileID: 3158754890314954448, guid: 3e09b54dd17d2ba4e96bdcacd686c5f0,
        type: 3}
      propertyPath: m_Points.m_Paths.Array.data[0].Array.data[4].x
      value: -0.58439827
      objectReference: {fileID: 0}
    - target: {fileID: 3158754890314954448, guid: 3e09b54dd17d2ba4e96bdcacd686c5f0,
        type: 3}
      propertyPath: m_Points.m_Paths.Array.data[0].Array.data[4].y
      value: 0.49914408
      objectReference: {fileID: 0}
    - target: {fileID: 3158754890314954448, guid: 3e09b54dd17d2ba4e96bdcacd686c5f0,
        type: 3}
      propertyPath: m_Points.m_Paths.Array.data[0].Array.data[5].x
      value: -0.96125317
      objectReference: {fileID: 0}
    - target: {fileID: 3158754890314954448, guid: 3e09b54dd17d2ba4e96bdcacd686c5f0,
        type: 3}
      propertyPath: m_Points.m_Paths.Array.data[0].Array.data[5].y
      value: 0.20657088
      objectReference: {fileID: 0}
    - target: {fileID: 3158754890314954448, guid: 3e09b54dd17d2ba4e96bdcacd686c5f0,
        type: 3}
      propertyPath: m_Points.m_Paths.Array.data[0].Array.data[6].x
      value: -0.97206837
      objectReference: {fileID: 0}
    - target: {fileID: 3158754890314954448, guid: 3e09b54dd17d2ba4e96bdcacd686c5f0,
        type: 3}
      propertyPath: m_Points.m_Paths.Array.data[0].Array.data[6].y
      value: 0.002870869
      objectReference: {fileID: 0}
    - target: {fileID: 3158754890314954448, guid: 3e09b54dd17d2ba4e96bdcacd686c5f0,
        type: 3}
      propertyPath: m_Points.m_Paths.Array.data[0].Array.data[7].x
      value: 0.64003927
      objectReference: {fileID: 0}
    - target: {fileID: 3158754890314954448, guid: 3e09b54dd17d2ba4e96bdcacd686c5f0,
        type: 3}
      propertyPath: m_Points.m_Paths.Array.data[0].Array.data[7].y
      value: 0.1995507
      objectReference: {fileID: 0}
    - target: {fileID: 5678830504393775144, guid: 3e09b54dd17d2ba4e96bdcacd686c5f0,
        type: 3}
      propertyPath: m_Sprite
      value: 
      objectReference: {fileID: 21300000, guid: 1dd9760daef96d440ac9f06d64f8f643,
        type: 3}
    - target: {fileID: 5678830505808971442, guid: 3e09b54dd17d2ba4e96bdcacd686c5f0,
        type: 3}
      propertyPath: scaleSize.x
      value: 2
      objectReference: {fileID: 0}
    - target: {fileID: 5678830505808971442, guid: 3e09b54dd17d2ba4e96bdcacd686c5f0,
        type: 3}
      propertyPath: scaleSize.y
      value: 2
      objectReference: {fileID: 0}
    - target: {fileID: 8772704392067849164, guid: 3e09b54dd17d2ba4e96bdcacd686c5f0,
        type: 3}
      propertyPath: m_Points.m_Paths.Array.data[0].Array.data[0].y
      value: 0.560625
      objectReference: {fileID: 0}
    - target: {fileID: 8772704392067849164, guid: 3e09b54dd17d2ba4e96bdcacd686c5f0,
        type: 3}
      propertyPath: m_Points.m_Paths.Array.data[0].Array.data[1].x
      value: 0.975
      objectReference: {fileID: 0}
    - target: {fileID: 8772704392067849164, guid: 3e09b54dd17d2ba4e96bdcacd686c5f0,
        type: 3}
      propertyPath: m_Points.m_Paths.Array.data[0].Array.data[2].y
      value: -0.560625
      objectReference: {fileID: 0}
    - target: {fileID: 8772704392067849164, guid: 3e09b54dd17d2ba4e96bdcacd686c5f0,
        type: 3}
      propertyPath: m_Points.m_Paths.Array.data[0].Array.data[3].x
      value: -0.975
      objectReference: {fileID: 0}
    m_RemovedComponents: []
  m_SourcePrefab: {fileID: 100100000, guid: 3e09b54dd17d2ba4e96bdcacd686c5f0, type: 3}
