%YAML 1.1
%TAG !u! tag:unity3d.com,2011:
--- !u!114 &11400000
MonoBehaviour:
  m_ObjectHideFlags: 0
  m_CorrespondingSourceObject: {fileID: 0}
  m_PrefabInstance: {fileID: 0}
  m_PrefabAsset: {fileID: 0}
  m_GameObject: {fileID: 0}
  m_Enabled: 1
  m_EditorHideFlags: 0
  m_Script: {fileID: 11500000, guid: cd8c578fd5426984fa367ec08c62c9b7, type: 3}
  m_Name: Stage5
  m_EditorClassIdentifier: 
  id: 79
  text:
  - "\u0423 \u0421\u0446\u0435\u043D\u044B \u043F\u0440\u043E\u043F\u0430\u0434\u0430\u0435\u0442
    \u043C\u0430\u043A\u0441\u0438\u043C\u0430\u043B\u044C\u043D\u044B\u0439 \u0442\u0430\u0440\u0438\u0444"
  - Scene doesn't wait on the max. tariff
