%YAML 1.1
%TAG !u! tag:unity3d.com,2011:
--- !u!114 &11400000
MonoBehaviour:
  m_ObjectHideFlags: 0
  m_CorrespondingSourceObject: {fileID: 0}
  m_PrefabInstance: {fileID: 0}
  m_PrefabAsset: {fileID: 0}
  m_GameObject: {fileID: 0}
  m_Enabled: 1
  m_EditorHideFlags: 0
  m_Script: {fileID: 11500000, guid: 7af9ac43de0b659448e4f26bce9eaace, type: 3}
  m_Name: BranchFarming
  m_EditorClassIdentifier: 
  BranchName: {fileID: 11400000, guid: c16fdbded4acca54d9195f918dbac15f, type: 2}
  Girl: {fileID: 21300000, guid: 20a393974cd9d174c9e6b0487d65f031, type: 3}
  Icon: {fileID: 21300000, guid: c454ecd7f9a19b045b062db8160204a5, type: 3}
  Stages:
  - {fileID: 11400000, guid: a9e23658193d581428e12f37a5dc0611, type: 2}
  - {fileID: 11400000, guid: d9cd14d2d0b9fe944b7b7b748004ab97, type: 2}
  - {fileID: 11400000, guid: 521b02418913fa64dbb6349d116b43dd, type: 2}
  - {fileID: 11400000, guid: d9691c9eafdcb8741ab52ac253b271da, type: 2}
  - {fileID: 11400000, guid: ec0e1d686024d824e8998e9c7d868a82, type: 2}
