%YAML 1.1
%TAG !u! tag:unity3d.com,2011:
--- !u!114 &11400000
MonoBehaviour:
  m_ObjectHideFlags: 0
  m_CorrespondingSourceObject: {fileID: 0}
  m_PrefabInstance: {fileID: 0}
  m_PrefabAsset: {fileID: 0}
  m_GameObject: {fileID: 0}
  m_Enabled: 1
  m_EditorHideFlags: 0
  m_Script: {fileID: 11500000, guid: 7af9ac43de0b659448e4f26bce9eaace, type: 3}
  m_Name: BranchMetalcraft
  m_EditorClassIdentifier: 
  BranchName: {fileID: 11400000, guid: c1bf291a6b3ccea4b97428944c7f98f4, type: 2}
  Girl: {fileID: 21300000, guid: f50514a98a4784d489f427475da9bda3, type: 3}
  Icon: {fileID: 21300000, guid: a8b54f534228ba04498841744e3afdfe, type: 3}
  Stages:
  - {fileID: 11400000, guid: 4b7ad02db0e25944aae930a8217f526e, type: 2}
  - {fileID: 11400000, guid: 2c6fd260929ab69469c62f8aff71aac2, type: 2}
  - {fileID: 11400000, guid: 3dea28092f721c043bb62937fb141049, type: 2}
  - {fileID: 11400000, guid: 1c2c1449c82fc86489a3fbdbd702af76, type: 2}
  - {fileID: 11400000, guid: 927daddfd7cac0f46b2ddda58767fffd, type: 2}
