%YAML 1.1
%TAG !u! tag:unity3d.com,2011:
--- !u!114 &11400000
MonoBehaviour:
  m_ObjectHideFlags: 0
  m_CorrespondingSourceObject: {fileID: 0}
  m_PrefabInstance: {fileID: 0}
  m_PrefabAsset: {fileID: 0}
  m_GameObject: {fileID: 0}
  m_Enabled: 1
  m_EditorHideFlags: 0
  m_Script: {fileID: 11500000, guid: 9f805cf31f55f3548ae24755b3c7b834, type: 3}
  m_Name: "\u0411\u0440\u0435\u0437\u0435\u043D\u0442Data"
  m_EditorClassIdentifier: 
  nameRes: {fileID: 11400000, guid: 349f4acc6a87f34408675e34c6b06747, type: 2}
  sprite: {fileID: 21300000, guid: b659ecf02bfe6fc40af5c90cec4230b3, type: 3}
  maxCountOneCell: 100
  type: 1
  canSell: 0
  canPut: 0
  Target: 0
