%YAML 1.1
%TAG !u! tag:unity3d.com,2011:
--- !u!114 &11400000
MonoBehaviour:
  m_ObjectHideFlags: 0
  m_CorrespondingSourceObject: {fileID: 0}
  m_PrefabInstance: {fileID: 0}
  m_PrefabAsset: {fileID: 0}
  m_GameObject: {fileID: 0}
  m_Enabled: 1
  m_EditorHideFlags: 0
  m_Script: {fileID: 11500000, guid: 9f805cf31f55f3548ae24755b3c7b834, type: 3}
  m_Name: "\u0413\u0432\u043E\u0437\u0434\u0438Data"
  m_EditorClassIdentifier: 
  nameRes: {fileID: 11400000, guid: f2a68d9d3fae9ca40b87963ef81f797a, type: 2}
  sprite: {fileID: 21300000, guid: 469b3f8aeb2ef074d8cb53c1a6aea4dc, type: 3}
  maxCountOneCell: 100
  type: 1
  canSell: 0
  canPut: 0
  Target: 0
