%YAML 1.1
%TAG !u! tag:unity3d.com,2011:
--- !u!114 &11400000
MonoBehaviour:
  m_ObjectHideFlags: 0
  m_CorrespondingSourceObject: {fileID: 0}
  m_PrefabInstance: {fileID: 0}
  m_PrefabAsset: {fileID: 0}
  m_GameObject: {fileID: 0}
  m_Enabled: 1
  m_EditorHideFlags: 0
  m_Script: {fileID: 11500000, guid: 9f805cf31f55f3548ae24755b3c7b834, type: 3}
  m_Name: "\u0416\u0430\u0440\u0435\u043D\u0430\u044F \u043A\u0443\u0440\u0438\u0446\u0430Data"
  m_EditorClassIdentifier: 
  nameRes: {fileID: 11400000, guid: c80e9792993ac1843a2329f97c8ad7b8, type: 2}
  sprite: {fileID: 21300000, guid: 0f8d6ab593c83f849a68084df8b908cd, type: 3}
  maxCountOneCell: 100
  type: 3
  canSell: 0
  canPut: 0
  Target: 0
