%YAML 1.1
%TAG !u! tag:unity3d.com,2011:
--- !u!114 &11400000
MonoBehaviour:
  m_ObjectHideFlags: 0
  m_CorrespondingSourceObject: {fileID: 0}
  m_PrefabInstance: {fileID: 0}
  m_PrefabAsset: {fileID: 0}
  m_GameObject: {fileID: 0}
  m_Enabled: 1
  m_EditorHideFlags: 0
  m_Script: {fileID: 11500000, guid: 9f805cf31f55f3548ae24755b3c7b834, type: 3}
  m_Name: "\u041A\u0435\u043A\u0441\u044BData"
  m_EditorClassIdentifier: 
  nameRes: {fileID: 11400000, guid: 4ff8ee29f2676dd46b4085f8ffd3ebec, type: 2}
  sprite: {fileID: 21300000, guid: 2def11a10d0809f4aa51b4bf010ee8d5, type: 3}
  maxCountOneCell: 100
  type: 3
  canSell: 0
  canPut: 0
  Target: 0
