%YAML 1.1
%TAG !u! tag:unity3d.com,2011:
--- !u!114 &11400000
MonoBehaviour:
  m_ObjectHideFlags: 0
  m_CorrespondingSourceObject: {fileID: 0}
  m_PrefabInstance: {fileID: 0}
  m_PrefabAsset: {fileID: 0}
  m_GameObject: {fileID: 0}
  m_Enabled: 1
  m_EditorHideFlags: 0
  m_Script: {fileID: 11500000, guid: 9f805cf31f55f3548ae24755b3c7b834, type: 3}
  m_Name: "\u041B\u0430\u0432\u0430\u0448Data"
  m_EditorClassIdentifier: 
  nameRes: {fileID: 11400000, guid: 5885775c809d356488b038af35c9a54d, type: 2}
  sprite: {fileID: 21300000, guid: f85b42b5cff133a4e89e8a17a741eb79, type: 3}
  maxCountOneCell: 100
  type: 3
  canSell: 0
  canPut: 0
  Target: 0
