%YAML 1.1
%TAG !u! tag:unity3d.com,2011:
--- !u!114 &11400000
MonoBehaviour:
  m_ObjectHideFlags: 0
  m_CorrespondingSourceObject: {fileID: 0}
  m_PrefabInstance: {fileID: 0}
  m_PrefabAsset: {fileID: 0}
  m_GameObject: {fileID: 0}
  m_Enabled: 1
  m_EditorHideFlags: 0
  m_Script: {fileID: 11500000, guid: 9f805cf31f55f3548ae24755b3c7b834, type: 3}
  m_Name: "\u041B\u0438\u0441\u0438\u0447\u043A\u0438Data"
  m_EditorClassIdentifier: 
  nameRes: {fileID: 11400000, guid: 0787581812ab93c4d8bf54a402eb60e0, type: 2}
  sprite: {fileID: 21300000, guid: 2957494a562710441a9a16c09e751aea, type: 3}
  maxCountOneCell: 100
  type: 1
  canSell: 0
  canPut: 0
  Target: 0
