%YAML 1.1
%TAG !u! tag:unity3d.com,2011:
--- !u!114 &11400000
MonoBehaviour:
  m_ObjectHideFlags: 0
  m_CorrespondingSourceObject: {fileID: 0}
  m_PrefabInstance: {fileID: 0}
  m_PrefabAsset: {fileID: 0}
  m_GameObject: {fileID: 0}
  m_Enabled: 1
  m_EditorHideFlags: 0
  m_Script: {fileID: 11500000, guid: 9f805cf31f55f3548ae24755b3c7b834, type: 3}
  m_Name: "\u041E\u043F\u0438\u043B\u043A\u0438Data"
  m_EditorClassIdentifier: 
  nameRes: {fileID: 11400000, guid: 4bdcf555a5c63f04792b0268d234f300, type: 2}
  sprite: {fileID: 21300000, guid: 4891bbbc1017fe74282074e98297287e, type: 3}
  maxCountOneCell: 100
  type: 1
  canSell: 0
  canPut: 0
  Target: 0
