%YAML 1.1
%TAG !u! tag:unity3d.com,2011:
--- !u!114 &11400000
MonoBehaviour:
  m_ObjectHideFlags: 0
  m_CorrespondingSourceObject: {fileID: 0}
  m_PrefabInstance: {fileID: 0}
  m_PrefabAsset: {fileID: 0}
  m_GameObject: {fileID: 0}
  m_Enabled: 1
  m_EditorHideFlags: 0
  m_Script: {fileID: 11500000, guid: 9f805cf31f55f3548ae24755b3c7b834, type: 3}
  m_Name: "\u0421\u0442\u0435\u043A\u043E\u043B\u044C\u043D\u0430\u044F \u0444\u0440\u0430\u043A\u0446\u0438\u044FData"
  m_EditorClassIdentifier: 
  nameRes: {fileID: 11400000, guid: 2dc0ef5b1b45d454fa76a04b2b95235b, type: 2}
  sprite: {fileID: 21300000, guid: 138c4b41535f637429a229b336be2583, type: 3}
  maxCountOneCell: 100
  type: 1
  canSell: 0
  canPut: 0
  Target: 0
