%YAML 1.1
%TAG !u! tag:unity3d.com,2011:
--- !u!114 &11400000
MonoBehaviour:
  m_ObjectHideFlags: 0
  m_CorrespondingSourceObject: {fileID: 0}
  m_PrefabInstance: {fileID: 0}
  m_PrefabAsset: {fileID: 0}
  m_GameObject: {fileID: 0}
  m_Enabled: 1
  m_EditorHideFlags: 0
  m_Script: {fileID: 11500000, guid: cd8c578fd5426984fa367ec08c62c9b7, type: 3}
  m_Name: String 32
  m_EditorClassIdentifier: 
  id: 5052
  text:
  - "\u041E\u0441\u0442\u0430\u043B\u043E\u0441\u044C \u0441\u043E\u0431\u0440\u0430\u0442\u044C
    \u0441\u0442\u0440\u043E\u0438\u0442\u0435\u043B\u044C\u043D\u044B\u0435 \u043E\u0442\u0445\u043E\u0434\u044B.."
  - Solid and loose waste is left...
