%YAML 1.1
%TAG !u! tag:unity3d.com,2011:
--- !u!114 &11400000
MonoBehaviour:
  m_ObjectHideFlags: 0
  m_CorrespondingSourceObject: {fileID: 0}
  m_PrefabInstance: {fileID: 0}
  m_PrefabAsset: {fileID: 0}
  m_GameObject: {fileID: 0}
  m_Enabled: 1
  m_EditorHideFlags: 0
  m_Script: {fileID: 11500000, guid: cd8c578fd5426984fa367ec08c62c9b7, type: 3}
  m_Name: EnergyDescription
  m_EditorClassIdentifier: 
  id: 158
  text:
  - "\"\u041F\u043E\u043F\u043E\u043B\u043D\u0438 \u044D\u043D\u0435\u0440\u0433\u0438\u044E,
    \u0447\u0442\u043E\u0431\u044B \u0432\u0441\u0435\u0433\u0434\u0430 \u0431\u044B\u0442\u044C
    \u0431\u043E\u0434\u0440\u044B\u043C. \u0421 \u044D\u0442\u043E\u0439 \u044D\u043D\u0435\u0440\u0433\u0438\u0435\u0439
    \u0442\u0435\u0431\u0435 \u0445\u0432\u0430\u0442\u0438\u0442 \u0441\u0438\u043B
    \u0440\u0430\u0441\u0447\u0438\u0441\u0442\u0438\u0442\u044C \u0432\u0435\u0441\u044C
    \u043C\u0443\u0441\u043E\u0440 \u043C\u0438\u0440\u0430\""
  - '"Replenish your energy to stay awake at all times. With this energy, you will
    have the strength to clear all the rubbish of the world."'
