%YAML 1.1
%TAG !u! tag:unity3d.com,2011:
--- !u!114 &11400000
MonoBehaviour:
  m_ObjectHideFlags: 0
  m_CorrespondingSourceObject: {fileID: 0}
  m_PrefabInstance: {fileID: 0}
  m_PrefabAsset: {fileID: 0}
  m_GameObject: {fileID: 0}
  m_Enabled: 1
  m_EditorHideFlags: 0
  m_Script: {fileID: 11500000, guid: 2971ebaf7b1c4d55b3a5807c225e0490, type: 3}
  m_Name: FarmingStage5
  m_EditorClassIdentifier: 
  StageID: 5
  StageDescription: {fileID: 11400000, guid: 291c64cd908cb454db05bf6099026680, type: 2}
  StageBonus: {fileID: 11400000, guid: e78eca0433e56c94890f42d849789975, type: 2}
  QuestToLvlUp: {fileID: 0}
