%YAML 1.1
%TAG !u! tag:unity3d.com,2011:
--- !u!114 &11400000
MonoBehaviour:
  m_ObjectHideFlags: 0
  m_CorrespondingSourceObject: {fileID: 0}
  m_PrefabInstance: {fileID: 0}
  m_PrefabAsset: {fileID: 0}
  m_GameObject: {fileID: 0}
  m_Enabled: 1
  m_EditorHideFlags: 0
  m_Script: {fileID: 11500000, guid: d1d6456eae5858c439e8d6ae701b73c0, type: 3}
  m_Name: trash_1x1_2
  m_EditorClassIdentifier: 
  myName: {fileID: 11400000, guid: 79983e560571234449a97c34a9195f92, type: 2}
  resources:
  - name: {fileID: 11400000, guid: 9bae6a68135870843ba83b13a3ae1155, type: 2}
    count: 15
  - name: {fileID: 11400000, guid: 0398b5a17c5e40e46a33e7c7990274e4, type: 2}
    count: 5
  - name: {fileID: 11400000, guid: 2554047ede9863144960b28bd07c5c45, type: 2}
    count: 10
  onlyRobots: 0
