%YAML 1.1
%TAG !u! tag:unity3d.com,2011:
--- !u!114 &11400000
MonoBehaviour:
  m_ObjectHideFlags: 0
  m_CorrespondingSourceObject: {fileID: 0}
  m_PrefabInstance: {fileID: 0}
  m_PrefabAsset: {fileID: 0}
  m_GameObject: {fileID: 0}
  m_Enabled: 1
  m_EditorHideFlags: 0
  m_Script: {fileID: 11500000, guid: d1d6456eae5858c439e8d6ae701b73c0, type: 3}
  m_Name: wood_trash_0001
  m_EditorClassIdentifier: 
  myName: {fileID: 11400000, guid: e5809f751deb65a4aac24e3369859622, type: 2}
  resources:
  - name: {fileID: 11400000, guid: 1fba585e977dc6f4292c499111830a6d, type: 2}
    count: 30
  onlyRobots: 0
