%YAML 1.1
%TAG !u! tag:unity3d.com,2011:
--- !u!114 &11400000
MonoBehaviour:
  m_ObjectHideFlags: 0
  m_CorrespondingSourceObject: {fileID: 0}
  m_PrefabInstance: {fileID: 0}
  m_PrefabAsset: {fileID: 0}
  m_GameObject: {fileID: 0}
  m_Enabled: 1
  m_EditorHideFlags: 0
  m_Script: {fileID: 11500000, guid: 08cdf629b5a187349a46b63622ac773e, type: 3}
  m_Name: "\u0416\u0430\u0440\u0435\u043D\u0430\u044F \u043A\u0443\u0440\u0438\u0446\u0430"
  m_EditorClassIdentifier: 
  nameSO: {fileID: 11400000, guid: c80e9792993ac1843a2329f97c8ad7b8, type: 2}
  power: 1.61
  time: 120
  level: 3
