%YAML 1.1
%TAG !u! tag:unity3d.com,2011:
--- !u!114 &11400000
MonoBehaviour:
  m_ObjectHideFlags: 0
  m_CorrespondingSourceObject: {fileID: 0}
  m_PrefabInstance: {fileID: 0}
  m_PrefabAsset: {fileID: 0}
  m_GameObject: {fileID: 0}
  m_Enabled: 1
  m_EditorHideFlags: 0
  m_Script: {fileID: 11500000, guid: 08cdf629b5a187349a46b63622ac773e, type: 3}
  m_Name: "\u041A\u0440\u0443\u0430\u0441\u0441\u0430\u043D"
  m_EditorClassIdentifier: 
  nameSO: {fileID: 11400000, guid: a7f9b94be1d484940b0280f533650d82, type: 2}
  power: 1.53
  time: 120
  level: 2
