%YAML 1.1
%TAG !u! tag:unity3d.com,2011:
--- !u!114 &11400000
MonoBehaviour:
  m_ObjectHideFlags: 0
  m_CorrespondingSourceObject: {fileID: 0}
  m_PrefabInstance: {fileID: 0}
  m_PrefabAsset: {fileID: 0}
  m_GameObject: {fileID: 0}
  m_Enabled: 1
  m_EditorHideFlags: 0
  m_Script: {fileID: 11500000, guid: cd8c578fd5426984fa367ec08c62c9b7, type: 3}
  m_Name: String 16
  m_EditorClassIdentifier: 
  id: 5024
  text:
  - "\u0414\u0430\u0432\u0430\u0439 \u0443\u0436\u0435 \u0441\u043A\u043E\u0440\u0435\u0435
    \u043F\u043E\u0441\u0442\u0440\u043E\u0438\u043C \u0441\u043A\u043B\u0430\u0434,
    \u0438 \u043F\u0440\u0438\u0441\u0442\u0443\u043F\u0438\u043C \u043A \u0441\u043E\u0440\u0442\u0438\u0440\u043E\u0432\u043A\u0435
    \u043C\u0443\u0441\u043E\u0440\u0430."
  - Let's build it and move to recycling
