%YAML 1.1
%TAG !u! tag:unity3d.com,2011:
--- !u!114 &11400000
MonoBehaviour:
  m_ObjectHideFlags: 0
  m_CorrespondingSourceObject: {fileID: 0}
  m_PrefabInstance: {fileID: 0}
  m_PrefabAsset: {fileID: 0}
  m_GameObject: {fileID: 0}
  m_Enabled: 1
  m_EditorHideFlags: 0
  m_Script: {fileID: 11500000, guid: d515ccdbfccd91b46a90deb3931f74ca, type: 3}
  m_Name: "\u0412 \u0448\u0430\u0433\u0435 \u043E\u0442 \u0432\u0435\u0440\u0448\u0438\u043D\u044B
    \u0413\u043E\u0441\u0442\u0438\u043D\u0438\u0446\u0430"
  m_EditorClassIdentifier: 
  _label: {fileID: 11400000, guid: e6729357ebdd92e4da35291d82022ca2, type: 2}
  _description:
  - {fileID: 11400000, guid: 90aab49c201ad7c4299b9ba6584ff534, type: 2}
  _requirements:
  - {fileID: 11400000, guid: 2cc4a74e21ffdff44984f49807ecdcf4, type: 2}
  _rewards:
  - {fileID: 11400000, guid: 486d8413a95a33b4da92a553169041ab, type: 2}
  - {fileID: 11400000, guid: 0e70ee59a9ba0da409af4a39b9489cee, type: 2}
  - {fileID: 11400000, guid: 08061a915da796545a716fb5aaf2237b, type: 2}
  - {fileID: 11400000, guid: 49564c33708bc7c4381c5d292120d98a, type: 2}
  _score: 100
  _questsToActivate:
  - {fileID: 11400000, guid: caa7de757060b2c4698da04aae77e660, type: 2}
