%YAML 1.1
%TAG !u! tag:unity3d.com,2011:
--- !u!114 &11400000
MonoBehaviour:
  m_ObjectHideFlags: 0
  m_CorrespondingSourceObject: {fileID: 0}
  m_PrefabInstance: {fileID: 0}
  m_PrefabAsset: {fileID: 0}
  m_GameObject: {fileID: 0}
  m_Enabled: 1
  m_EditorHideFlags: 0
  m_Script: {fileID: 11500000, guid: d515ccdbfccd91b46a90deb3931f74ca, type: 3}
  m_Name: "\u0412 \u0448\u0430\u0433\u0435 \u043E\u0442 \u0432\u0435\u0440\u0448\u0438\u043D\u044B
    \u041F\u043E\u0441\u043B\u0435\u0434\u043D\u0438\u0439  \u0440\u044B\u0432\u043E\u043A"
  m_EditorClassIdentifier: 
  _label: {fileID: 11400000, guid: caa7de757060b2c4698da04aae77e660, type: 2}
  _description:
  - {fileID: 11400000, guid: a0a4f4aa672f01145bd16cc7384233f0, type: 2}
  _requirements:
  - {fileID: 11400000, guid: 93583dcb280d0724c8ccde1dd851de70, type: 2}
  - {fileID: 11400000, guid: 04904a110a8be414894e2c881146d631, type: 2}
  _rewards:
  - {fileID: 11400000, guid: f7225de675d3b10428a8b48309845608, type: 2}
  - {fileID: 11400000, guid: 772211e6ede7fd34fb1be0b8311cc002, type: 2}
  _score: 500
  _questsToActivate: []
