%YAML 1.1
%TAG !u! tag:unity3d.com,2011:
--- !u!114 &11400000
MonoBehaviour:
  m_ObjectHideFlags: 0
  m_CorrespondingSourceObject: {fileID: 0}
  m_PrefabInstance: {fileID: 0}
  m_PrefabAsset: {fileID: 0}
  m_GameObject: {fileID: 0}
  m_Enabled: 1
  m_EditorHideFlags: 0
  m_Script: {fileID: 11500000, guid: d515ccdbfccd91b46a90deb3931f74ca, type: 3}
  m_Name: "\u0413\u043B\u044D\u043C\u043F\u0438\u043D\u0433 \u0412\u0435\u0447\u0435\u0440\u043A\u043E\u043C
    \u0432 \u0431\u0430\u0440"
  m_EditorClassIdentifier: 
  _label: {fileID: 11400000, guid: 86772b5f8e2fc73468e17e720b9c3868, type: 2}
  _description:
  - {fileID: 11400000, guid: 06cfd52241c5c1846a0fc829ceb00fd6, type: 2}
  _requirements:
  - {fileID: 11400000, guid: 7e750045cdd00704481c4c09ee05770e, type: 2}
  _rewards:
  - {fileID: 11400000, guid: 1307ca099080b744eb9951edfb25b850, type: 2}
  - {fileID: 11400000, guid: ed8b39c575b88c44289d92ebd7e2b688, type: 2}
  _score: 15
  _questsToActivate:
  - {fileID: 11400000, guid: 0816e1a9b9fb7d946bfcac386ce662cb, type: 2}
