%YAML 1.1
%TAG !u! tag:unity3d.com,2011:
--- !u!114 &11400000
MonoBehaviour:
  m_ObjectHideFlags: 0
  m_CorrespondingSourceObject: {fileID: 0}
  m_PrefabInstance: {fileID: 0}
  m_PrefabAsset: {fileID: 0}
  m_GameObject: {fileID: 0}
  m_Enabled: 1
  m_EditorHideFlags: 0
  m_Script: {fileID: 11500000, guid: d515ccdbfccd91b46a90deb3931f74ca, type: 3}
  m_Name: "\u0413\u043B\u044D\u043C\u043F\u0438\u043D\u0433 \u0412\u043A\u0443\u0441\u043D\u044B\u0439
    \u0445\u043B\u0435\u0431"
  m_EditorClassIdentifier: 
  _label: {fileID: 11400000, guid: 36d5a218fe6334f41844e2d778b280e5, type: 2}
  _description:
  - {fileID: 11400000, guid: 25e3fe26be0a7d94aa7b167ddd446d9b, type: 2}
  - {fileID: 11400000, guid: dfadca8e6ad4f634ea94797348182d48, type: 2}
  _requirements:
  - {fileID: 11400000, guid: 35183d70d8000f744aef007d98ca8e4f, type: 2}
  _rewards:
  - {fileID: 11400000, guid: 9ed140ab9378b374ca25f36f22cdfc86, type: 2}
  _score: 10
  _questsToActivate:
  - {fileID: 11400000, guid: 04cb5b675a59c404baa657dd7b6ea361, type: 2}
