%YAML 1.1
%TAG !u! tag:unity3d.com,2011:
--- !u!114 &11400000
MonoBehaviour:
  m_ObjectHideFlags: 0
  m_CorrespondingSourceObject: {fileID: 0}
  m_PrefabInstance: {fileID: 0}
  m_PrefabAsset: {fileID: 0}
  m_GameObject: {fileID: 0}
  m_Enabled: 1
  m_EditorHideFlags: 0
  m_Script: {fileID: 11500000, guid: d515ccdbfccd91b46a90deb3931f74ca, type: 3}
  m_Name: "\u0413\u043B\u044D\u043C\u043F\u0438\u043D\u0433 \u041D\u0430\u0441\u0442\u043E\u044F\u0449\u0438\u0439
    \u043F\u043E\u0442\u043E\u043A \u043B\u044E\u0434\u0435\u0439"
  m_EditorClassIdentifier: 
  _label: {fileID: 11400000, guid: 0816e1a9b9fb7d946bfcac386ce662cb, type: 2}
  _description:
  - {fileID: 11400000, guid: 5a3d126ffafd0084ba3bb48a4e2e7da5, type: 2}
  _requirements:
  - {fileID: 11400000, guid: 67b613942927bad47955b89df96adb2d, type: 2}
  _rewards:
  - {fileID: 11400000, guid: ab924285beca4b04d8eec8a47aab9df3, type: 2}
  - {fileID: 11400000, guid: aa9be8d1d4cfa32468da5aa8b58dc273, type: 2}
  _score: 25
  _questsToActivate:
  - {fileID: 11400000, guid: ae31bee86c7dce94cbd9f270e99364bd, type: 2}
