%YAML 1.1
%TAG !u! tag:unity3d.com,2011:
--- !u!114 &11400000
MonoBehaviour:
  m_ObjectHideFlags: 0
  m_CorrespondingSourceObject: {fileID: 0}
  m_PrefabInstance: {fileID: 0}
  m_PrefabAsset: {fileID: 0}
  m_GameObject: {fileID: 0}
  m_Enabled: 1
  m_EditorHideFlags: 0
  m_Script: {fileID: 11500000, guid: d515ccdbfccd91b46a90deb3931f74ca, type: 3}
  m_Name: "\u041F\u0435\u0440\u0432\u044B\u0435 \u0448\u0430\u0433\u0438 \u041C\u0435\u0442\u0430\u043B\u043B\u0443\u0440\u0433\u0438\u0447\u0435\u0441\u043A\u0438\u0439
    \u0437\u0430\u0432\u043E\u0434"
  m_EditorClassIdentifier: 
  _label: {fileID: 11400000, guid: 43f7e0781b93d06499d931dc664cc9ee, type: 2}
  _description:
  - {fileID: 11400000, guid: a3daf1f6d1009034696df90aeb046d0d, type: 2}
  - {fileID: 11400000, guid: 7b3cd584f3e221a41b62496a4404c8f2, type: 2}
  _requirements:
  - {fileID: 11400000, guid: f8e0ab4ad6e9c4c43808a63166e2da90, type: 2}
  _rewards:
  - {fileID: 11400000, guid: 0da4ecc9d27c6c342aadc555bfc39b25, type: 2}
  - {fileID: 11400000, guid: 75edeb98ef231cf49ae4bf6184f30626, type: 2}
  _score: 5
  _questsToActivate:
  - {fileID: 11400000, guid: bd552554d44a5304dadad828cb535da9, type: 2}
