%YAML 1.1
%TAG !u! tag:unity3d.com,2011:
--- !u!114 &11400000
MonoBehaviour:
  m_ObjectHideFlags: 0
  m_CorrespondingSourceObject: {fileID: 0}
  m_PrefabInstance: {fileID: 0}
  m_PrefabAsset: {fileID: 0}
  m_GameObject: {fileID: 0}
  m_Enabled: 1
  m_EditorHideFlags: 0
  m_Script: {fileID: 11500000, guid: d515ccdbfccd91b46a90deb3931f74ca, type: 3}
  m_Name: "\u041F\u0435\u0440\u0432\u044B\u0435 \u0448\u0430\u0433\u0438 \u041F\u0438\u043B\u043E\u0440\u0430\u043C\u0430"
  m_EditorClassIdentifier: 
  _label: {fileID: 11400000, guid: 533c4693b609263459314cabfcbb0804, type: 2}
  _description:
  - {fileID: 11400000, guid: 7a895081aae26034482d5e71c4fd26da, type: 2}
  - {fileID: 11400000, guid: a1bf898f431a35b4783f08cdfc73465e, type: 2}
  - {fileID: 11400000, guid: 421bc441808015a4e8863c2c6c7bfb84, type: 2}
  - {fileID: 11400000, guid: 243541ecc6c634f46a3d2558f47a0bc0, type: 2}
  - {fileID: 11400000, guid: 6a77a43e64aac67419109997b5e82261, type: 2}
  - {fileID: 11400000, guid: d30f4f81204ca7a4fbc2712df9c545d3, type: 2}
  - {fileID: 11400000, guid: f1e57d30847e61f40b7eb4055d92e93f, type: 2}
  _requirements:
  - {fileID: 11400000, guid: 986f818d8b772694288ddfa5ecd54990, type: 2}
  _rewards:
  - {fileID: 11400000, guid: 0da4ecc9d27c6c342aadc555bfc39b25, type: 2}
  - {fileID: 11400000, guid: 75edeb98ef231cf49ae4bf6184f30626, type: 2}
  - {fileID: 11400000, guid: 100364c1b3c8af8449f6e9e47aab56dd, type: 2}
  _score: 5
  _questsToActivate:
  - {fileID: 11400000, guid: 44405e99cdc237948b9f1706b61dc1f4, type: 2}
