%YAML 1.1
%TAG !u! tag:unity3d.com,2011:
--- !u!114 &11400000
MonoBehaviour:
  m_ObjectHideFlags: 0
  m_CorrespondingSourceObject: {fileID: 0}
  m_PrefabInstance: {fileID: 0}
  m_PrefabAsset: {fileID: 0}
  m_GameObject: {fileID: 0}
  m_Enabled: 1
  m_EditorHideFlags: 0
  m_Script: {fileID: 11500000, guid: d515ccdbfccd91b46a90deb3931f74ca, type: 3}
  m_Name: "\u041F\u0435\u0440\u0432\u044B\u0435 \u0448\u0430\u0433\u0438 \u0426\u0435\u0445
    \u043F\u0435\u0440\u0435\u0440\u0430\u0431\u043E\u0442\u043A\u0438 \u0442\u0435\u043A\u0441\u0442\u0438\u043B\u044F"
  m_EditorClassIdentifier: 
  _label: {fileID: 11400000, guid: 2c425f5ebfe45ac4facd0f473c371693, type: 2}
  _description:
  - {fileID: 11400000, guid: a3daf1f6d1009034696df90aeb046d0d, type: 2}
  - {fileID: 11400000, guid: 7b3cd584f3e221a41b62496a4404c8f2, type: 2}
  _requirements:
  - {fileID: 11400000, guid: 90d38e97611e6cd4e8aaeec14ba218e8, type: 2}
  _rewards:
  - {fileID: 11400000, guid: 0da4ecc9d27c6c342aadc555bfc39b25, type: 2}
  - {fileID: 11400000, guid: 75edeb98ef231cf49ae4bf6184f30626, type: 2}
  _score: 5
  _questsToActivate:
  - {fileID: 11400000, guid: 66ff2b3630858d046a663d9e84a9b8f2, type: 2}
  - {fileID: 11400000, guid: f0a3aca2422e21a4ebfb375c6153d6c5, type: 2}
