%YAML 1.1
%TAG !u! tag:unity3d.com,2011:
--- !u!114 &11400000
MonoBehaviour:
  m_ObjectHideFlags: 0
  m_CorrespondingSourceObject: {fileID: 0}
  m_PrefabInstance: {fileID: 0}
  m_PrefabAsset: {fileID: 0}
  m_GameObject: {fileID: 0}
  m_Enabled: 1
  m_EditorHideFlags: 0
  m_Script: {fileID: 11500000, guid: cd8c578fd5426984fa367ec08c62c9b7, type: 3}
  m_Name: "\u0421\u043E\u0440\u0442\u0438\u0440\u043E\u0432\u0449\u0438\u043A"
  m_EditorClassIdentifier: 
  id: -2
  text:
  - "\u0421\u043E\u0440\u0442\u0438\u0440\u043E\u0432\u0449\u0438\u043A"
  - Sorting office
