%YAML 1.1
%TAG !u! tag:unity3d.com,2011:
--- !u!114 &11400000
MonoBehaviour:
  m_ObjectHideFlags: 0
  m_CorrespondingSourceObject: {fileID: 0}
  m_PrefabInstance: {fileID: 0}
  m_PrefabAsset: {fileID: 0}
  m_GameObject: {fileID: 0}
  m_Enabled: 1
  m_EditorHideFlags: 0
  m_Script: {fileID: 11500000, guid: 4736674a205860743a4addef7a3f6a20, type: 3}
  m_Name: LotEnergy 3
  m_EditorClassIdentifier: 
  count: 100
  text: {fileID: 11400000, guid: d440f00c28df5aa40a7525273e4545b1, type: 2}
  icon: {fileID: 21300000, guid: adfcd7c40a644614aaa8b71685477aeb, type: 3}
  price: 50
