%YAML 1.1
%TAG !u! tag:unity3d.com,2011:
--- !u!114 &11400000
MonoBehaviour:
  m_ObjectHideFlags: 0
  m_CorrespondingSourceObject: {fileID: 0}
  m_PrefabInstance: {fileID: 0}
  m_PrefabAsset: {fileID: 0}
  m_GameObject: {fileID: 0}
  m_Enabled: 1
  m_EditorHideFlags: 0
  m_Script: {fileID: 11500000, guid: cd8c578fd5426984fa367ec08c62c9b7, type: 3}
  m_Name: 42_5.2 HelpTakeCraftWood 1
  m_EditorClassIdentifier: 
  id: 5063
  text:
  - "\u0417\u0430\u0431\u0435\u0440\u0438 \u0433\u043E\u0442\u043E\u0432\u0443\u044E
    \u043F\u0440\u043E\u0434\u0443\u043A\u0446\u0438\u044E"
  - "\u0417\u0430\u0431\u0435\u0440\u0438 \u0433\u043E\u0442\u043E\u0432\u0443\u044E
    \u043F\u0440\u043E\u0434\u0443\u043A\u0446\u0438\u044E"
