%YAML 1.1
%TAG !u! tag:unity3d.com,2011:
--- !u!114 &11400000
MonoBehaviour:
  m_ObjectHideFlags: 0
  m_CorrespondingSourceObject: {fileID: 0}
  m_PrefabInstance: {fileID: 0}
  m_PrefabAsset: {fileID: 0}
  m_GameObject: {fileID: 0}
  m_Enabled: 1
  m_EditorHideFlags: 0
  m_Script: {fileID: 11500000, guid: cd8c578fd5426984fa367ec08c62c9b7, type: 3}
  m_Name: 49.2 HelpSetStructure
  m_EditorClassIdentifier: 
  id: 5055
  text:
  - "\u041F\u043E\u0441\u0442\u0440\u043E\u0439\u0442\u0435 \u043A\u043E\u043B\u043E\u0434\u0435\u0446"
  - build a well
