%YAML 1.1
%TAG !u! tag:unity3d.com,2011:
--- !u!114 &11400000
MonoBehaviour:
  m_ObjectHideFlags: 0
  m_CorrespondingSourceObject: {fileID: 0}
  m_PrefabInstance: {fileID: 0}
  m_PrefabAsset: {fileID: 0}
  m_GameObject: {fileID: 0}
  m_Enabled: 1
  m_EditorHideFlags: 0
  m_Script: {fileID: 11500000, guid: cd8c578fd5426984fa367ec08c62c9b7, type: 3}
  m_Name: String 25
  m_EditorClassIdentifier: 
  id: 5044
  text:
  - "\u0417\u0434\u0435\u0441\u044C \u0442\u044B \u043C\u043E\u0436\u0435\u0448\u044C
    \u043F\u0435\u0440\u0435\u0440\u0430\u0431\u043E\u0442\u0430\u0442\u044C \u0434\u0435\u0440\u0435\u0432\u044F\u043D\u043D\u044B\u0435
    \u043E\u0442\u0445\u043E\u0434\u044B \u0432 \u043D\u0435\u043E\u0431\u0445\u043E\u0434\u0438\u043C\u044B\u0439
    \u0442\u0435\u0431\u0435 \u043C\u0430\u0442\u0435\u0440\u0438\u0430\u043B."
  - Here you can recycle wood waste into the materials you need.
