%YAML 1.1
%TAG !u! tag:unity3d.com,2011:
--- !u!114 &11400000
MonoBehaviour:
  m_ObjectHideFlags: 0
  m_CorrespondingSourceObject: {fileID: 0}
  m_PrefabInstance: {fileID: 0}
  m_PrefabAsset: {fileID: 0}
  m_GameObject: {fileID: 0}
  m_Enabled: 1
  m_EditorHideFlags: 0
  m_Script: {fileID: 11500000, guid: cd8c578fd5426984fa367ec08c62c9b7, type: 3}
  m_Name: Block4_1
  m_EditorClassIdentifier: 
  id: 103
  text:
  - "\u041C\u043D\u043E\u0433\u0438\u043C \u0437\u0434\u0430\u043D\u0438\u0435 \u0442\u0440\u0435\u0431\u0443\u0435\u0442\u0441\u044F
    \u0441\u043D\u0430\u0431\u0436\u0435\u043D\u0438\u0435 \u0432\u043E\u0434\u043E\u0439.
    \u0412\u043E\u0437\u043C\u043E\u0436\u043D\u043E \u043A\u043E\u043B\u043E\u0434\u0435\u0446
    \u0440\u0435\u0448\u0438\u0442 \u044D\u0442\u0443 \u043F\u0440\u043E\u0431\u043B\u0435\u043C\u0443."
  - A lot of buildings need water supply. Probably a well will be helpful
