%YAML 1.1
%TAG !u! tag:unity3d.com,2011:
--- !u!114 &11400000
MonoBehaviour:
  m_ObjectHideFlags: 0
  m_CorrespondingSourceObject: {fileID: 0}
  m_PrefabInstance: {fileID: 0}
  m_PrefabAsset: {fileID: 0}
  m_GameObject: {fileID: 0}
  m_Enabled: 1
  m_EditorHideFlags: 0
  m_Script: {fileID: 11500000, guid: cd8c578fd5426984fa367ec08c62c9b7, type: 3}
  m_Name: Block12_1
  m_EditorClassIdentifier: 
  id: 122
  text:
  - "\u0412\u0441\u0435 \u0433\u043E\u0442\u043E\u0432\u043E \u043A \u043F\u0440\u0438\u0435\u0437\u0434\u0443
    \u0442\u0443\u0440\u0438\u0441\u0442\u043E\u0432. \u041F\u043E\u0440\u0430 \u0431\u044B
    \u043E\u0442\u043A\u0440\u044B\u0442\u044C \u0442\u0443\u0440\u0438\u0441\u0442\u0438\u0447\u0435\u0441\u043A\u0438\u0439
    \u0441\u0435\u0437\u043E\u043D."
  - Everything is ready for the tourists' arrival. Time for a tourist season
