%YAML 1.1
%TAG !u! tag:unity3d.com,2011:
--- !u!114 &11400000
MonoBehaviour:
  m_ObjectHideFlags: 0
  m_CorrespondingSourceObject: {fileID: 0}
  m_PrefabInstance: {fileID: 0}
  m_PrefabAsset: {fileID: 0}
  m_GameObject: {fileID: 0}
  m_Enabled: 1
  m_EditorHideFlags: 0
  m_Script: {fileID: 11500000, guid: cd8c578fd5426984fa367ec08c62c9b7, type: 3}
  m_Name: "\u0412\u0430\u0448\u0438 \u0437\u043D\u0430\u043D\u0438\u044F \u0432 \u043E\u0431\u043B\u0430\u0441\u0442\u0438
    \u0441\u043E\u0437\u0434\u0430\u043D\u0438\u044F \u0443\u0434\u043E\u0431\u0440\u0435\u043D\u0438\u0439
    \u0432\u043F\u0435\u0447\u0430\u0442\u043B\u044F\u044E\u0442, \u043D\u043E \u0432\u0430\u043C
    \u0435\u0449\u0435 \u0435\u0441\u0442\u044C \u043A\u0443\u0434\u0430 \u0440\u0430\u0441\u0442\u0438.
    \u0412\u043E\u0437\u043C\u043E\u0436\u043D\u043E \u0432\u0430\u043C \u0443\u0434\u0430\u0441\u0442\u0441\u044F
    \u043F\u0440\u043E\u0434\u0432\u0438\u043D\u0443\u0442\u044C\u0441\u044F \u0434\u0430\u043B\u044C\u0448\u0435,
    \u0435\u0441\u043B\u0438 \u043D\u0435 \u043E\u0442\u0432\u043B\u0435\u043A\u0430\u0442\u044C\u0441\u044F."
  m_EditorClassIdentifier: 
  id: 419
  text:
  - "\u0412\u0430\u0448\u0438 \u0437\u043D\u0430\u043D\u0438\u044F \u0432 \u043E\u0431\u043B\u0430\u0441\u0442\u0438
    \u0441\u043E\u0437\u0434\u0430\u043D\u0438\u044F \u0443\u0434\u043E\u0431\u0440\u0435\u043D\u0438\u0439
    \u0432\u043F\u0435\u0447\u0430\u0442\u043B\u044F\u044E\u0442, \u043D\u043E \u0432\u0430\u043C
    \u0435\u0449\u0435 \u0435\u0441\u0442\u044C \u043A\u0443\u0434\u0430 \u0440\u0430\u0441\u0442\u0438.
    \u0412\u043E\u0437\u043C\u043E\u0436\u043D\u043E \u0432\u0430\u043C \u0443\u0434\u0430\u0441\u0442\u0441\u044F
    \u043F\u0440\u043E\u0434\u0432\u0438\u043D\u0443\u0442\u044C\u0441\u044F \u0434\u0430\u043B\u044C\u0448\u0435,
    \u0435\u0441\u043B\u0438 \u043D\u0435 \u043E\u0442\u0432\u043B\u0435\u043A\u0430\u0442\u044C\u0441\u044F."
  - You have mastered your skills in textile production, but you still have a way
    to go. Stay focused.
