%YAML 1.1
%TAG !u! tag:unity3d.com,2011:
--- !u!114 &11400000
MonoBehaviour:
  m_ObjectHideFlags: 0
  m_CorrespondingSourceObject: {fileID: 0}
  m_PrefabInstance: {fileID: 0}
  m_PrefabAsset: {fileID: 0}
  m_GameObject: {fileID: 0}
  m_Enabled: 1
  m_EditorHideFlags: 0
  m_Script: {fileID: 11500000, guid: cd8c578fd5426984fa367ec08c62c9b7, type: 3}
  m_Name: "\u0420\u0430\u043D\u0433 \u0443\u0447\u0435\u043D\u0438\u043A \u0425\u0438\u043C\u0438\u043A\u0430-\u0442\u0435\u0445\u043D\u043E\u043B\u043E\u0433\u0430"
  m_EditorClassIdentifier: 
  id: 449
  text:
  - "\u0420\u0430\u043D\u0433 \u0443\u0447\u0435\u043D\u0438\u043A \u0425\u0438\u043C\u0438\u043A\u0430-\u0442\u0435\u0445\u043D\u043E\u043B\u043E\u0433\u0430"
  - Chemical technologist apprentice
