%YAML 1.1
%TAG !u! tag:unity3d.com,2011:
--- !u!1001 &4150583790532725607
PrefabInstance:
  m_ObjectHideFlags: 0
  serializedVersion: 2
  m_Modification:
    m_TransformParent: {fileID: 0}
    m_Modifications:
    - target: {fileID: -3117535317089862622, guid: 668ee5293c93f7b43a76d1a715c35bad,
        type: 3}
      propertyPath: GlobalID
      value: 
      objectReference: {fileID: 11400000, guid: 081ba405d7683f44ebd4d13cf1be4386,
        type: 2}
    - target: {fileID: 1382367183093851492, guid: 668ee5293c93f7b43a76d1a715c35bad,
        type: 3}
      propertyPath: scaleSize.x
      value: 4
      objectReference: {fileID: 0}
    - target: {fileID: 1382367183093851492, guid: 668ee5293c93f7b43a76d1a715c35bad,
        type: 3}
      propertyPath: scaleSize.y
      value: 4
      objectReference: {fileID: 0}
    - target: {fileID: 1382367184496966654, guid: 668ee5293c93f7b43a76d1a715c35bad,
        type: 3}
      propertyPath: m_Sprite
      value: 
      objectReference: {fileID: 21300000, guid: f2b84bc3c396899448816b1190b0c899,
        type: 3}
    - target: {fileID: 2620687935919667226, guid: 668ee5293c93f7b43a76d1a715c35bad,
        type: 3}
      propertyPath: m_Points.m_Paths.Array.data[0].Array.data[0].y
      value: 1.135625
      objectReference: {fileID: 0}
    - target: {fileID: 2620687935919667226, guid: 668ee5293c93f7b43a76d1a715c35bad,
        type: 3}
      propertyPath: m_Points.m_Paths.Array.data[0].Array.data[1].x
      value: 1.975
      objectReference: {fileID: 0}
    - target: {fileID: 2620687935919667226, guid: 668ee5293c93f7b43a76d1a715c35bad,
        type: 3}
      propertyPath: m_Points.m_Paths.Array.data[0].Array.data[2].y
      value: -1.135625
      objectReference: {fileID: 0}
    - target: {fileID: 2620687935919667226, guid: 668ee5293c93f7b43a76d1a715c35bad,
        type: 3}
      propertyPath: m_Points.m_Paths.Array.data[0].Array.data[3].x
      value: -1.975
      objectReference: {fileID: 0}
    - target: {fileID: 2620687935919667226, guid: 668ee5293c93f7b43a76d1a715c35bad,
        type: 3}
      propertyPath: m_Points.m_Paths.Array.data[0].Array.data[4].y
      value: 1.135625
      objectReference: {fileID: 0}
    - target: {fileID: 8518069647089734918, guid: 668ee5293c93f7b43a76d1a715c35bad,
        type: 3}
      propertyPath: m_Points.m_Paths.Array.data[0].Array.size
      value: 5
      objectReference: {fileID: 0}
    - target: {fileID: 8518069647089734918, guid: 668ee5293c93f7b43a76d1a715c35bad,
        type: 3}
      propertyPath: m_Points.m_Paths.Array.data[0].Array.data[0].x
      value: 1.4967961
      objectReference: {fileID: 0}
    - target: {fileID: 8518069647089734918, guid: 668ee5293c93f7b43a76d1a715c35bad,
        type: 3}
      propertyPath: m_Points.m_Paths.Array.data[0].Array.data[0].y
      value: 1.149565
      objectReference: {fileID: 0}
    - target: {fileID: 8518069647089734918, guid: 668ee5293c93f7b43a76d1a715c35bad,
        type: 3}
      propertyPath: m_Points.m_Paths.Array.data[0].Array.data[1].x
      value: -0.22361548
      objectReference: {fileID: 0}
    - target: {fileID: 8518069647089734918, guid: 668ee5293c93f7b43a76d1a715c35bad,
        type: 3}
      propertyPath: m_Points.m_Paths.Array.data[0].Array.data[1].y
      value: 2.115111
      objectReference: {fileID: 0}
    - target: {fileID: 8518069647089734918, guid: 668ee5293c93f7b43a76d1a715c35bad,
        type: 3}
      propertyPath: m_Points.m_Paths.Array.data[0].Array.data[2].x
      value: -0.32255608
      objectReference: {fileID: 0}
    - target: {fileID: 8518069647089734918, guid: 668ee5293c93f7b43a76d1a715c35bad,
        type: 3}
      propertyPath: m_Points.m_Paths.Array.data[0].Array.data[2].y
      value: 1.1459268
      objectReference: {fileID: 0}
    - target: {fileID: 8518069647089734918, guid: 668ee5293c93f7b43a76d1a715c35bad,
        type: 3}
      propertyPath: m_Points.m_Paths.Array.data[0].Array.data[3].x
      value: -1.335364
      objectReference: {fileID: 0}
    - target: {fileID: 8518069647089734918, guid: 668ee5293c93f7b43a76d1a715c35bad,
        type: 3}
      propertyPath: m_Points.m_Paths.Array.data[0].Array.data[3].y
      value: 0.3764241
      objectReference: {fileID: 0}
    - target: {fileID: 8518069647089734918, guid: 668ee5293c93f7b43a76d1a715c35bad,
        type: 3}
      propertyPath: m_Points.m_Paths.Array.data[0].Array.data[4].x
      value: 1.5303009
      objectReference: {fileID: 0}
    - target: {fileID: 8518069647089734918, guid: 668ee5293c93f7b43a76d1a715c35bad,
        type: 3}
      propertyPath: m_Points.m_Paths.Array.data[0].Array.data[4].y
      value: 0.27286398
      objectReference: {fileID: 0}
    - target: {fileID: 8700018331206935472, guid: 668ee5293c93f7b43a76d1a715c35bad,
        type: 3}
      propertyPath: m_RootOrder
      value: 0
      objectReference: {fileID: 0}
    - target: {fileID: 8700018331206935472, guid: 668ee5293c93f7b43a76d1a715c35bad,
        type: 3}
      propertyPath: m_LocalPosition.x
      value: 0
      objectReference: {fileID: 0}
    - target: {fileID: 8700018331206935472, guid: 668ee5293c93f7b43a76d1a715c35bad,
        type: 3}
      propertyPath: m_LocalPosition.y
      value: 0
      objectReference: {fileID: 0}
    - target: {fileID: 8700018331206935472, guid: 668ee5293c93f7b43a76d1a715c35bad,
        type: 3}
      propertyPath: m_LocalPosition.z
      value: 0
      objectReference: {fileID: 0}
    - target: {fileID: 8700018331206935472, guid: 668ee5293c93f7b43a76d1a715c35bad,
        type: 3}
      propertyPath: m_LocalRotation.w
      value: 1
      objectReference: {fileID: 0}
    - target: {fileID: 8700018331206935472, guid: 668ee5293c93f7b43a76d1a715c35bad,
        type: 3}
      propertyPath: m_LocalRotation.x
      value: -0
      objectReference: {fileID: 0}
    - target: {fileID: 8700018331206935472, guid: 668ee5293c93f7b43a76d1a715c35bad,
        type: 3}
      propertyPath: m_LocalRotation.y
      value: -0
      objectReference: {fileID: 0}
    - target: {fileID: 8700018331206935472, guid: 668ee5293c93f7b43a76d1a715c35bad,
        type: 3}
      propertyPath: m_LocalRotation.z
      value: -0
      objectReference: {fileID: 0}
    - target: {fileID: 8700018331206935472, guid: 668ee5293c93f7b43a76d1a715c35bad,
        type: 3}
      propertyPath: m_LocalEulerAnglesHint.x
      value: 0
      objectReference: {fileID: 0}
    - target: {fileID: 8700018331206935472, guid: 668ee5293c93f7b43a76d1a715c35bad,
        type: 3}
      propertyPath: m_LocalEulerAnglesHint.y
      value: 0
      objectReference: {fileID: 0}
    - target: {fileID: 8700018331206935472, guid: 668ee5293c93f7b43a76d1a715c35bad,
        type: 3}
      propertyPath: m_LocalEulerAnglesHint.z
      value: 0
      objectReference: {fileID: 0}
    - target: {fileID: 8700018331206935473, guid: 668ee5293c93f7b43a76d1a715c35bad,
        type: 3}
      propertyPath: m_Name
      value: cinema
      objectReference: {fileID: 0}
    m_RemovedComponents: []
  m_SourcePrefab: {fileID: 100100000, guid: 668ee5293c93f7b43a76d1a715c35bad, type: 3}
