%YAML 1.1
%TAG !u! tag:unity3d.com,2011:
--- !u!1001 &2557403563574401299
PrefabInstance:
  m_ObjectHideFlags: 0
  serializedVersion: 2
  m_Modification:
    m_TransformParent: {fileID: 0}
    m_Modifications:
    - target: {fileID: -3117535317089862622, guid: 668ee5293c93f7b43a76d1a715c35bad,
        type: 3}
      propertyPath: GlobalID
      value: 
      objectReference: {fileID: 11400000, guid: 095e38c8417be624d94c5a32cdb530e9,
        type: 2}
    - target: {fileID: 1382367183093851492, guid: 668ee5293c93f7b43a76d1a715c35bad,
        type: 3}
      propertyPath: scaleSize.x
      value: 6
      objectReference: {fileID: 0}
    - target: {fileID: 1382367183093851492, guid: 668ee5293c93f7b43a76d1a715c35bad,
        type: 3}
      propertyPath: scaleSize.y
      value: 6
      objectReference: {fileID: 0}
    - target: {fileID: 1382367184496966654, guid: 668ee5293c93f7b43a76d1a715c35bad,
        type: 3}
      propertyPath: m_Sprite
      value: 
      objectReference: {fileID: 21300000, guid: edb26bb9426244748b852bee72eced76,
        type: 3}
    - target: {fileID: 2620687935919667226, guid: 668ee5293c93f7b43a76d1a715c35bad,
        type: 3}
      propertyPath: m_Points.m_Paths.Array.data[0].Array.size
      value: 4
      objectReference: {fileID: 0}
    - target: {fileID: 2620687935919667226, guid: 668ee5293c93f7b43a76d1a715c35bad,
        type: 3}
      propertyPath: m_Points.m_Paths.Array.data[0].Array.data[0].y
      value: 1.7106249
      objectReference: {fileID: 0}
    - target: {fileID: 2620687935919667226, guid: 668ee5293c93f7b43a76d1a715c35bad,
        type: 3}
      propertyPath: m_Points.m_Paths.Array.data[0].Array.data[1].x
      value: 2.975
      objectReference: {fileID: 0}
    - target: {fileID: 2620687935919667226, guid: 668ee5293c93f7b43a76d1a715c35bad,
        type: 3}
      propertyPath: m_Points.m_Paths.Array.data[0].Array.data[2].y
      value: -1.7106249
      objectReference: {fileID: 0}
    - target: {fileID: 2620687935919667226, guid: 668ee5293c93f7b43a76d1a715c35bad,
        type: 3}
      propertyPath: m_Points.m_Paths.Array.data[0].Array.data[3].x
      value: -2.975
      objectReference: {fileID: 0}
    - target: {fileID: 8700018331206935472, guid: 668ee5293c93f7b43a76d1a715c35bad,
        type: 3}
      propertyPath: m_RootOrder
      value: 0
      objectReference: {fileID: 0}
    - target: {fileID: 8700018331206935472, guid: 668ee5293c93f7b43a76d1a715c35bad,
        type: 3}
      propertyPath: m_LocalPosition.x
      value: 0
      objectReference: {fileID: 0}
    - target: {fileID: 8700018331206935472, guid: 668ee5293c93f7b43a76d1a715c35bad,
        type: 3}
      propertyPath: m_LocalPosition.y
      value: 0
      objectReference: {fileID: 0}
    - target: {fileID: 8700018331206935472, guid: 668ee5293c93f7b43a76d1a715c35bad,
        type: 3}
      propertyPath: m_LocalPosition.z
      value: 0
      objectReference: {fileID: 0}
    - target: {fileID: 8700018331206935472, guid: 668ee5293c93f7b43a76d1a715c35bad,
        type: 3}
      propertyPath: m_LocalRotation.w
      value: 1
      objectReference: {fileID: 0}
    - target: {fileID: 8700018331206935472, guid: 668ee5293c93f7b43a76d1a715c35bad,
        type: 3}
      propertyPath: m_LocalRotation.x
      value: -0
      objectReference: {fileID: 0}
    - target: {fileID: 8700018331206935472, guid: 668ee5293c93f7b43a76d1a715c35bad,
        type: 3}
      propertyPath: m_LocalRotation.y
      value: -0
      objectReference: {fileID: 0}
    - target: {fileID: 8700018331206935472, guid: 668ee5293c93f7b43a76d1a715c35bad,
        type: 3}
      propertyPath: m_LocalRotation.z
      value: -0
      objectReference: {fileID: 0}
    - target: {fileID: 8700018331206935472, guid: 668ee5293c93f7b43a76d1a715c35bad,
        type: 3}
      propertyPath: m_LocalEulerAnglesHint.x
      value: 0
      objectReference: {fileID: 0}
    - target: {fileID: 8700018331206935472, guid: 668ee5293c93f7b43a76d1a715c35bad,
        type: 3}
      propertyPath: m_LocalEulerAnglesHint.y
      value: 0
      objectReference: {fileID: 0}
    - target: {fileID: 8700018331206935472, guid: 668ee5293c93f7b43a76d1a715c35bad,
        type: 3}
      propertyPath: m_LocalEulerAnglesHint.z
      value: 0
      objectReference: {fileID: 0}
    - target: {fileID: 8700018331206935473, guid: 668ee5293c93f7b43a76d1a715c35bad,
        type: 3}
      propertyPath: m_Name
      value: platform
      objectReference: {fileID: 0}
    m_RemovedComponents:
    - {fileID: 8518069647089734918, guid: 668ee5293c93f7b43a76d1a715c35bad, type: 3}
    - {fileID: 3881919309477331652, guid: 668ee5293c93f7b43a76d1a715c35bad, type: 3}
  m_SourcePrefab: {fileID: 100100000, guid: 668ee5293c93f7b43a76d1a715c35bad, type: 3}
