%YAML 1.1
%TAG !u! tag:unity3d.com,2011:
--- !u!1001 &6126532940669581966
PrefabInstance:
  m_ObjectHideFlags: 0
  serializedVersion: 2
  m_Modification:
    m_TransformParent: {fileID: 0}
    m_Modifications:
    - target: {fileID: -3117535317089862622, guid: 668ee5293c93f7b43a76d1a715c35bad,
        type: 3}
      propertyPath: GlobalID
      value: 
      objectReference: {fileID: 11400000, guid: 79f825dafb5fcbe4a840ffb04ce80281,
        type: 2}
    - target: {fileID: 1382367184496966654, guid: 668ee5293c93f7b43a76d1a715c35bad,
        type: 3}
      propertyPath: m_Sprite
      value: 
      objectReference: {fileID: 21300000, guid: 5465a9190af1cbe4da1b484f0f5c35c6,
        type: 3}
    - target: {fileID: 8518069647089734918, guid: 668ee5293c93f7b43a76d1a715c35bad,
        type: 3}
      propertyPath: m_Points.m_Paths.Array.data[0].Array.size
      value: 5
      objectReference: {fileID: 0}
    - target: {fileID: 8518069647089734918, guid: 668ee5293c93f7b43a76d1a715c35bad,
        type: 3}
      propertyPath: m_Points.m_Paths.Array.data[0].Array.data[0].x
      value: 0.26310477
      objectReference: {fileID: 0}
    - target: {fileID: 8518069647089734918, guid: 668ee5293c93f7b43a76d1a715c35bad,
        type: 3}
      propertyPath: m_Points.m_Paths.Array.data[0].Array.data[0].y
      value: 0.789343
      objectReference: {fileID: 0}
    - target: {fileID: 8518069647089734918, guid: 668ee5293c93f7b43a76d1a715c35bad,
        type: 3}
      propertyPath: m_Points.m_Paths.Array.data[0].Array.data[1].x
      value: -0.00093474984
      objectReference: {fileID: 0}
    - target: {fileID: 8518069647089734918, guid: 668ee5293c93f7b43a76d1a715c35bad,
        type: 3}
      propertyPath: m_Points.m_Paths.Array.data[0].Array.data[1].y
      value: 0.9616461
      objectReference: {fileID: 0}
    - target: {fileID: 8518069647089734918, guid: 668ee5293c93f7b43a76d1a715c35bad,
        type: 3}
      propertyPath: m_Points.m_Paths.Array.data[0].Array.data[2].x
      value: -0.31964278
      objectReference: {fileID: 0}
    - target: {fileID: 8518069647089734918, guid: 668ee5293c93f7b43a76d1a715c35bad,
        type: 3}
      propertyPath: m_Points.m_Paths.Array.data[0].Array.data[2].y
      value: 0.7762957
      objectReference: {fileID: 0}
    - target: {fileID: 8518069647089734918, guid: 668ee5293c93f7b43a76d1a715c35bad,
        type: 3}
      propertyPath: m_Points.m_Paths.Array.data[0].Array.data[3].x
      value: -0.36313352
      objectReference: {fileID: 0}
    - target: {fileID: 8518069647089734918, guid: 668ee5293c93f7b43a76d1a715c35bad,
        type: 3}
      propertyPath: m_Points.m_Paths.Array.data[0].Array.data[3].y
      value: 0.058726918
      objectReference: {fileID: 0}
    - target: {fileID: 8518069647089734918, guid: 668ee5293c93f7b43a76d1a715c35bad,
        type: 3}
      propertyPath: m_Points.m_Paths.Array.data[0].Array.data[4].x
      value: 0.35008633
      objectReference: {fileID: 0}
    - target: {fileID: 8518069647089734918, guid: 668ee5293c93f7b43a76d1a715c35bad,
        type: 3}
      propertyPath: m_Points.m_Paths.Array.data[0].Array.data[4].y
      value: 0.06742503
      objectReference: {fileID: 0}
    - target: {fileID: 8700018331206935472, guid: 668ee5293c93f7b43a76d1a715c35bad,
        type: 3}
      propertyPath: m_RootOrder
      value: 0
      objectReference: {fileID: 0}
    - target: {fileID: 8700018331206935472, guid: 668ee5293c93f7b43a76d1a715c35bad,
        type: 3}
      propertyPath: m_LocalPosition.x
      value: 0
      objectReference: {fileID: 0}
    - target: {fileID: 8700018331206935472, guid: 668ee5293c93f7b43a76d1a715c35bad,
        type: 3}
      propertyPath: m_LocalPosition.y
      value: 0
      objectReference: {fileID: 0}
    - target: {fileID: 8700018331206935472, guid: 668ee5293c93f7b43a76d1a715c35bad,
        type: 3}
      propertyPath: m_LocalPosition.z
      value: 0
      objectReference: {fileID: 0}
    - target: {fileID: 8700018331206935472, guid: 668ee5293c93f7b43a76d1a715c35bad,
        type: 3}
      propertyPath: m_LocalRotation.w
      value: 1
      objectReference: {fileID: 0}
    - target: {fileID: 8700018331206935472, guid: 668ee5293c93f7b43a76d1a715c35bad,
        type: 3}
      propertyPath: m_LocalRotation.x
      value: -0
      objectReference: {fileID: 0}
    - target: {fileID: 8700018331206935472, guid: 668ee5293c93f7b43a76d1a715c35bad,
        type: 3}
      propertyPath: m_LocalRotation.y
      value: -0
      objectReference: {fileID: 0}
    - target: {fileID: 8700018331206935472, guid: 668ee5293c93f7b43a76d1a715c35bad,
        type: 3}
      propertyPath: m_LocalRotation.z
      value: -0
      objectReference: {fileID: 0}
    - target: {fileID: 8700018331206935472, guid: 668ee5293c93f7b43a76d1a715c35bad,
        type: 3}
      propertyPath: m_LocalEulerAnglesHint.x
      value: 0
      objectReference: {fileID: 0}
    - target: {fileID: 8700018331206935472, guid: 668ee5293c93f7b43a76d1a715c35bad,
        type: 3}
      propertyPath: m_LocalEulerAnglesHint.y
      value: 0
      objectReference: {fileID: 0}
    - target: {fileID: 8700018331206935472, guid: 668ee5293c93f7b43a76d1a715c35bad,
        type: 3}
      propertyPath: m_LocalEulerAnglesHint.z
      value: 0
      objectReference: {fileID: 0}
    - target: {fileID: 8700018331206935473, guid: 668ee5293c93f7b43a76d1a715c35bad,
        type: 3}
      propertyPath: m_Name
      value: solarpanel m
      objectReference: {fileID: 0}
    m_RemovedComponents: []
  m_SourcePrefab: {fileID: 100100000, guid: 668ee5293c93f7b43a76d1a715c35bad, type: 3}
