%YAML 1.1
%TAG !u! tag:unity3d.com,2011:
--- !u!1001 &2499111624532154707
PrefabInstance:
  m_ObjectHideFlags: 0
  serializedVersion: 2
  m_Modification:
    m_TransformParent: {fileID: 0}
    m_Modifications:
    - target: {fileID: -3117535317089862622, guid: 668ee5293c93f7b43a76d1a715c35bad,
        type: 3}
      propertyPath: GlobalID
      value: 
      objectReference: {fileID: 11400000, guid: e3b1f24327a5b534ab92cb11ce905c6d,
        type: 2}
    - target: {fileID: 1382367183093851492, guid: 668ee5293c93f7b43a76d1a715c35bad,
        type: 3}
      propertyPath: scaleSize.x
      value: 4
      objectReference: {fileID: 0}
    - target: {fileID: 1382367183093851492, guid: 668ee5293c93f7b43a76d1a715c35bad,
        type: 3}
      propertyPath: scaleSize.y
      value: 4
      objectReference: {fileID: 0}
    - target: {fileID: 1382367184496966654, guid: 668ee5293c93f7b43a76d1a715c35bad,
        type: 3}
      propertyPath: m_Sprite
      value: 
      objectReference: {fileID: 21300000, guid: 48af7d55a4537384a965cb367dbc9290,
        type: 3}
    - target: {fileID: 2620687935919667226, guid: 668ee5293c93f7b43a76d1a715c35bad,
        type: 3}
      propertyPath: m_Points.m_Paths.Array.data[0].Array.size
      value: 4
      objectReference: {fileID: 0}
    - target: {fileID: 2620687935919667226, guid: 668ee5293c93f7b43a76d1a715c35bad,
        type: 3}
      propertyPath: m_Points.m_Paths.Array.data[0].Array.data[0].y
      value: 1.135625
      objectReference: {fileID: 0}
    - target: {fileID: 2620687935919667226, guid: 668ee5293c93f7b43a76d1a715c35bad,
        type: 3}
      propertyPath: m_Points.m_Paths.Array.data[0].Array.data[1].x
      value: 1.975
      objectReference: {fileID: 0}
    - target: {fileID: 2620687935919667226, guid: 668ee5293c93f7b43a76d1a715c35bad,
        type: 3}
      propertyPath: m_Points.m_Paths.Array.data[0].Array.data[2].y
      value: -1.135625
      objectReference: {fileID: 0}
    - target: {fileID: 2620687935919667226, guid: 668ee5293c93f7b43a76d1a715c35bad,
        type: 3}
      propertyPath: m_Points.m_Paths.Array.data[0].Array.data[3].x
      value: -1.975
      objectReference: {fileID: 0}
    - target: {fileID: 8518069647089734918, guid: 668ee5293c93f7b43a76d1a715c35bad,
        type: 3}
      propertyPath: m_Points.m_Paths.Array.data[0].Array.size
      value: 7
      objectReference: {fileID: 0}
    - target: {fileID: 8518069647089734918, guid: 668ee5293c93f7b43a76d1a715c35bad,
        type: 3}
      propertyPath: m_Points.m_Paths.Array.data[0].Array.data[0].x
      value: 1.8007551
      objectReference: {fileID: 0}
    - target: {fileID: 8518069647089734918, guid: 668ee5293c93f7b43a76d1a715c35bad,
        type: 3}
      propertyPath: m_Points.m_Paths.Array.data[0].Array.data[0].y
      value: 0.79294705
      objectReference: {fileID: 0}
    - target: {fileID: 8518069647089734918, guid: 668ee5293c93f7b43a76d1a715c35bad,
        type: 3}
      propertyPath: m_Points.m_Paths.Array.data[0].Array.data[1].x
      value: 0.97559524
      objectReference: {fileID: 0}
    - target: {fileID: 8518069647089734918, guid: 668ee5293c93f7b43a76d1a715c35bad,
        type: 3}
      propertyPath: m_Points.m_Paths.Array.data[0].Array.data[1].y
      value: 1.7455225
      objectReference: {fileID: 0}
    - target: {fileID: 8518069647089734918, guid: 668ee5293c93f7b43a76d1a715c35bad,
        type: 3}
      propertyPath: m_Points.m_Paths.Array.data[0].Array.data[2].x
      value: -0.016140223
      objectReference: {fileID: 0}
    - target: {fileID: 8518069647089734918, guid: 668ee5293c93f7b43a76d1a715c35bad,
        type: 3}
      propertyPath: m_Points.m_Paths.Array.data[0].Array.data[2].y
      value: 2.606653
      objectReference: {fileID: 0}
    - target: {fileID: 8518069647089734918, guid: 668ee5293c93f7b43a76d1a715c35bad,
        type: 3}
      propertyPath: m_Points.m_Paths.Array.data[0].Array.data[3].x
      value: -0.993526
      objectReference: {fileID: 0}
    - target: {fileID: 8518069647089734918, guid: 668ee5293c93f7b43a76d1a715c35bad,
        type: 3}
      propertyPath: m_Points.m_Paths.Array.data[0].Array.data[3].y
      value: 2.129156
      objectReference: {fileID: 0}
    - target: {fileID: 8518069647089734918, guid: 668ee5293c93f7b43a76d1a715c35bad,
        type: 3}
      propertyPath: m_Points.m_Paths.Array.data[0].Array.data[4].x
      value: -1.9811285
      objectReference: {fileID: 0}
    - target: {fileID: 8518069647089734918, guid: 668ee5293c93f7b43a76d1a715c35bad,
        type: 3}
      propertyPath: m_Points.m_Paths.Array.data[0].Array.data[4].y
      value: 1.1859579
      objectReference: {fileID: 0}
    - target: {fileID: 8518069647089734918, guid: 668ee5293c93f7b43a76d1a715c35bad,
        type: 3}
      propertyPath: m_Points.m_Paths.Array.data[0].Array.data[5].x
      value: -1.9937502
      objectReference: {fileID: 0}
    - target: {fileID: 8518069647089734918, guid: 668ee5293c93f7b43a76d1a715c35bad,
        type: 3}
      propertyPath: m_Points.m_Paths.Array.data[0].Array.data[5].y
      value: -0.0037202127
      objectReference: {fileID: 0}
    - target: {fileID: 8518069647089734918, guid: 668ee5293c93f7b43a76d1a715c35bad,
        type: 3}
      propertyPath: m_Points.m_Paths.Array.data[0].Array.data[6].x
      value: 2.0021648
      objectReference: {fileID: 0}
    - target: {fileID: 8518069647089734918, guid: 668ee5293c93f7b43a76d1a715c35bad,
        type: 3}
      propertyPath: m_Points.m_Paths.Array.data[0].Array.data[6].y
      value: -0.0037202127
      objectReference: {fileID: 0}
    - target: {fileID: 8700018331206935472, guid: 668ee5293c93f7b43a76d1a715c35bad,
        type: 3}
      propertyPath: m_RootOrder
      value: 0
      objectReference: {fileID: 0}
    - target: {fileID: 8700018331206935472, guid: 668ee5293c93f7b43a76d1a715c35bad,
        type: 3}
      propertyPath: m_LocalPosition.x
      value: 0
      objectReference: {fileID: 0}
    - target: {fileID: 8700018331206935472, guid: 668ee5293c93f7b43a76d1a715c35bad,
        type: 3}
      propertyPath: m_LocalPosition.y
      value: 0
      objectReference: {fileID: 0}
    - target: {fileID: 8700018331206935472, guid: 668ee5293c93f7b43a76d1a715c35bad,
        type: 3}
      propertyPath: m_LocalPosition.z
      value: 0
      objectReference: {fileID: 0}
    - target: {fileID: 8700018331206935472, guid: 668ee5293c93f7b43a76d1a715c35bad,
        type: 3}
      propertyPath: m_LocalRotation.w
      value: 1
      objectReference: {fileID: 0}
    - target: {fileID: 8700018331206935472, guid: 668ee5293c93f7b43a76d1a715c35bad,
        type: 3}
      propertyPath: m_LocalRotation.x
      value: -0
      objectReference: {fileID: 0}
    - target: {fileID: 8700018331206935472, guid: 668ee5293c93f7b43a76d1a715c35bad,
        type: 3}
      propertyPath: m_LocalRotation.y
      value: -0
      objectReference: {fileID: 0}
    - target: {fileID: 8700018331206935472, guid: 668ee5293c93f7b43a76d1a715c35bad,
        type: 3}
      propertyPath: m_LocalRotation.z
      value: -0
      objectReference: {fileID: 0}
    - target: {fileID: 8700018331206935472, guid: 668ee5293c93f7b43a76d1a715c35bad,
        type: 3}
      propertyPath: m_LocalEulerAnglesHint.x
      value: 0
      objectReference: {fileID: 0}
    - target: {fileID: 8700018331206935472, guid: 668ee5293c93f7b43a76d1a715c35bad,
        type: 3}
      propertyPath: m_LocalEulerAnglesHint.y
      value: 0
      objectReference: {fileID: 0}
    - target: {fileID: 8700018331206935472, guid: 668ee5293c93f7b43a76d1a715c35bad,
        type: 3}
      propertyPath: m_LocalEulerAnglesHint.z
      value: 0
      objectReference: {fileID: 0}
    - target: {fileID: 8700018331206935473, guid: 668ee5293c93f7b43a76d1a715c35bad,
        type: 3}
      propertyPath: m_Name
      value: sweetshop
      objectReference: {fileID: 0}
    m_RemovedComponents: []
  m_SourcePrefab: {fileID: 100100000, guid: 668ee5293c93f7b43a76d1a715c35bad, type: 3}
