%YAML 1.1
%TAG !u! tag:unity3d.com,2011:
--- !u!114 &11400000
MonoBehaviour:
  m_ObjectHideFlags: 0
  m_CorrespondingSourceObject: {fileID: 0}
  m_PrefabInstance: {fileID: 0}
  m_PrefabAsset: {fileID: 0}
  m_GameObject: {fileID: 0}
  m_Enabled: 1
  m_EditorHideFlags: 0
  m_Script: {fileID: 11500000, guid: cd8c578fd5426984fa367ec08c62c9b7, type: 3}
  m_Name: Stage5
  m_EditorClassIdentifier: 
  id: 38
  text:
  - "\u0426\u0435\u0445\u0430 \u043F\u0435\u0440\u0435\u0440\u0430\u0431\u043E\u0442\u043A\u0438
    \u0442\u0435\u043A\u0441\u0442\u0438\u043B\u044F \u0440\u0430\u0431\u043E\u0442\u0430\u0435\u0442
    \u043D\u0430 20% \u0431\u044B\u0441\u0442\u0440\u0435\u0435"
  - Textile recycling speed increased by 20%
