%YAML 1.1
%TAG !u! tag:unity3d.com,2011:
--- !u!114 &11400000
MonoBehaviour:
  m_ObjectHideFlags: 0
  m_CorrespondingSourceObject: {fileID: 0}
  m_PrefabInstance: {fileID: 0}
  m_PrefabAsset: {fileID: 0}
  m_GameObject: {fileID: 0}
  m_Enabled: 1
  m_EditorHideFlags: 0
  m_Script: {fileID: 11500000, guid: 74835881d69724a4494ae19db85627c8, type: 3}
  m_Name: "\u041A\u0430\u043F\u0443\u0441\u0442\u0430\u0425450"
  m_EditorClassIdentifier: 
  _resource:
    name: {fileID: 0}
    count: 0
