%YAML 1.1
%TAG !u! tag:unity3d.com,2011:
--- !u!114 &11400000
MonoBehaviour:
  m_ObjectHideFlags: 0
  m_CorrespondingSourceObject: {fileID: 0}
  m_PrefabInstance: {fileID: 0}
  m_PrefabAsset: {fileID: 0}
  m_GameObject: {fileID: 0}
  m_Enabled: 1
  m_EditorHideFlags: 0
  m_Script: {fileID: 11500000, guid: 74835881d69724a4494ae19db85627c8, type: 3}
  m_Name: "\u041F\u043E\u043B\u0438\u043C\u0435\u0440\u043D\u0430\u044F\u041F\u043B\u0435\u043D\u043A\u0430\u0425100"
  m_EditorClassIdentifier: 
  _resource:
    name: {fileID: 11400000, guid: 0235610cc723d77449e12d84a831ea2f, type: 2}
    count: 100
