%YAML 1.1
%TAG !u! tag:unity3d.com,2011:
--- !u!95 &7942463592266460288
Animator:
  serializedVersion: 3
  m_ObjectHideFlags: 0
  m_CorrespondingSourceObject: {fileID: 0}
  m_PrefabInstance: {fileID: 0}
  m_PrefabAsset: {fileID: 0}
  m_GameObject: {fileID: 5928504140786417320}
  m_Enabled: 1
  m_Avatar: {fileID: 0}
  m_Controller: {fileID: 9100000, guid: ac256f7bf4e87ae40a7a3f3ff96294b1, type: 2}
  m_CullingMode: 2
  m_UpdateMode: 0
  m_ApplyRootMotion: 0
  m_LinearVelocityBlending: 0
  m_WarningMessage: 
  m_HasTransformHierarchy: 1
  m_AllowConstantClipSamplingOptimization: 1
  m_KeepAnimatorControllerStateOnDisable: 0
--- !u!1001 &4713404838411011408
PrefabInstance:
  m_ObjectHideFlags: 0
  serializedVersion: 2
  m_Modification:
    m_TransformParent: {fileID: 0}
    m_Modifications:
    - target: {fileID: -3117535317089862622, guid: 668ee5293c93f7b43a76d1a715c35bad,
        type: 3}
      propertyPath: GlobalID
      value: 
      objectReference: {fileID: 11400000, guid: c3ff4a51ba0269f469c40c4b4d6e85b7,
        type: 2}
    - target: {fileID: -3117535317089862622, guid: 668ee5293c93f7b43a76d1a715c35bad,
        type: 3}
      propertyPath: animator
      value: 
      objectReference: {fileID: 7942463592266460288}
    - target: {fileID: 1382367183093851492, guid: 668ee5293c93f7b43a76d1a715c35bad,
        type: 3}
      propertyPath: scaleSize.x
      value: 2
      objectReference: {fileID: 0}
    - target: {fileID: 1382367183093851492, guid: 668ee5293c93f7b43a76d1a715c35bad,
        type: 3}
      propertyPath: scaleSize.y
      value: 2
      objectReference: {fileID: 0}
    - target: {fileID: 1382367184496966654, guid: 668ee5293c93f7b43a76d1a715c35bad,
        type: 3}
      propertyPath: m_Sprite
      value: 
      objectReference: {fileID: 21300000, guid: c90a4d5bec6fc0a439b6c32e2469638a,
        type: 3}
    - target: {fileID: 2620687935919667226, guid: 668ee5293c93f7b43a76d1a715c35bad,
        type: 3}
      propertyPath: m_Points.m_Paths.Array.data[0].Array.data[0].y
      value: 0.560625
      objectReference: {fileID: 0}
    - target: {fileID: 2620687935919667226, guid: 668ee5293c93f7b43a76d1a715c35bad,
        type: 3}
      propertyPath: m_Points.m_Paths.Array.data[0].Array.data[1].x
      value: 0.975
      objectReference: {fileID: 0}
    - target: {fileID: 2620687935919667226, guid: 668ee5293c93f7b43a76d1a715c35bad,
        type: 3}
      propertyPath: m_Points.m_Paths.Array.data[0].Array.data[2].y
      value: -0.560625
      objectReference: {fileID: 0}
    - target: {fileID: 2620687935919667226, guid: 668ee5293c93f7b43a76d1a715c35bad,
        type: 3}
      propertyPath: m_Points.m_Paths.Array.data[0].Array.data[3].x
      value: -0.975
      objectReference: {fileID: 0}
    - target: {fileID: 2620687935919667226, guid: 668ee5293c93f7b43a76d1a715c35bad,
        type: 3}
      propertyPath: m_Points.m_Paths.Array.data[0].Array.data[4].y
      value: 0.560625
      objectReference: {fileID: 0}
    - target: {fileID: 8518069647089734918, guid: 668ee5293c93f7b43a76d1a715c35bad,
        type: 3}
      propertyPath: m_Points.m_Paths.Array.data[0].Array.size
      value: 5
      objectReference: {fileID: 0}
    - target: {fileID: 8518069647089734918, guid: 668ee5293c93f7b43a76d1a715c35bad,
        type: 3}
      propertyPath: m_Points.m_Paths.Array.data[0].Array.data[0].x
      value: 0.67415714
      objectReference: {fileID: 0}
    - target: {fileID: 8518069647089734918, guid: 668ee5293c93f7b43a76d1a715c35bad,
        type: 3}
      propertyPath: m_Points.m_Paths.Array.data[0].Array.data[0].y
      value: 0.7263314
      objectReference: {fileID: 0}
    - target: {fileID: 8518069647089734918, guid: 668ee5293c93f7b43a76d1a715c35bad,
        type: 3}
      propertyPath: m_Points.m_Paths.Array.data[0].Array.data[1].x
      value: 0.39508554
      objectReference: {fileID: 0}
    - target: {fileID: 8518069647089734918, guid: 668ee5293c93f7b43a76d1a715c35bad,
        type: 3}
      propertyPath: m_Points.m_Paths.Array.data[0].Array.data[1].y
      value: 1.0975697
      objectReference: {fileID: 0}
    - target: {fileID: 8518069647089734918, guid: 668ee5293c93f7b43a76d1a715c35bad,
        type: 3}
      propertyPath: m_Points.m_Paths.Array.data[0].Array.data[2].x
      value: -0.015217245
      objectReference: {fileID: 0}
    - target: {fileID: 8518069647089734918, guid: 668ee5293c93f7b43a76d1a715c35bad,
        type: 3}
      propertyPath: m_Points.m_Paths.Array.data[0].Array.data[2].y
      value: 1.1031446
      objectReference: {fileID: 0}
    - target: {fileID: 8518069647089734918, guid: 668ee5293c93f7b43a76d1a715c35bad,
        type: 3}
      propertyPath: m_Points.m_Paths.Array.data[0].Array.data[3].x
      value: -0.7533846
      objectReference: {fileID: 0}
    - target: {fileID: 8518069647089734918, guid: 668ee5293c93f7b43a76d1a715c35bad,
        type: 3}
      propertyPath: m_Points.m_Paths.Array.data[0].Array.data[3].y
      value: 0.13550808
      objectReference: {fileID: 0}
    - target: {fileID: 8518069647089734918, guid: 668ee5293c93f7b43a76d1a715c35bad,
        type: 3}
      propertyPath: m_Points.m_Paths.Array.data[0].Array.data[4].x
      value: 0.75918174
      objectReference: {fileID: 0}
    - target: {fileID: 8518069647089734918, guid: 668ee5293c93f7b43a76d1a715c35bad,
        type: 3}
      propertyPath: m_Points.m_Paths.Array.data[0].Array.data[4].y
      value: 0.12971093
      objectReference: {fileID: 0}
    - target: {fileID: 8700018331206935472, guid: 668ee5293c93f7b43a76d1a715c35bad,
        type: 3}
      propertyPath: m_RootOrder
      value: 0
      objectReference: {fileID: 0}
    - target: {fileID: 8700018331206935472, guid: 668ee5293c93f7b43a76d1a715c35bad,
        type: 3}
      propertyPath: m_LocalPosition.x
      value: 0
      objectReference: {fileID: 0}
    - target: {fileID: 8700018331206935472, guid: 668ee5293c93f7b43a76d1a715c35bad,
        type: 3}
      propertyPath: m_LocalPosition.y
      value: 0
      objectReference: {fileID: 0}
    - target: {fileID: 8700018331206935472, guid: 668ee5293c93f7b43a76d1a715c35bad,
        type: 3}
      propertyPath: m_LocalPosition.z
      value: 0
      objectReference: {fileID: 0}
    - target: {fileID: 8700018331206935472, guid: 668ee5293c93f7b43a76d1a715c35bad,
        type: 3}
      propertyPath: m_LocalRotation.w
      value: 1
      objectReference: {fileID: 0}
    - target: {fileID: 8700018331206935472, guid: 668ee5293c93f7b43a76d1a715c35bad,
        type: 3}
      propertyPath: m_LocalRotation.x
      value: -0
      objectReference: {fileID: 0}
    - target: {fileID: 8700018331206935472, guid: 668ee5293c93f7b43a76d1a715c35bad,
        type: 3}
      propertyPath: m_LocalRotation.y
      value: -0
      objectReference: {fileID: 0}
    - target: {fileID: 8700018331206935472, guid: 668ee5293c93f7b43a76d1a715c35bad,
        type: 3}
      propertyPath: m_LocalRotation.z
      value: -0
      objectReference: {fileID: 0}
    - target: {fileID: 8700018331206935472, guid: 668ee5293c93f7b43a76d1a715c35bad,
        type: 3}
      propertyPath: m_LocalEulerAnglesHint.x
      value: 0
      objectReference: {fileID: 0}
    - target: {fileID: 8700018331206935472, guid: 668ee5293c93f7b43a76d1a715c35bad,
        type: 3}
      propertyPath: m_LocalEulerAnglesHint.y
      value: 0
      objectReference: {fileID: 0}
    - target: {fileID: 8700018331206935472, guid: 668ee5293c93f7b43a76d1a715c35bad,
        type: 3}
      propertyPath: m_LocalEulerAnglesHint.z
      value: 0
      objectReference: {fileID: 0}
    - target: {fileID: 8700018331206935473, guid: 668ee5293c93f7b43a76d1a715c35bad,
        type: 3}
      propertyPath: m_Name
      value: bush_0002
      objectReference: {fileID: 0}
    m_RemovedComponents: []
  m_SourcePrefab: {fileID: 100100000, guid: 668ee5293c93f7b43a76d1a715c35bad, type: 3}
--- !u!1 &5928504140786417320 stripped
GameObject:
  m_CorrespondingSourceObject: {fileID: 1382367184496966648, guid: 668ee5293c93f7b43a76d1a715c35bad,
    type: 3}
  m_PrefabInstance: {fileID: 4713404838411011408}
  m_PrefabAsset: {fileID: 0}
