%YAML 1.1
%TAG !u! tag:unity3d.com,2011:
--- !u!114 &11400000
MonoBehaviour:
  m_ObjectHideFlags: 0
  m_CorrespondingSourceObject: {fileID: 0}
  m_PrefabInstance: {fileID: 0}
  m_PrefabAsset: {fileID: 0}
  m_GameObject: {fileID: 0}
  m_Enabled: 1
  m_EditorHideFlags: 0
  m_Script: {fileID: 11500000, guid: cd8c578fd5426984fa367ec08c62c9b7, type: 3}
  m_Name: String 17
  m_EditorClassIdentifier: 
  id: 5026
  text:
  - "\u0410 \u0432\u043E\u0442 \u0438 \u0441\u043A\u043B\u0430\u0434! \u041E\u0431\u0440\u0430\u0442\u0438
    \u0432\u043D\u0438\u043C\u0430\u043D\u0438\u0435: \u043D\u0430 \u043A\u0430\u0440\u0442\u043E\u0447\u043A\u0435
    \u0443\u043A\u0430\u0437\u0430\u043D\u044B \u043C\u0430\u0442\u0435\u0440\u0438\u0430\u043B\u044B,
    \u043A\u043E\u0442\u043E\u0440\u044B\u0435 \u043D\u0435\u043E\u0431\u0445\u043E\u0434\u0438\u043C\u044B
    \u0434\u043B\u044F \u0441\u0442\u0440\u043E\u0438\u0442\u0435\u043B\u044C\u0441\u0442\u0432\u0430.
    \u0414\u0430\u0432\u0430\u0439 \u043F\u043E\u0441\u0442\u0440\u043E\u0438\u043C
    \u0435\u0433\u043E."
  - 'The warehouse! Look: all the nessesary materials are listed on the card. Let''s
    build it!'
