%YAML 1.1
%TAG !u! tag:unity3d.com,2011:
--- !u!114 &11400000
MonoBehaviour:
  m_ObjectHideFlags: 0
  m_CorrespondingSourceObject: {fileID: 0}
  m_PrefabInstance: {fileID: 0}
  m_PrefabAsset: {fileID: 0}
  m_GameObject: {fileID: 0}
  m_Enabled: 1
  m_EditorHideFlags: 0
  m_Script: {fileID: 11500000, guid: 2dadf4a1c6096a9469e6bd1e94737150, type: 3}
  m_Name: BuildingSpeedUpBonusStage2
  m_EditorClassIdentifier: 
  BuildingStructureData:
  - {fileID: 11400000, guid: 6e3f3a20ca32d0a49bd8af1d56c89190, type: 2}
  MultiplierCoeffitient: 0.05
