%YAML 1.1
%TAG !u! tag:unity3d.com,2011:
--- !u!114 &11400000
MonoBehaviour:
  m_ObjectHideFlags: 0
  m_CorrespondingSourceObject: {fileID: 0}
  m_PrefabInstance: {fileID: 0}
  m_PrefabAsset: {fileID: 0}
  m_GameObject: {fileID: 0}
  m_Enabled: 1
  m_EditorHideFlags: 0
  m_Script: {fileID: 11500000, guid: be8cb22fc04265e4899c8fc9b3c9b879, type: 3}
  m_Name: RecipeSpeedUpBonusStage1
  m_EditorClassIdentifier: 
  Recipe: {fileID: 11400000, guid: f3a67c75982e00f4a99eb3336065b793, type: 2}
  MultiplyCoeffitient: 0.2
