%YAML 1.1
%TAG !u! tag:unity3d.com,2011:
--- !u!114 &11400000
MonoBehaviour:
  m_ObjectHideFlags: 0
  m_CorrespondingSourceObject: {fileID: 0}
  m_PrefabInstance: {fileID: 0}
  m_PrefabAsset: {fileID: 0}
  m_GameObject: {fileID: 0}
  m_Enabled: 1
  m_EditorHideFlags: 0
  m_Script: {fileID: 11500000, guid: 6fb725aa5ddc2f44d866d7df45ab13aa, type: 3}
  m_Name: "\u0420\u0430\u043D\u0433 \u042D\u043A\u0441\u043F\u0435\u0440\u0442 \u042D\u043A\u043E\u043B\u043E\u0433"
  m_EditorClassIdentifier: 
  _label: {fileID: 11400000, guid: 1f918f97acf0450438477b76ef12aa83, type: 2}
  _description:
  - {fileID: 11400000, guid: 77a395e093adb2041a86c3c2ef4e4193, type: 2}
  _requirements:
  - {fileID: 11400000, guid: c0c36090cd6f08b49981b7b2e98d655a, type: 2}
  - {fileID: 11400000, guid: 82b8035c8815d094a9494df9f969d5a4, type: 2}
  - {fileID: 11400000, guid: 88316f55504446946916d9e4f186c45e, type: 2}
  - {fileID: 11400000, guid: bad0646eb0ca5cc4eab62b99c0b4999a, type: 2}
  - {fileID: 11400000, guid: 6033bcd306b030648a8ab0ec16cd595b, type: 2}
  - {fileID: 11400000, guid: ef851ad34ead1704ebdb2602994dd0c6, type: 2}
  _rewards: []
  _score: 100
  _techQuestTree: {fileID: 11400000, guid: 575b681e6d3ec5f4ea70b751ae2ff7be, type: 2}
