%YAML 1.1
%TAG !u! tag:unity3d.com,2011:
--- !u!114 &11400000
MonoBehaviour:
  m_ObjectHideFlags: 0
  m_CorrespondingSourceObject: {fileID: 0}
  m_PrefabInstance: {fileID: 0}
  m_PrefabAsset: {fileID: 0}
  m_GameObject: {fileID: 0}
  m_Enabled: 1
  m_EditorHideFlags: 0
  m_Script: {fileID: 11500000, guid: 6fb725aa5ddc2f44d866d7df45ab13aa, type: 3}
  m_Name: "\u0420\u0430\u043D\u0433 \u042D\u043A\u0441\u043F\u0435\u0440\u0442 \u0421\u0442\u0435\u043A\u043E\u0301\u043B\u044C\u0449\u0438\u043A"
  m_EditorClassIdentifier: 
  _label: {fileID: 11400000, guid: aa066e589e211f441b39ced41f1372c6, type: 2}
  _description:
  - {fileID: 11400000, guid: f740ad8bca34dc9498fb1e679ff1a0f1, type: 2}
  _requirements:
  - {fileID: 11400000, guid: 681e7518869b00e428413d833e1d8e23, type: 2}
  _rewards: []
  _score: 100
  _techQuestTree: {fileID: 11400000, guid: 8d0ae468a8a645a4da63473cae16dafb, type: 2}
