%YAML 1.1
%TAG !u! tag:unity3d.com,2011:
--- !u!114 &11400000
MonoBehaviour:
  m_ObjectHideFlags: 0
  m_CorrespondingSourceObject: {fileID: 0}
  m_PrefabInstance: {fileID: 0}
  m_PrefabAsset: {fileID: 0}
  m_GameObject: {fileID: 0}
  m_Enabled: 1
  m_EditorHideFlags: 0
  m_Script: {fileID: 11500000, guid: 6fb725aa5ddc2f44d866d7df45ab13aa, type: 3}
  m_Name: "\u0420\u0430\u043D\u0433 \u0443\u0447\u0435\u043D\u0438\u043A \u041F\u043E\u0432\u0430\u0440\u0430"
  m_EditorClassIdentifier: 
  _label: {fileID: 11400000, guid: 37181c8153fdb0c4692da377de403c40, type: 2}
  _description:
  - {fileID: 11400000, guid: a43d08517e0be13419738dd6f178039c, type: 2}
  _requirements:
  - {fileID: 11400000, guid: ccf4e61859bba494fbaed610a0384997, type: 2}
  _rewards: []
  _score: 50
  _techQuestTree: {fileID: 11400000, guid: d84345c8d516a5c4bbdebab405e9016a, type: 2}
