%YAML 1.1
%TAG !u! tag:unity3d.com,2011:
--- !u!114 &11400000
MonoBehaviour:
  m_ObjectHideFlags: 0
  m_CorrespondingSourceObject: {fileID: 0}
  m_PrefabInstance: {fileID: 0}
  m_PrefabAsset: {fileID: 0}
  m_GameObject: {fileID: 0}
  m_Enabled: 1
  m_EditorHideFlags: 0
  m_Script: {fileID: 11500000, guid: cd8c578fd5426984fa367ec08c62c9b7, type: 3}
  m_Name: String 19
  m_EditorClassIdentifier: 
  id: 5029
  text:
  - "\u041A\u0430\u043A \u044D\u0442\u043E \u0441\u0434\u0435\u043B\u0430\u0442\u044C?
    \u041D\u0430\u0436\u043C\u0438 \u043D\u0430 \u0437\u0434\u0430\u043D\u0438\u0435,
    \u0447\u0442\u043E\u0431\u044B \u0443\u0441\u043A\u043E\u0440\u0438\u0442\u044C
    \u0435\u0433\u043E \u0441\u0442\u0440\u043E\u0438\u0442\u0435\u043B\u044C\u0441\u0442\u0432\u043E.
    \u041D\u043E \u0438\u043C\u0435\u0439 \u0432\u0432\u0438\u0434\u0443, \u0447\u0442\u043E
    \u044D\u0442\u043E \u0432\u043E\u0437\u043C\u043E\u0436\u043D\u043E \u0442\u043E\u043B\u044C\u043A\u043E
    \u0437\u0430 \u044D\u043A\u043E\u043A\u043E\u0438\u043D."
  - How? Click on the building to speed up it's construction. It's only possible
    through the use of ecocoin.
