Название,Время стройки 1, Время стройки 2,Время стройки 3,Материалы 1,Материалы 2,Материалы 3,Здания задействованые,Требования,Выроботка,Престиж,Возврат при разрушении,Особое,Можно строить несколько,Может производить,Арт,Где
Пилорама,60,,,ДО x 2 + МО x 1 + ПО x 2 + СО x 1,,,,Энергия x 1,Престиж x 1,1,ДО x 1 + ПО x 1,Обработка дерева,Нет,Да,woodworking,Производство | Обработка
Склад,20,,,ДО x 3 + МО x 1 + ПО x 1,,,,,,,ДО x 2,Место для хранения материалов,Нет,Нет,warehouse,Производство | Хранение
Колодец,30,,,Доски x 2 + ТСО x 1,,,Пилорама,,Вода x 2,,Доски x 1 + ТСО x 1,,Да,Нет,well,Производство | Добыча
Завод по переработке пластика,90,,,Доски x 8 + ТСО x 3 + ПО x 4,,,Пилорама,Энергия x 1 + Вода x 1,,,Доски x 3 + ТСО x 2 + ПО x 2,Обработка пластика,Нет,Да,plasticworking,Производство | Обработка
Солнечная батарея,40,,,Гранулы x 10 + Доски x 3 + ПО x 9,,,"Пилорама, Пласт",,Энергия x 3,,Доски x 1 + ПО x 8,,Да,Нет,solarpanel m,Производство | Добыча
Металлургический завод,120,,,Доски x 8 + ТСО x 3 + МО x 4 + Трубы x 5,,,"Пилорама, Пласт",Энергия x 1 + Вода x 1,,,Доски x 3 + ТСО x 2 + МО x 2,Обработка металла,Нет,Да,metalworking,Производство | Обработка
Стекло-перерабатывающий завод,240,,,Сляб x 2 + М трубы x 40 + Доски x 8,,,"Пилорама, Метал",Энергия x 1 + Вода x 1,,,МО x 10 + ТСО x 1 + Доски x 3,Обработка стекла,Нет,Да,glassworking,Производство | Обработка
Цех переработки текстиля,600,,,Доски x 8 + Силикатный клей x 3 + Гранулы x 10,,,"Пилорама, Пласт, Стекол",Энергия x 1 + Вода x 1,,,Доски x 4 + ПО x 5,Обработка ткани,Нет,Да,textileworkshop,Производство | Обработка
Дом,1800,,,М трубы x 50 + Доски x 16 + Грибная изоляция x 10 + Силикатный клей x 2,,,"Пилорама, Пласт, Стекол, Метал",Энергия x 2 + Вода x 1,Престиж x 3,3,МО x 10 + ТСО x 1 + Доски x 3,Квесты,Нет,Нет,house_3,Бизнес | Жилье
Компостный цех,600,,,Полимерная пленка x 4 + Пеностекло x 10 + Сляб x 4 + Стекольная фракция x 5,,,"Пилорама, Пласт, Стекол, Метал",Энергия x 1,Престиж x -1,-1,Сляб x 1 + Полимерная пленка x 2,Обработка органики,Нет,Да,compost,Производство | Обработка
Ферма,900,,,Доски x 24 + М трубы x 25 + Гвозди x 40 + Компост x 15,,,"Пилорама, Пласт, Компост",Вода x 2,Еда x 1,-1,Доски x 15 + М трубы x 10 + Гвозди х10,Еда,Нет,Да,farm,Производство | Обработка
Кострище с котелком,100,,,ДО x 2 + Сляб x 3,,,Метал,,Престиж x 2,2,,Декор,Да,Нет,fireplace,Декор | Удобства
Дрова,30,,,ДО x 1,,,,,Престиж x 1,1,,Декор,Да,Нет,firewood,Декор | Удобства
Гриль,60,,,Сляб x 3 + ДО x 1,,,Метал,,Престиж x 5,5,,Декор,Да,Нет,grill,Декор | Удобства
Лавочка ,120,,,Доски x 3 + Гвозди x 5,,,"Метал, Пилорама",,Престиж x 1,1,,Декор,Да,Нет,d_bench_1_03,Декор | Удобства
Урна,50,,,Гранулы x 4,,,Пласт,,Престиж x 1,1,,Декор,Да,Нет,d_bin_1,Декор | Удобства
Фонарь ,180,,,Сляб x 15 + Стекольная фракция x 5,,,"Стекло, Метал",,Престиж x 2,2,,Декор,Да,Нет,d_lantern_1,Декор | Удобства
Шезлонг 1,40,,,Доски x 4 + Гранулы x 2,,,"Пилорама, Пласт",,Престиж x 1,1,,Декор,Да,Нет,chaise_lounge_1,Декор | Удобства
Шезлонг 2,40,,,Доски x 4 + Гранулы x 2,,,"Пилорама, Пласт",,Престиж x 1,1,,Декор,Да,Нет,chaise_lounge_2,Декор | Удобства
Забор,120,,,Доски x 5,,,Пилорама,,Престиж x 1,1,,Декор,Да,Нет,,Декор | Удобства
Дерево 1,480,,,Перегной x 2,,,"Компостый цех, Пилорама",,,,,Декор,Да,Нет,tree_0,Декор | Растительное
Дерево 2,481,,,Перегной x 2,,,"Компостый цех, Пилорама",,,,,Декор,Да,Нет,tree_1,Декор | Растительное
Дерево 3,482,,,Перегной x 2,,,"Компостый цех, Пилорама",,,,,Декор,Да,Нет,tree_2,Декор | Растительное
Дерево 4,483,,,Перегной x 1,,,"Компостый цех, Пилорама",,,,,Декор,Да,Нет,tree_3,Декор | Растительное
Куст 1,30,,,Компост x 4,,,Компостый цех,,,,,Декор,Да,Нет,bush_0001,Декор | Растительное
Куст 2,30,,,Компост x 7,,,Компостый цех,,,,,Декор,Да,Нет,bush_0002,Декор | Растительное
Куст с цветами 1,90,,,Гумус,,,"Компостый цех, Пилорама",,,,,Декор,Да,Нет,flover_bush_0001,Декор | Растительное
Куст с цветами 2,90,,,Гумус,,,"Компостый цех, Пилорама",,,,,Декор,Да,Нет,flover_bush_0002,Декор | Растительное
Куст с цветами 3,90,,,Гумус,,,"Компостый цех, Пилорама",,,,,Декор,Да,Нет,flover_bush_0003,Декор | Растительное
Амбар,250,,,Доски x 18 + Гвозди x 60,,,"Пилорама, Метал",,Престиж x -2,-2,Доски x 6 + Гвозди x 5,Место для хранения еды,Нет,Нет,granary,Производство | Хранение
Рынок-магазин,666,,,Гранулы x 5 + Доски x 20 + Сляб x 20 + Стекольная фракция x 5,,,"Пилорама, Пласт, Стекол, Метал",Энергия x 1,Престиж x -1,1,Сляб x 1 + СО x 2 + ДО x 5,Покупка и продажа ресурсов. Гильдия через дом,Нет,Нет,market,Бизнес | Досуг
Палатка,60,,,Брезент x 10+ Доски x 6 + Нити x 6,,,"Пилорама, Текстиль",Вода x 1 + Еда x 1,Престиж x -2 + Трафик x 1,-2,Доски x 4 + ТО x 2,Жилое здание,Да,Нет,tent m,Бизнес | Жилье
Пекарня-мельница,1200,,,Брус x 10 + Сляб x 5 + Доски x 15 + ТСО x 25,,,"Пилорама, Метал",Вода x 3,Престиж x -1 + Еда x 3,-1,Брус x 4 + ДО x 10 + ТСО x 10,Еда+,Нет,Да,flourmill,Бизнес | Питание
Туалет,4500,,,Гранулы x 25 + Трубы x 2 + Полимерная пленка x 2 + Эпоксидная смола x 1,,,Пласт,Вода x 2,Престиж x 5,5,ПО x 25,,Да,Нет,toilet,Декор | Удобства
Дробильно-сортировочный завод,900,,,Сляб x 20 + Гранулы x 15 + Брус x 5 + Стекольная фракция x 5,,,"Пилорама, Метал, Пластик",Энергия x 2 ,Престиж x -8,-8,Сляб x 1 + ПО x 10 + ДО x 5,Обработка Стройматериалов,Нет,Да,crushing_and_screening plant,Производство | Обработка
Ферма Животных,1200,,,Брус x 3 + М трубы x 45 + Доски x 25 + Грибная изоляция x 5,,,"Пилорама, Метал",Вода x 3,,,Брусок x 1 + МО x 5,Еда++,Нет,Да,barnyard_0001,Производство | Обработка
Посадочная площадка,600,,,ТСО x 100 + Сляб x 3 + Гранулы x 5,,,"Метал, Пласт",Энергия x 3,,,ТСО x 25 + Сляб x 1,Туристы. Включает трафик. Позволяет друзьям приходить в гости,Нет,Нет,platform,Бизнес | Жилье
Корабль с туристами,1800,,,Сляб x 20 + Полимерная пленка x 3 + Стекольная фракция x 2,,,"Метал, Пласт, Стекол",,Престиж x 3,3,Сляб x 2,Повышает рейтинг,Да,Нет,copter,Бизнес | Жилье
Открытая кухня,3600,,,Брус x 8 + Сляб x 9 + Гранулы x 20 + Стекольная фракция x 6,,,"Пилорама, Пласт, Стекол, Метал",Вода x 3,Престиж x 1 + Еда x 2,1,ДО x 10 + МО x 10 + ПО x 5 + СО x 2,Раздача еды,Нет,Нет,kitchen,Бизнес | Питание
Фудтрак,4200,,,Сляб x 6 + Брезент x 8 + Доски x 14,,,"Пилорама, Текстиль, Метал",Вода x 2,Еда x 1,,Сляб x 2 + Доски x 5 + ТО x 4,Еда+++,Нет,Да,foodtruck_2,Бизнес | Питание
Спортплощадка,1200,,,ТСО x 45 + Брус x 6 + Эпоксидная смола x 1,,,"Пилорама, Пласт",,Престиж x 10,10,ТСО x 25 + Брус x 2,Повышает рейтинг,Да,Нет,tennis_court,Бизнес | Досуг
Скважина,10800,,,Балка x 8 + Сляб x 10 + М трубы x 50,,,"Пилорама, Метал",,Престиж x -20 + Вода x 10,-20,Балка x 2 + МО x 10,Улучшение колодца,Да,Нет,well_upgrade_0001,Производство | Добыча
Прессовальный цех,9000,,,Сляб x 120 +Трубы x 15 + Силикатный клей x 5,,,"Метал, Пласт, Стекол",Энергия x 3,Престиж x -25,-25,МО x 25 + Трубы x 5 + ПО x 15,Вторичная обработка,Нет,Нет,pressing shop,Производство | Обработка
Бассейн,7200,,,ТСО x 30 + Трубы x 10 + Плитка (пластик) x  15,,,"Пласт, Дроб-сорт",Вода x 5,Престиж x 7,7,ТСО x 10 + ПО x 15,,Да,Нет,pool_1,Бизнес | Досуг
Кондитерская,18000,,,ХДФ x 50 + Брус x 5 + Гвозди x 10 + Сляб x 25,,,"Пилорама, Метал, Прес",Энергия x 3 + Вода x 3,Престиж x 2 + Еда x 2,2,Опилки x 10 + ДО x 5 + МО x 5,Еда++++,Нет,Да,sweetshop,Бизнес | Питание
Бар,21600,,,Брус x 4 + Доски x 30 + Стекольная фракция x 45 + Сляб x 20,,,"Пилорама, Метал, Стекол",Энергия x 1 + Вода x 2,Еда x 1,,ДО x 15 + СО x 10 + Сляб x 4,Еда+++++,Нет,Нет,bar,Бизнес | Питание
Кафе,25200,,,Брус x 8  + Доски x 40 + Гранулы x 25 + Стекольная фракция x 45,,,"Метал, Пласт, Стекол",Энергия x 3 + Вода x 3,Престиж x 1 + Еда x 2,1,ДО x 20 + ПО x 10 + СО x 5,Еда++++++,Нет,Да,cafe_1,Бизнес | Питание
Кофейня,30600,,,ХДФ x 200 + Сляб x 15 + Брезент x 15 + Грибная изоляция x 20,,,"Пилорама, Текстиль, Метал",Энергия x 1 + Вода x 1,Престиж x 1 + Еда x 1,1,Доски x 20 + Сляб x 1 + ТО x 10,Раздача еды,Нет,Нет,coffee_house,Бизнес | Питание
Землянка,7200,,,Брусчатка x 40 + Брус x 20 + Доски x 20 + Стекольная фракция x 20,,,"Дроб-сорт, Пилорама, Стекол",Энергия x 1 + Вода x 1 + Еда x 1,Трафик x 2,,ДО x 40 + ТСО x 15,Жилое здание,Да,Нет,house_1,Бизнес | Жилье
Спа,36000,,,ТСО x 30 + Трубы x 20 + Плитка (пластик) x 35 + Гранулы x 10,,,"Пласт, Прес",Энергия x 4 + Вода x 3,Престиж x 15,15,ТСО x 15 + Плитка (пластик) x 10,,Да,Нет,Spa,Бизнес | Досуг
Клининг,14400,,,Гранулы x 40 + ХДФ x 40 + Эпоксидная смола x 3,,,"Пилорама, Пласт",Энергия x 3 + Вода x 1,Престиж x 15,15,ПО x 20 + ДО x 10 ,,Да,Нет,cleaning,Декор | Удобства
Ветряк,10800,,,Балка x 10 + Сляб x 10 + Гранулы x 10 + ТСО x 60,,,"Метал, Пласт",,Престиж x -40 + Энергия x 24,-40,Балка x 3 + Сляб x 1,,Да,Нет,chickenpox,Производство | Добыча
Башня вайфай,72000,,,Сляб x 90 + Гранулы x 15 + Грибная изоляция x 4 + Стекольная фракция x 30,,,"Метал, Пласт",Энергия x 10,Престиж x 25,25,Сляб x 5 + ПО x 5,,Да,Нет,radiotower,Декор | Удобства
Кинотеат,86400,,,Ветошь x 200 + Сляб x 100 + Полимерная пленка x 10 + Грибная изоляция x 10,,,"Текстиль, Метал, Пласт",Энергия x 10,Престиж x 30,30,ТО x 20 + МО x 20 + ПО x 2,,Да,Нет,cinema,Бизнес | Досуг
Домики,36000,,,Брус x 8 + Полимерпесчаная черепица x 50 + Трубы x 25 + Стекольная фракция x 60,,,"Пилорама, Прес, Пласт",Энергия x 2 + Вода x 2 + Еда x 1,Престиж x 3 + Трафик x 2,3,Брус x 2 + Гранулы x 3,Жилое здание,Да,Нет,house_2,Бизнес | Жилье
Горячие источники,259200,,,Плитка тротуарная x 100 + М трубы x 50 + Брусчатка x 200,,,"Дроб-сорт, Метал, Пилорама",Энергия x 15 + Вода x 15,Престиж x 50,50,Плитка x 10 + трубы x 5 + Брус x 15,,Да,Нет,thermae,Бизнес | Досуг
Вилла (Бунгало),172800,,,Балка x 200 + Брус x 60 + Стекольная фракция x 150 + Силикатный клей x 5,,,"Пилорама, Стекол, Метал",Энергия x 4 + Вода x 3 + Еда x 2,Трафик x 4,,Балка x 15 + Брус x 20 + СО x 20,Жилое здание,Да,Нет,bungalows,Бизнес | Жилье
Сцена,432000,,,Брус x 200 + Балка x 200 + Брезент x 50 + Гвозди x 400,,,"Пилорама, Металл, Текстиль",Энергия x 25,Престиж x 100 + Еда x 5,100,ДО x 100 + МО x 5 + ТО x 5 ,,Нет,Нет,stage,Бизнес | Досуг
Ресторан,604800,,,Брус x 250 + стекольная фракция x 120 + Гвозди x 100 + Сляб x 620,,,"Пилорама, Прес, Метал, ",Энергия x 5 + Вода x 3,Еда x 3,,Брус x 50 + Гвозди x 20 + Сляб x 40,Еда(Max),Нет,Да,restaurant,Бизнес | Питание
Гостинница,777600,,,Балка x 400 + Плитка тротуарная x 100 +  Стекольная фракция x 150 + Брезент x 250,,,"Метал, Дроб-сорт, Прес,, Текстиль",Энергия x 30 + Вода x 40 + Еда x 5,Трафик x 10,,Балка x 40 + Плитка x 10 + ТО x 25,Жилое здание,Нет,Нет,hotel,Бизнес | Жилье
Подводная ферма,172800,,,Плитка тротуарная x 100 + М трубы x 75 + Нити x 200 + Брус x 40,,,"Дроб-сорт, Метал, Текстиль, Пило",Вода x 15,,,МО x 20 + ТО x 5 + ДО x 20,Еда+++++++,Нет,,,
Водонапорная башня,108000,,,Балка x 40 + Сляб x 150 + М трубы x 250 + Доски x 40,,,"Пилорама, Метал",,Престиж x -50 + Вода x 40,-50,Балка x 20 + Сляб x 5 + Доски x 5,Улучшение скважины,Нет,,,