Ресурс,Время создания (с),Полное время создания (с),Состав,Стои. Состава,Продукт,Место,Количество,Един. Стоим. ,Един.Полн.Вре,Мощность,Будет в демо,Есть арт,художники,Icon
Опилки,8,"8,00",ДО x 1,"1,18","Гранулы Пеллеты, перегной, Шампиньоны",Пилорама,"2,00","0,59","4,00","14,72",Да,Да,,i_sawdust
Доски,40,"40,00",ДО x 5,"5,89","Дверь, окно, клееный брус, ферма",Пилорама,"3,00","1,96","13,33","14,72",Да,Да,,i_wooden_boards
Гранулы Пеллеты,90,"150,00",Опилки x 15,"12,17",Очень очень много всего,Пилорама,"5,00","2,43","30,00","13,52",Да,Да,,i_pellets
Брус,100,"165,00",Доски x 3 + Борная кислота x 1,"12,22",Здания,Пилорама,"3,00","4,07","55,00","12,22",Да,Да,,i_wooden_beam
Полка (малая),480,"836,07",Доски x 20 + Гвозди x 8 + Эпоксидная смола x 2,"64,93",Для дома,Пилорама,"1,00","64,93","836,07","13,53",Нет,,,
"Кровать ""Комфорт""",600,"1 660,00",Брус x 4 + Лоскуты x 40 + Гранулы x 10,"121,19",Для дома,Пилорама,"1,00","121,19","1 660,00","20,20",Нет,,,
Стекольная фракция,16,"16,00",СО x 2,"2,00","Силикатный клей, Пеностекло, Стекловолокно  и тд",Стекло-перерабатывающий завод,"3,00","0,67","5,33","12,50",Да,Да,,i_glass_2
Силикатный клей,60,"100,67",Стекольная фракция x 2 + Гранулы Пеллеты x 1,"6,00",Разный брус и материалы,Стекло-перерабатывающий завод,"2,00","3,00","50,33","10,01",Да,Да,,i_silicate_glue
Пеностекло,660,"1 153,33",Стекольная фракция x 25 + Гранулы Пеллеты x 12,"71,50",Гранулированное пеностекло. Дом,Стекло-перерабатывающий завод,"5,00","14,30","230,67","10,83",Да,Да,,i_foamglass
Стекловолокно,100,"171,00",Стекольная фракция x 3 + Борная кислота x 1 + Гранулы Пеллеты x 1,"10,90","Рулон стеклопластика, Лист стеклопластика",Стекло-перерабатывающий завод,"15,00","0,73","11,40","10,90",Да,Да,,i_fiberglass
Стекловата,80,"132,33",Стекольная фракция x 2 + Гранулы Пеллеты x 1 + Песок x 5,"8,37",Утепленный клееный брус,Стекло-перерабатывающий завод,"1,00","8,37","132,33","10,47",,,,
Сляб,60,"90,00",МО x 2 + Гранулы Пеллеты x 1,"8,03","Арматура, Балка и тд",Металлургический завод,"1,00","8,03","90,00","13,39",Да,Да,,i_metal_2
Борная кислота,240,"300,00",МО x 20,"32,00","Стекло, дерево и тд",Металлургический завод,"12,00","2,67","25,00","13,33",Да,Да,,i_boric_acid
Гвозди,300,"540,00",Сляб x 1 + Гранулы Пеллеты x 5,"41,80",Это гвозди. Много куда,Металлургический завод,"50,00","0,84","10,80","13,93",Да,Да,,i_nails
Балка,560,"1 100,00",Сляб x 1 + Гранулы Пеллеты x 10 + Борная кислота x 2,"81,37",М Ферма. здания,Металлургический завод,"2,00","40,68","550,00","14,53",Да,Да,,i_metal_beam
М трубы,660,"1 050,00",Сляб x 1 + Гранулы Пеллеты x 10 ,"90,77",Здания,Металлургический завод,"100,00","0,91","10,50","13,75",Да,Да,,i_metal_pipe
Медь,320,"345,00",МО x 2 + Борная кислота x 1,"18,47",Провода,Металлургический завод,"1,00","18,47","345,00","5,77",,,,
Арматура,360,"600,00",Сляб  x 1 + Гранулы Пеллеты x 5,"44,20",Каркасная сетка,Металлургический завод,"5,00","8,84","120,00","12,28",,,,
Ветошь,16,"16,00",ТО x 2,"2,27","Регенерированное волокно, Лоскуты ",Цех переработки текстиля,"1,00","2,27","16,00","14,17",Да,Да,,i_rags
Лоскуты,22,"38,00",Ветошь x 1,"2,90",,Цех переработки текстиля,"2,00","1,45","19,00","13,18",Да,Да,,i_flaps
Нити,22,"38,00",Ветошь x 1,"2,90",,Цех переработки текстиля,"5,00","0,58","7,60","13,18",Да,Да,,i_thread
Персидский ковер,600,"1 065,10",Нити x 50 + Регенирированное волокно x 2 + Эпоксидная смола x 1,"53,04",Для дома,Цех переработки текстиля,"5,00","10,61","213,02","8,84",,,,
Брезент,70,"95,00",ТО x 3 + Борная кислота x 1,"7,25",,Цех переработки текстиля,"3,00","2,42","31,67","10,36",Да,Да,,i_tarp
Регенерированное волокно,120,"209,00",Ветошь x 4  + Борная кислота x 1,"15,22",,Цех переработки текстиля,"5,00","3,04","41,80","12,68",,,,
Гранулы,8,"8,00",ПО x 1,"1,00",Почти весь пластик,Завод по переработке пластика,"1,00","1,00","8,00","12,50",Да,Да,,i_plastic_2
Полимерная пленка,35,"46,00",Гранулы x 2 + Гранулы Пеллеты x 1,"4,43",,Завод по переработке пластика,"1,00","4,43","46,00","12,67",Да,Да,,i_plastic_sheeting
Трубы,400,"850,00",Гранулы x 45 + Гранулы Пеллеты x 3,"52,30",Здания,Завод по переработке пластика,"10,00","5,23","85,00","13,08",Да,Да,,i_plastic_pipe
Эпоксидная смола,15,"15,00",ОО x 2,"2,00",,Завод по переработке пластика,"10,00","0,20","1,50","13,33",Да,Да,,i_epoxy
Полиэфирное волокно,120,"290,00",Гранулы x 10 + Гранулы Пеллеты x 3,"17,30",,Завод по переработке пластика,"6,00","2,88","48,33","14,42",,,,
Компост,210,"210,00",ОО x 10,"31,00",Для ростений и провизии,Компостный цех,"15,00","2,07","14,00","14,76",Да,Да,,i_organic_2
Перегной,420,"528,00",Компост x 5 + Опилки x 10,"66,08",Растения +,Компостный цех,"10,00","6,61","52,80","15,73",Да,Да,,i_organic_3
Черви,1000,"1 000,00",ОО x 1,"101,00",Гумус,Компостный цех,"6,00","16,83","166,67","10,10",Да,Да,,i_worms
Мицелий,300,"300,00",ОО x 7,"37,00",Грибы,Компостный цех,"1,00","37,00","300,00","12,33",Да,Да,,i_mycelium
Грибная изоляция,270,"570,00",Мицелий x 1,"37,00",Стены,Компостный цех,"2,00","18,50","285,00","13,70",Да,Да,,i_insulation
Гумус,800,"1 019,47",Черви x 1 + Перегной x 1,"125,39",,Компостный цех,"5,00","25,08","203,89","15,67",Да,Да,,i_organic_4
Песок,70,"70,00",ТСО x 10,"10,00","Брусчатка, кирпич",Дробильно-сортировочный завод,"30,00","0,33","2,33","14,29",Да,Да,,i_sand
Щебень,70,"70,00",ТСО x 10,"10,00","Брусчатка, кирпич",Дробильно-сортировочный завод,"20,00","0,50","3,50","14,29",Да,Да,,i_rubble
Брусчатка,30,"60,33",Песок x 4 + Щебень x 6,"4,33",Плитка,Дробильно-сортировочный завод,"5,00","0,87","12,07","14,44",Да,Да,,i_tile_rubble
Плитка тротуарная,40,"126,53",Брусчатка x 3 + Силикатный клей x 1,"5,60",-,Дробильно-сортировочный завод,"1,00","5,60","126,53","14,00",Да,Да,,i_tile_sidewalk
Кирпич,30,"180,00",Песок x 6 + Щебень x 4,"4,00",Печь,Дробильно-сортировочный завод,"5,00","0,80","36,00","13,33",,,,
Печь,5200,"32 200,00",Кирпич x 750,"1 673,33",-,Дробильно-сортировочный завод,"1,00","1 673,33","32 200,00","32,18",,,,
Печь,5200,"25 612,00",Грибной Кирпич x 810,"1 800,35",-,Дробильно-сортировочный завод,"1,00","1 800,35","25 612,00","34,62",,,,
Дверь,35,"82,68",Доски x 2 + М детали x 1,"8,67",Здания,Столярная мастерская,"1,00","8,67","82,68","24,77",,,,
Окно,60,"189,33",Доски x 1 + Стекло из полистирола x 2,"14,04",Здания ,Столярная мастерская,"1,00","14,04","189,33","23,40",,,,
Окно,65,"89,00",Доски x 1 + Стекольная фракция x 2 ,"15,94",Здания,Столярная мастерская,"1,00","15,94","89,00","24,52",,,,
Клееный брус,120,"324,00",Доски x 4 + Силикатный клей x 2 + Борная кислота x 2,"26,39",Здания,Столярная мастерская,"3,00","8,80","108,00","21,99",,,,
Ферма,390,"847,33",Доски x 10 + Гвоздь x 30,"86,08",Здания,Столярная мастерская,"1,00","86,08","847,33","22,07",,,,
Утепленный клееный брус,180,"603,00",Клееный брус x 1 + Стекловата x 2 + Силикатный клей x 1,"41,95",Здания,Столярная мастерская,"1,00","41,95","603,00","23,30",,,,
Штурвал,25000,"72 764,00",Клееный брус x 300 + Канат x 10 + Эпоксидная смола x 100 + Ватин х 20,"5 258,60",Для дома,Столярная мастерская,"1,00","5 258,60","72 764,00","21,03",,,,
Полка (большая),4000,"20 730,83",Пакетный брус x 25 + Пластиковая посуда x 50 + Эпоксидная смола x 100 + Гвозди x 50,"1 097,32",Для дома,Столярная мастерская,"1,00","1 097,32","20 730,83","27,43",,,,
Пакетный брус,320,"1 227,67",Клееный брус x 2 + Гранулированное пеностекло x 2 + Силикатный клей x 1,"76,84",Здания,Столярная мастерская,"2,00","38,42","613,83","24,01",,,,
"Кровать ""Мечта""",30000,"142 200,00",Клееный брус x 40 + Полиэстр x 150 + Войлок x 100,"6 896,64",Для дома,Столярная мастерская,"1,00","6 896,64","142 200,00","22,99",,,,
"Кровать ""Королевская""",18000,"92 918,33",Клееный брус x 40 + Полиэстр x 100 + Войлок x 50,"4 639,42",Для дома,Столярная мастерская,"1,00","4 639,42","92 918,33","25,77",,,,
Пластиковая посуда,45,"139,00",Гранулы x 8 + Гранулы Пеллеты x 1,"10,43",Ресторан ,Плавильный цех,"10,00","1,04","13,90","23,19",,,,
П Детали,40,"140,00",Гранулы x 5 + Гранулы Пеллеты x 2,"9,87",Механизмы,Плавильный цех,"5,00","1,97","28,00","24,67",,,,
Стекло из полистирола,32,"116,00",Гранулы x 3 + Гранулы Пеллеты x 2,"7,87",окна и тд,Плавильный цех,"2,00","3,93","58,00","24,58",,,,
Стеклопакет,18,"64,00",Полимерная пленка x 1,"4,43",Магазины,Плавильный цех,"5,00","0,89","12,80","24,63",,,,
П Дверь,18,"70,00",П Детали x 1 + Гранулы x 3,"4,97",Здания,Плавильный цех,"1,00","4,97","70,00","27,63",,,,
Часы с кукушкой,3600,"10 682,50",Брус x 60 + П Детали x 120 + Гранулы x 50 + Эпоксидная смола x 15,"534,24",Для дома,Плавильный цех,"1,00","534,24","10 682,50","14,84",,,,
Интерактивная доска,40000,"88 560,00",Каркасная сетка x 5 + П Детали x 2 + Медь x 15 + Эпоксидная смола x 10,"6 549,28",Для дома,Плавильный цех,"1,00","6 549,28","88 560,00","16,37",,,,
Кондиционер,30000,"79 465,75",М Детали x 50 + Каркасная сетка x 5 + Эпоксидная смола x 10 + Гранулы x 50,"6 463,68",Для дома,Плавильный цех,"1,00","6 463,68","79 465,75","21,55",,,,
"Кровать ""Водяная""",15000,"43 037,50",Полимерная пленка x 400 + Эпоксидная смола x 25 + Каркасная сетка x 1,"3 031,60",Для дома,Плавильный цех,"1,00","3 031,60","43 037,50","20,21",,,,
Стеклопосуда,40,"116,00",Стекольная фракция x 3 + Гранулы Пеллеты x 2,"9,44",Ресторан ,Стекольная фабрика,"9,00","1,05","12,89","23,61",,,,
Гранулированное пеностекло,90,"320,67",Пеностекло x 1,"21,43",Пакет брус,Стекольная фабрика,"1,00","21,43","320,67","23,81",,,,
Плитка (стекло),150,"381,67",Стекольная фракция x 24 + Эпоксидная смола x 2 + Селикатный клей x 2,"30,89",Декор,Стекольная фабрика,"4,00","7,72","95,42","20,59",,,,
Трубы из стеклопластика,240,"734,90",Стекловолокно x 36 +  Эпоксидная смола x 3 +  Гранулы x 10,"53,09",Здания,Стекольная фабрика,"10,00","5,31","73,49","22,12",,,,
Рулон стеклопластика,270,"747,00",Стекловолокно x 30 + Эпоксидная смола x 10 + Гранулы x 15,"55,40",,Стекольная фабрика,"10,00","5,54","74,70","20,52",,,,
Панно,10800,"26 935,83",Плитка (стекло) x 50 + Стекловолокно x 100 + Каркасная сетка x 1 + Борная кислота x 25,"1 787,15",Для дома ,Стекольная фабрика,"1,00","1 787,15","26 935,83","16,55",,,,
Зеркало,7200,"11 815,00",Стекольная фракция x 300 + Арматура x 25 + Эпоксидная смола x 10,"685,56",Для дома ,Стекольная фабрика,"1,00","685,56","11 815,00","9,52",,,,
Волшебное зеркало,250000,"436 118,89",Зеркало x 13 + Эпоксидная смола х 500 + Борная кислота x 100 + Ловец снов x 1,"52 653,97",Для дома ,Стекольная фабрика,"1,00","52 653,97","436 118,89","21,06",,,,
Стеклопластиковая арматура,160,"471,00",Стекловолокно x 20 + Эпоксидная смола x 2 + гранулы x 10,"35,40",Можно использовать вместо арматуры,Стекольная фабрика,"1,00","35,40","471,00","22,13",,,,
М Дверь,2100,"3 306,09",М Детали x 6 + Сляб x 12,"444,45",Здания,Литейный цех,"10,00","44,45","330,61","21,16",,,,
М Детали,2400,"4 203,00",Сляб x 20 + Борная кислота x 2,"581,37",Здания,Литейный цех,"200,00","2,91","21,02","24,22",,,,
Каркасная сетка,6000,"9 600,00",Арматура x 15 +  Сляб x 20,"1 253,27",Здания,Литейный цех,"1,00","1 253,27","9 600,00","20,89",,,,
Каркасная сетка,6000,"9 684,00",Стеклопластиковая арматура x 4 + Сляб x 20,"1 270,67",Здания,Литейный цех,"1,00","1 270,67","9 684,00","21,18",,,,
М Ферма,8000,"14 603,00",Балка x 12 + Борная кислота x 2,"1 948,90",Здания,Литейный цех,"5,00","389,78","2 920,60","24,36",,,,
Часы стимпанк,55000,"86 354,75",Каркасная сетка x 3 + М Детали x 50 + Канат x 1 + Клееный брус x 10,"12 658,85",Для дома,Литейный цех,"1,00","12 658,85","86 354,75","23,02",,,,
Рыцарский щит,40000,"65 327,00",Арматура x 200 + Нити x 20 + Брус х 20 + Эпоксидная смола х 50,"8 403,78",Для дома,Литейный цех,"1,00","8 403,78","65 327,00","21,01",,,,
"Кровать ""Ужас из глубин""",70000,"121 166,33",М Ферма x 5 + Каркасная сетка x 3 + Брус x 20 + Полиэстр  x 10,"18 310,20",Для дома,Литейный цех,"1,00","18 310,20","121 166,33","26,16",,,,
Сеть,100,"328,00",Нити x 30 ,"22,87",Рыбная ферма,Швейная мастерская,"3,00","7,62","109,33","22,87",,,,
Канат,120,"424,00",Нити x 40,"30,27",Сцена,Швейная мастерская,"1,00","30,27","424,00","25,22",,,,
Ватин,120,"393,60",Нити x 3 + Регенерированное волокно x 6,"26,56",Сцена,Швейная мастерская,"3,00","8,85","131,20","22,13",,,,
Ловец снов,40000,"87 821,67",Нити x 100 + Ватин x 100 + Полиэстер x 50 + Борная кислота x 25,"4 490,64",Для дома,Швейная мастерская,"3,00","1 496,88","29 273,89","11,23",,,,
Ковер: 3 измерение,50000,"62 077,68",Нити x 1000 + Земляника x 100 + Голубика x 100 + Вишня x 100,"2 055,65",Для дома,Швейная мастерская,"3,00","685,22","20 692,56","4,11",,,,
Полиэстер,180,"666,33",Полиэфирное волокно x 10 + Эпоксидная смола x 2 ,"40,34",?,Швейная мастерская,"1,00","40,34","666,33","22,41",,,,
Плитка (пластик),80,"142,00",Гранулы x 4 + Гранулы Пеллеты x 1,"9,59",-,Прессовальный цех,"4,00","2,40","35,50","11,99",Да,Да,вит,i_plastic_tile
Полимерпесчаная черепица,90,"188,00",Гранулы x 1+ Гранулы Пеллеты x 3,"12,48",Здания,Прессовальный цех,"1,00","12,48","188,00","13,86",Да,Да,,i_polymer_roof
ХДФ,60,"100,00",Опилки x 10,"8,11",аналог досок,Прессовальный цех,"3,00","2,70","33,33","13,52",Да,Да,,i_HDF
Войлок,75,"158,60",Регенерированное волокно x 2,"9,61",?,Прессовальный цех,"2,00","4,81","79,30","12,81",,,,
Грибной кирпич,330,"630,00",Мицелий x 5,"29,22",аналог кирпичей,Прессовальный цех,"25,00","1,17","25,20","8,85",,,,
Пшеница,560,"658,00",Компост x  7,"69,30",Мука,Ферма,"90,00","0,77","7,31","12,38",Да,Да,,i_wheat
Капуста,900,"1 093,00",Компост x 12 + Борная кислота x 1,"118,55",Пирожек,Ферма,"90,00","1,32","12,14","13,17",Да,да,,i_cabbage
Голубика,660,"765,60",Перегной x 2,"77,02",Кекс,Ферма,"50,00","1,54","15,31","11,67",Да,да,,i_blueberry
Яблоки,650,"808,40",Перегной x 3,"87,19",Пирог,Ферма,"45,00","1,94","17,96","13,41",Да,Да,,i_apple
Кукуруза,560,"718,40",Перегной x 3,"79,69",Мука,Ферма,"100,00","0,80","7,18","14,23",Да,да,,i_corn
Лисички,400,"752,80",Мицелий x 1 + Перегной x 1,"59,75",Грибной суп,Ферма,"70,00","0,85","10,75","14,94",Да,Да,,i_chanterelle
Ваниль,1800,"2 207,79",Гумус x 2,"234,14",,Ферма,"40,00","5,85","55,19","13,01",Да,Да,,i_vanilla
Мята,600,"672,00",Компост x 8,"72,53",Чай,Ферма,"45,00","1,61","14,93","12,09",,,,
Картофель,540,"652,00",Компост x 6,"70,87",Пирожек,Ферма,"120,00","0,59","5,43","13,12",,,,
Земляника,450,"503,00",Компост x 2 + Борная кислота x 1,"48,72",Кекс,Ферма,"35,00","1,39","14,37","10,83",Да,Да,,i_strawberries
Кофе,350,"406,00",Компост x 4,"42,10",Кофе,Ферма,"40,00","1,05","10,15","12,03",,,,
Вишня,400,"452,80",Перегной x 1,"44,34",Кекс,Ферма,"30,00","1,48","15,09","11,09",,,,
Томаты,630,"760,60",Перегной x 2 + Борная кислота,"79,27","Пицца, сок",Ферма,"60,00","1,32","12,68","12,58",,,,
Тыквы,1000,"1 203,89",Гумус x 1,"125,40",,Ферма,"150,00","0,84","8,03","12,54",,,,
Виноград,3600,"4 032,79",Гумус x  2 + Борная кислота x 1,"388,89",Вино,Ферма,"200,00","1,94","20,16","10,80",,,,
Трюфели,5200,"6 232,79",Мицелий x 2 + Гумус x  2 + Борная кислота x 1,"646,22",,Ферма,"30,00","21,54","207,76","12,43",,,,
Мука,30,"66,56",Пшеница x 5,"3,85","Тесто, лаваш",Пекарня-мельница,"2,00","1,93","33,28","12,83",Да,Да,,i_flour
Мука,30,"66,56",Кукуруза x 5,"3,98",Тесто. лаваш,Пекарня-мельница,"2,00","1,99","33,28","13,28",Да,Да,,i_flour
Тесто,60,"169,48",Мука x 2 + Яйца x 2,"8,98","Коржи, Крендели ",Пекарня-мельница,"3,00","2,99","56,49","14,96",Да,Да,,i_dough
Лаваш,15,"48,28",Мука x 1,"1,93",Шаурма,Пекарня-мельница,"1,00","1,93","48,28","12,83",Да,да,сон,i_pita
Чиабатта,20,"76,49",Тесто x 1,"2,99",Бутеры,Пекарня-мельница,"1,00","2,99","76,49","14,96",Да,да,сон,i_ciabatta
Круассан,80,"193,69",Тесто x 1 + Масло x 1 + Ваниль x 1,"11,85",-,Пекарня-мельница,"3,00","3,95","64,56","14,81",Да,да,сон,i_croissant
Коржи,20,"76,49",Тесто x 1,"2,99",-,Пекарня-мельница,"12,00","0,25","6,37","14,96",Да,да,сон,i_shortcake
Крендели,90,"315,97",Тесто x 4,"11,97",,Пекарня-мельница,"10,00","1,20","31,60","13,30",Да,да,,i_pretzel
Свинина,2700,"2 700,00",ОО x 100,"370,00",Еда,Ферма Животных,"75,00","4,93","36,00","13,70",Да,Да,,i_pork
Курица,2100,"2 575,22",Пшеница x 65,"307,57",Еда,Ферма Животных,"75,00","4,10","34,34","14,65",Да,Да,,i_chicken
Яйцо,2100,"2 575,22",Пшеница x 65,"307,57",Тесто,Ферма Животных,"120,00","2,56","21,46","14,65",Да,Да,,i_egg
Говядина,3600,"4 404,22",Пшеница x 110,"525,12",Еда,Ферма Животных,"100,00","5,25","44,04","14,59",Да,Да,,i_beef
Молоко,3600,"4 404,22",Пшеница x 110,"525,12",Еда,Ферма Животных,"200,00","2,63","22,02","14,59",Да,Да,,i_milk
Масло,600,"732,13",Молоко x 6,"88,97",Круассаны,Ферма Животных,"20,00","4,45","36,61","14,83",Да,Да,,i_butter
Баранина,5200,"6 296,67",Пшеница x 150,"745,17",Еда,Ферма Животных,"100,00","7,45","62,97","14,33",,Да,,
Хот-дог,90,"226,78",Чиабатта x 1 + Свинина x 1 + Капуста x 2,"10,56",-,Фудтрак,"15,00","0,70","15,12","11,73",Да,Да,али,i_hot-dog
Сэндвич,90,"287,03",Чиабатта x 2 + Говядина x 1,"11,24",-,Фудтрак,"10,00","1,12","28,70","12,48",Да,Да,,i_sandwich
Сэндвич,90,"278,98",Чиабатта x 2 + Свинина x 1,"10,92",-,Фудтрак,"10,00","1,09","27,90","12,13",Да,,,i_sandwich
Сэндвич,90,"277,32",Чиабатта x 2 + Курица x 1,"10,09",-,Фудтрак,"10,00","1,01","27,73","11,21",Да,,,i_sandwich
Сэндвич,90,"305,95",Чиабатта x 2 + Баранина x 1,"13,44",-,Фудтрак,"12,00","1,12","25,50","14,93",,,,i_sandwich
Шаурма,90,"279,92",Лаваш x 3 + Лисички x 1 + Курица x 1,"10,73",-,Фудтрак,"11,00","0,98","25,45","11,92",Да,да,али,i_shawarma
Шаурма,90,"289,63",Лаваш x 3 + Лисички x 1 + Говядина x 1,"11,88",-,Фудтрак,"12,00","0,99","24,14","13,20",Да,Да,,i_shawarma
Картофель фри,90,"198,67",Картофель x 20,"11,81",-,Фудтрак,"20,00","0,59","9,93","13,12",,,,
Бургер,90,"215,36",Тесто x 1 + Томат x 1 + Капуста x 1 + Говядина x 1,"10,88",-,Фудтрак,"2,00","5,44","107,68","12,09",Да,Да,,i_burger
Бургер,90,"207,31",Тесто x 1 + Томат x 1 + Капуста x 1 + Свинина x 1,"10,56",-,Фудтрак,"2,00","5,28","103,66","11,74",Да,,,i_burger
Бургер,90,"205,65",Тесто x 1 + Томат x 1 + Капуста x 1 + Курица x 1,"9,73",-,Фудтрак,"2,00","4,87","102,82","10,81",Да,,,i_burger
Бургер,90,"234,28",Тесто x 1 + Томат x 1 + Капуста x 1 + Баранина x 1,"13,08",-,Фудтрак,"2,00","6,54","117,14","14,54",,,,i_burger
Комбо обед,90,"255,66",Бургер x 1 + Картофель фри x 3 + Мятное мороженое x 1,"9,43",-,Фудтрак,"1,00","9,43","255,66","10,48",,,,
Печенье,14,"70,49",Тесто x 1,"2,99",,Кондитерская,"5,00","0,60","14,10","21,37",Да,да,сон,i_cookie
Мятеное печенье,18,"85,43",Тесто x 1 + Мята x 1,"4,60",,Кондитерская,"5,00","0,92","17,09","25,58",,,,
Мятное мороженое,45,"140,93",Молоко x 3 + Мята x 2,"11,10",,Кондитерская,"5,00","2,22","28,19","24,67",,,,
Ванильное мороженое,45,"221,45",Молоко x 3 + Ваниль x 2,"19,58",,Кондитерская,"5,00","3,92","44,29","43,52",,,,
Кексы,27,"97,05",Мука x 1 + Яйца x 1 + Голубика x 1,"6,03",-,Кондитерская,"3,00","2,01","32,35","22,33",Да,Да,али,i_muffin
Кексы,27,"96,11",Мука x 1 + Яйца x 1 + Земляника x 1,"5,88",-,Кондитерская,"3,00","1,96","32,04","21,78",Да,,,i_muffin
Кексы,27,"96,83",Мука x 1 + Яйца x 1 + Вишня x 1,"5,97",-,Кондитерская,"3,00","1,99","32,28","22,10",,,,i_muffin
Блины,45,"179,17",Мука x 3 + Масло x 1,"9,88",-,Кондитерская,"3,00","3,29","59,72","21,95",Да,Да,све,i_pancakaes
Пироги,90,"408,89",Тесто x 5 + Капуста x 3,"18,91",-,Кондитерская,"2,00","9,46","204,45","21,01",Да,Да,,i_cake2
Заварной крем,66,"186,70",Молоко x 2 + Яйца x 1 + Ваниль x 1 ,"13,67",-,Кондитерская,"1,00","13,67","186,70","20,71",Да,Да,све,i_custard
Эспрессо,4,"14,15",Кофе x 1,"1,05",-,Кафе,"1,00","1,05","14,15","26,31",,,,
Капучино,15,"47,17",Кофе x 1 + Молоко x 1,"3,68",-,Кафе,"1,00","3,68","47,17","24,52",,,,
Эспрессо с круассаном,21,"99,71",Эспрессо x 1 + Круасан x 1,"5,00",-,Кафе,"1,00","5,00","99,71","23,81",,,,
Латте,15,"51,17",Эспрессо x 1 + Молоко x 1,"3,68",-,Кафе,"1,00","3,68","51,17","24,52",,,,
Ягодный мусс,40,"128,26",,"9,60",-,Кафе,"1,00","9,60","128,26","24,00",,,,
Рыба,1500,"1 500,00",ОО x 180,"330,00",Еда в ресторане,Подводная ферма,"60,00","5,50","25,00","22,00",,,,
Креветки,1200,"1 200,00",ОО x 150,"270,00",Еда в ресторане,Подводная ферма,"100,00","2,70","12,00","22,50",,,,
Устрицы,3600,"3 600,00",ОО x 400,"760,00",-,Подводная ферма,"50,00","15,20","72,00","21,11",,,,
Омары,18000,"18 000,00",ОО x 2500,"4 300,00",Еда в ресторане,Подводная ферма,"20,00","215,00","900,00","23,89",,,,
Жареная курица,25,"59,34",Курица x 1,"6,08",-,Ресторан,"1,00","6,08","59,34","24,32",Да,Да,,i_fried_chicken
Стейк рибай,30,"74,04",Говядина x 1,"7,72",-,Ресторан,"1,00","7,72","74,04","25,73",Да,Да,,i_rib_eye_steak
Свиная вырезка,30,"66,00",Свинина x 1,"7,13",-,Ресторан,"1,00","7,13","66,00","23,78",Да,Да,све,i_pork_tenderloin
Мясо на камне,80,"194,38",Свинина x 1 + Говядина x 1 + Курица x 1 ,"18,49",-,Ресторан,"1,00","18,49","194,38","23,11",Да,Да,,i_meat_on_stone
Каре ягненка,30,"74,04",Баранина x 1,"7,72",-,Ресторан,"1,00","7,72","74,04","25,73",,,,
Рыба на гриле,30,"55,00",Рыба x 1,"7,33",-,Ресторан,"1,00","7,33","55,00","24,44",,,,
Суп с креветками,45,"81,00",Креветки x 3,"10,80",-,Ресторан,"1,00","10,80","81,00","24,00",,,,
Мясо на камне,120,"297,35",Свинина x 1 + Говядина x 1 + Курица x 1 + Баранина x 1,"31,65",-,Ресторан,"1,00","31,65","297,35","26,37",,,,
Салат с креветками,160,"391,90",Креветки x 1 + Капуста x 1 + Трюфели x 1,"38,62",-,Ресторан,"1,00","38,62","391,90","24,14",,,,
Блюдо из омаров,1200,"2 100,00",Омар x 1,"285,00",-,Ресторан,"1,00","285,00","2 100,00","23,75",,,,