%YAML 1.1
%TAG !u! tag:unity3d.com,2011:
--- !u!114 &11400000
MonoBehaviour:
  m_ObjectHideFlags: 0
  m_CorrespondingSourceObject: {fileID: 0}
  m_PrefabInstance: {fileID: 0}
  m_PrefabAsset: {fileID: 0}
  m_GameObject: {fileID: 0}
  m_Enabled: 1
  m_EditorHideFlags: 0
  m_Script: {fileID: 11500000, guid: 8c3398dd58dafd3469ac9453879d2b05, type: 3}
  m_Name: 1 Dialog
  m_EditorClassIdentifier: 
  phrases:
  - {fileID: 11400000, guid: e23ba1cb9efc53b428b3043d430256c0, type: 2}
  - {fileID: 11400000, guid: 764638c48d8155842b105112a25b1f56, type: 2}
  - {fileID: 11400000, guid: df6c2ed906ca21745a56e9a935fd1994, type: 2}
