%YAML 1.1
%TAG !u! tag:unity3d.com,2011:
--- !u!114 &11400000
MonoBehaviour:
  m_ObjectHideFlags: 0
  m_CorrespondingSourceObject: {fileID: 0}
  m_PrefabInstance: {fileID: 0}
  m_PrefabAsset: {fileID: 0}
  m_GameObject: {fileID: 0}
  m_Enabled: 1
  m_EditorHideFlags: 0
  m_Script: {fileID: 11500000, guid: 9b0f2e8ab0d06b1499f1971a5c875c81, type: 3}
  m_Name: 11.1 MiningPlastic
  m_EditorClassIdentifier: 
  needResources:
  - name: {fileID: 11400000, guid: 0398b5a17c5e40e46a33e7c7990274e4, type: 2}
    count: 1
  trashData: {fileID: 11400000, guid: 8de9a0899bcdc8f439d128121f72f1fe, type: 2}
