%YAML 1.1
%TAG !u! tag:unity3d.com,2011:
--- !u!114 &11400000
MonoBehaviour:
  m_ObjectHideFlags: 0
  m_CorrespondingSourceObject: {fileID: 0}
  m_PrefabInstance: {fileID: 0}
  m_PrefabAsset: {fileID: 0}
  m_GameObject: {fileID: 0}
  m_Enabled: 1
  m_EditorHideFlags: 0
  m_Script: {fileID: 11500000, guid: 32ed55511cdf3cd44bd1a6598065eead, type: 3}
  m_Name: 14.1 ClicedSorter
  m_EditorClassIdentifier: 
  structure: {fileID: 11400000, guid: 2381cabcd2f43ae4aae877d52080519c, type: 2}
