%YAML 1.1
%TAG !u! tag:unity3d.com,2011:
--- !u!114 &11400000
MonoBehaviour:
  m_ObjectHideFlags: 0
  m_CorrespondingSourceObject: {fileID: 0}
  m_PrefabInstance: {fileID: 0}
  m_PrefabAsset: {fileID: 0}
  m_GameObject: {fileID: 0}
  m_Enabled: 1
  m_EditorHideFlags: 0
  m_Script: {fileID: 11500000, guid: b1072be779dacff439fb8bf0982f52e3, type: 3}
  m_Name: 23.2 HelpSetStructure
  m_EditorClassIdentifier: 
  phrases: {fileID: 11400000, guid: 717d4b180151fd747a850ddc0318f5a7, type: 2}
