%YAML 1.1
%TAG !u! tag:unity3d.com,2011:
--- !u!114 &11400000
MonoBehaviour:
  m_ObjectHideFlags: 0
  m_CorrespondingSourceObject: {fileID: 0}
  m_PrefabInstance: {fileID: 0}
  m_PrefabAsset: {fileID: 0}
  m_GameObject: {fileID: 0}
  m_Enabled: 1
  m_EditorHideFlags: 0
  m_Script: {fileID: 11500000, guid: b1d9227376cdb0747890507fdc1c9456, type: 3}
  m_Name: 30 ComplexBuild
  m_EditorClassIdentifier: 
  steps:
  - step: {fileID: 11400000, guid: 088deb4bde86b4b48875bb494706ba9e, type: 2}
    checkCallBack: 1
  - step: {fileID: 11400000, guid: deb7b46811d3db844829c947f7d5f5e2, type: 2}
    checkCallBack: 0
