%YAML 1.1
%TAG !u! tag:unity3d.com,2011:
--- !u!114 &11400000
MonoBehaviour:
  m_ObjectHideFlags: 0
  m_CorrespondingSourceObject: {fileID: 0}
  m_PrefabInstance: {fileID: 0}
  m_PrefabAsset: {fileID: 0}
  m_GameObject: {fileID: 0}
  m_Enabled: 1
  m_EditorHideFlags: 0
  m_Script: {fileID: 11500000, guid: 8c3398dd58dafd3469ac9453879d2b05, type: 3}
  m_Name: 32 Dialog
  m_EditorClassIdentifier: 
  phrases:
  - {fileID: 11400000, guid: c28bc05c06c3dbf4d912f6238ec8f3cc, type: 2}
