%YAML 1.1
%TAG !u! tag:unity3d.com,2011:
--- !u!114 &11400000
MonoBehaviour:
  m_ObjectHideFlags: 0
  m_CorrespondingSourceObject: {fileID: 0}
  m_PrefabInstance: {fileID: 0}
  m_PrefabAsset: {fileID: 0}
  m_GameObject: {fileID: 0}
  m_Enabled: 1
  m_EditorHideFlags: 0
  m_Script: {fileID: 11500000, guid: 328fa38b1d9721a4992446ffc2ad8a49, type: 3}
  m_Name: 37 SetStructurePiloram
  m_EditorClassIdentifier: 
  structureData: {fileID: 11400000, guid: 5792b35369e354d44aba887218cde0c8, type: 2}
  timerEnd: 1
