%YAML 1.1
%TAG !u! tag:unity3d.com,2011:
--- !u!114 &11400000
MonoBehaviour:
  m_ObjectHideFlags: 0
  m_CorrespondingSourceObject: {fileID: 0}
  m_PrefabInstance: {fileID: 0}
  m_PrefabAsset: {fileID: 0}
  m_GameObject: {fileID: 0}
  m_Enabled: 1
  m_EditorHideFlags: 0
  m_Script: {fileID: 11500000, guid: 7fba05a94fa750d4cb46e45d5ed21126, type: 3}
  m_Name: 39.2 HandPiloram
  m_EditorClassIdentifier: 
  prefabHand: {fileID: 5731439346064140754, guid: 7c34a9b7ca16c96499317ce4811bd2b0,
    type: 3}
  structureData: {fileID: 11400000, guid: 5792b35369e354d44aba887218cde0c8, type: 2}
