%YAML 1.1
%TAG !u! tag:unity3d.com,2011:
--- !u!114 &11400000
MonoBehaviour:
  m_ObjectHideFlags: 0
  m_CorrespondingSourceObject: {fileID: 0}
  m_PrefabInstance: {fileID: 0}
  m_PrefabAsset: {fileID: 0}
  m_GameObject: {fileID: 0}
  m_Enabled: 1
  m_EditorHideFlags: 0
  m_Script: {fileID: 11500000, guid: be841a655abe895478685ba3b3adeaf1, type: 3}
  m_Name: 4 CloseQuest
  m_EditorClassIdentifier: 
  correction: {x: -60, y: -60, z: 0}
  updatePosition: 0
  target: 5
