%YAML 1.1
%TAG !u! tag:unity3d.com,2011:
--- !u!114 &11400000
MonoBehaviour:
  m_ObjectHideFlags: 0
  m_CorrespondingSourceObject: {fileID: 0}
  m_PrefabInstance: {fileID: 0}
  m_PrefabAsset: {fileID: 0}
  m_GameObject: {fileID: 0}
  m_Enabled: 1
  m_EditorHideFlags: 0
  m_Script: {fileID: 11500000, guid: 8c3398dd58dafd3469ac9453879d2b05, type: 3}
  m_Name: 40 Dialog
  m_EditorClassIdentifier: 
  phrases:
  - {fileID: 11400000, guid: 65310502dc2a99d44aecb34fe376fe11, type: 2}
  - {fileID: 11400000, guid: 6f09819c4348a7d4f95892e8540e124a, type: 2}
  - {fileID: 11400000, guid: 94e54e4d47bf8954eb49ec2b503a3102, type: 2}
