%YAML 1.1
%TAG !u! tag:unity3d.com,2011:
--- !u!114 &11400000
MonoBehaviour:
  m_ObjectHideFlags: 0
  m_CorrespondingSourceObject: {fileID: 0}
  m_PrefabInstance: {fileID: 0}
  m_PrefabAsset: {fileID: 0}
  m_GameObject: {fileID: 0}
  m_Enabled: 1
  m_EditorHideFlags: 0
  m_Script: {fileID: 11500000, guid: 2a9fcfa5c5c06854cb28717e582f6504, type: 3}
  m_Name: 42_5.1 TakeCraf
  m_EditorClassIdentifier: 
  recipeSO: {fileID: 11400000, guid: d0bf95d4035539c4eb14e74a80f6206b, type: 2}
