%YAML 1.1
%TAG !u! tag:unity3d.com,2011:
--- !u!114 &11400000
MonoBehaviour:
  m_ObjectHideFlags: 0
  m_CorrespondingSourceObject: {fileID: 0}
  m_PrefabInstance: {fileID: 0}
  m_PrefabAsset: {fileID: 0}
  m_GameObject: {fileID: 0}
  m_Enabled: 1
  m_EditorHideFlags: 0
  m_Script: {fileID: 11500000, guid: 8c3398dd58dafd3469ac9453879d2b05, type: 3}
  m_Name: 43 Dialog
  m_EditorClassIdentifier: 
  phrases:
  - {fileID: 11400000, guid: 9e8e7e19ba44bab4cbef1e1e0457da66, type: 2}
  - {fileID: 11400000, guid: 4b12c4d389728f84f88c7f88d4a658f8, type: 2}
  - {fileID: 11400000, guid: e95a27133bc76e645b766fbcfa2cea3d, type: 2}
