%YAML 1.1
%TAG !u! tag:unity3d.com,2011:
--- !u!114 &11400000
MonoBehaviour:
  m_ObjectHideFlags: 0
  m_CorrespondingSourceObject: {fileID: 0}
  m_PrefabInstance: {fileID: 0}
  m_PrefabAsset: {fileID: 0}
  m_GameObject: {fileID: 0}
  m_Enabled: 1
  m_EditorHideFlags: 0
  m_Script: {fileID: 11500000, guid: 109fb75e44dd32b4699a04e90b1ad58b, type: 3}
  m_Name: 46.2 ButtonSupply
  m_EditorClassIdentifier: 
  namePanel: {fileID: 11400000, guid: c4398ab99cf2ab1469f88eaaab7d8d33, type: 2}
