%YAML 1.1
%TAG !u! tag:unity3d.com,2011:
--- !u!114 &11400000
MonoBehaviour:
  m_ObjectHideFlags: 0
  m_CorrespondingSourceObject: {fileID: 0}
  m_PrefabInstance: {fileID: 0}
  m_PrefabAsset: {fileID: 0}
  m_GameObject: {fileID: 0}
  m_Enabled: 1
  m_EditorHideFlags: 0
  m_Script: {fileID: 11500000, guid: 2c5307a12e20a554a8061655aa9cee5c, type: 3}
  m_Name: 9.2 HandMetall
  m_EditorClassIdentifier: 
  prefabHand: {fileID: 5731439346064140754, guid: 7c34a9b7ca16c96499317ce4811bd2b0,
    type: 3}
  trashData: {fileID: 11400000, guid: 43a975c2532b7514b9bcb2111fd46c6f, type: 2}
