%YAML 1.1
%TAG !u! tag:unity3d.com,2011:
--- !u!74 &7400000
AnimationClip:
  m_ObjectHideFlags: 0
  m_CorrespondingSourceObject: {fileID: 0}
  m_PrefabInstance: {fileID: 0}
  m_PrefabAsset: {fileID: 0}
  m_Name: Tree_0002
  serializedVersion: 6
  m_Legacy: 0
  m_Compressed: 0
  m_UseHighQualityCurve: 1
  m_RotationCurves: []
  m_CompressedRotationCurves: []
  m_EulerCurves: []
  m_PositionCurves: []
  m_ScaleCurves: []
  m_FloatCurves: []
  m_PPtrCurves:
  - curve:
    - time: 0
      value: {fileID: 21300000, guid: be3c00029e4ccea408551d67a3d5c66d, type: 3}
    - time: 0.083333336
      value: {fileID: 21300000, guid: 87e477f38ef22924f90aa27fda755a44, type: 3}
    - time: 0.16666667
      value: {fileID: 21300000, guid: 1519133a0140bc34da07b867aee26697, type: 3}
    - time: 0.25
      value: {fileID: 21300000, guid: 6b915d148aab00b4c980f486f49c5ced, type: 3}
    - time: 0.33333334
      value: {fileID: 21300000, guid: 033a5e4d7d73347458d3d3f957f9df5b, type: 3}
    - time: 0.41666666
      value: {fileID: 21300000, guid: af4abda1c42fadf43b31751c5d890729, type: 3}
    - time: 0.5
      value: {fileID: 21300000, guid: 85682f8582a243f4684f5087f2f30b13, type: 3}
    - time: 0.5833333
      value: {fileID: 21300000, guid: 754c477561d1cb440b0ac2b04db230d4, type: 3}
    - time: 0.6666667
      value: {fileID: 21300000, guid: d95f2fb1fe521754fbc415e60c5a5e6a, type: 3}
    - time: 0.75
      value: {fileID: 21300000, guid: 6542705b7a8c22c419c5f45f0172a5b9, type: 3}
    - time: 0.8333333
      value: {fileID: 21300000, guid: 9b6c1d1d63352614faa94dad34bd20f2, type: 3}
    - time: 0.9166667
      value: {fileID: 21300000, guid: ea3434e56e876ef4eaf8505298066923, type: 3}
    attribute: m_Sprite
    path: 
    classID: 212
    script: {fileID: 0}
  m_SampleRate: 12
  m_WrapMode: 0
  m_Bounds:
    m_Center: {x: 0, y: 0, z: 0}
    m_Extent: {x: 0, y: 0, z: 0}
  m_ClipBindingConstant:
    genericBindings:
    - serializedVersion: 2
      path: 0
      attribute: 0
      script: {fileID: 0}
      typeID: 212
      customType: 23
      isPPtrCurve: 1
    pptrCurveMapping:
    - {fileID: 21300000, guid: be3c00029e4ccea408551d67a3d5c66d, type: 3}
    - {fileID: 21300000, guid: 87e477f38ef22924f90aa27fda755a44, type: 3}
    - {fileID: 21300000, guid: 1519133a0140bc34da07b867aee26697, type: 3}
    - {fileID: 21300000, guid: 6b915d148aab00b4c980f486f49c5ced, type: 3}
    - {fileID: 21300000, guid: 033a5e4d7d73347458d3d3f957f9df5b, type: 3}
    - {fileID: 21300000, guid: af4abda1c42fadf43b31751c5d890729, type: 3}
    - {fileID: 21300000, guid: 85682f8582a243f4684f5087f2f30b13, type: 3}
    - {fileID: 21300000, guid: 754c477561d1cb440b0ac2b04db230d4, type: 3}
    - {fileID: 21300000, guid: d95f2fb1fe521754fbc415e60c5a5e6a, type: 3}
    - {fileID: 21300000, guid: 6542705b7a8c22c419c5f45f0172a5b9, type: 3}
    - {fileID: 21300000, guid: 9b6c1d1d63352614faa94dad34bd20f2, type: 3}
    - {fileID: 21300000, guid: ea3434e56e876ef4eaf8505298066923, type: 3}
  m_AnimationClipSettings:
    serializedVersion: 2
    m_AdditiveReferencePoseClip: {fileID: 0}
    m_AdditiveReferencePoseTime: 0
    m_StartTime: 0
    m_StopTime: 1
    m_OrientationOffsetY: 0
    m_Level: 0
    m_CycleOffset: 0
    m_HasAdditiveReferencePose: 0
    m_LoopTime: 1
    m_LoopBlend: 0
    m_LoopBlendOrientation: 0
    m_LoopBlendPositionY: 0
    m_LoopBlendPositionXZ: 0
    m_KeepOriginalOrientation: 0
    m_KeepOriginalPositionY: 1
    m_KeepOriginalPositionXZ: 0
    m_HeightFromFeet: 0
    m_Mirror: 0
  m_EditorCurves: []
  m_EulerEditorCurves: []
  m_HasGenericRootTransform: 0
  m_HasMotionFloatCurves: 0
  m_Events: []
