%YAML 1.1
%TAG !u! tag:unity3d.com,2011:
--- !u!114 &11400000
MonoBehaviour:
  m_ObjectHideFlags: 0
  m_CorrespondingSourceObject: {fileID: 0}
  m_PrefabInstance: {fileID: 0}
  m_PrefabAsset: {fileID: 0}
  m_GameObject: {fileID: 0}
  m_Enabled: 1
  m_EditorHideFlags: 0
  m_Script: {fileID: 11500000, guid: 2971ebaf7b1c4d55b3a5807c225e0490, type: 3}
  m_Name: CookingStage4
  m_EditorClassIdentifier: 
  StageID: 4
  StageDescription: {fileID: 11400000, guid: 88b59c08b8ab0c24aba3a279e7bade23, type: 2}
  StageBonus: {fileID: 11400000, guid: bcc4096b4d863374092dc327f90d500b, type: 2}
  QuestToLvlUp: {fileID: 0}
