%YAML 1.1
%TAG !u! tag:unity3d.com,2011:
--- !u!114 &11400000
MonoBehaviour:
  m_ObjectHideFlags: 0
  m_CorrespondingSourceObject: {fileID: 0}
  m_PrefabInstance: {fileID: 0}
  m_PrefabAsset: {fileID: 0}
  m_GameObject: {fileID: 0}
  m_Enabled: 1
  m_EditorHideFlags: 0
  m_Script: {fileID: 11500000, guid: 2971ebaf7b1c4d55b3a5807c225e0490, type: 3}
  m_Name: GlasscraftStage5
  m_EditorClassIdentifier: 
  StageID: 5
  StageDescription: {fileID: 11400000, guid: 3aca3c6a5753b0741a645617b60247f8, type: 2}
  StageBonus: {fileID: 11400000, guid: 4ec84b42bac20ef47b04b3638d8445a3, type: 2}
  QuestToLvlUp: {fileID: 0}
