%YAML 1.1
%TAG !u! tag:unity3d.com,2011:
--- !u!114 &11400000
MonoBehaviour:
  m_ObjectHideFlags: 0
  m_CorrespondingSourceObject: {fileID: 0}
  m_PrefabInstance: {fileID: 0}
  m_PrefabAsset: {fileID: 0}
  m_GameObject: {fileID: 0}
  m_Enabled: 1
  m_EditorHideFlags: 0
  m_Script: {fileID: 11500000, guid: 2971ebaf7b1c4d55b3a5807c225e0490, type: 3}
  m_Name: GlasscraftStage2
  m_EditorClassIdentifier: 
  StageID: 2
  StageDescription: {fileID: 11400000, guid: 9151773ffc449a64cb468ac638dcc477, type: 2}
  StageBonus: {fileID: 11400000, guid: 5e59737de1cb5be40b73cf588793e588, type: 2}
  QuestToLvlUp: {fileID: 0}
