%YAML 1.1
%TAG !u! tag:unity3d.com,2011:
--- !u!114 &11400000
MonoBehaviour:
  m_ObjectHideFlags: 0
  m_CorrespondingSourceObject: {fileID: 0}
  m_PrefabInstance: {fileID: 0}
  m_PrefabAsset: {fileID: 0}
  m_GameObject: {fileID: 0}
  m_Enabled: 1
  m_EditorHideFlags: 0
  m_Script: {fileID: 11500000, guid: 4f3376f530164829a3843636f6924ab6, type: 3}
  m_Name: RecipeUnblockBonusStage1
  m_EditorClassIdentifier: 
  RecipeToUnblock: {fileID: 11400000, guid: 539fb9ab6e9f5eb42b73fe82813845de, type: 2}
