%YAML 1.1
%TAG !u! tag:unity3d.com,2011:
--- !u!114 &11400000
MonoBehaviour:
  m_ObjectHideFlags: 0
  m_CorrespondingSourceObject: {fileID: 0}
  m_PrefabInstance: {fileID: 0}
  m_PrefabAsset: {fileID: 0}
  m_GameObject: {fileID: 0}
  m_Enabled: 1
  m_EditorHideFlags: 0
  m_Script: {fileID: 11500000, guid: cd8c578fd5426984fa367ec08c62c9b7, type: 3}
  m_Name: Block10_2
  m_EditorClassIdentifier: 
  id: 116
  text:
  - "\u041C\u043E\u0436\u0435\u0442 \u044D\u0442\u043E \u043C\u043E\u0436\u043D\u043E
    \u0438\u0441\u043F\u0440\u0430\u0432\u0438\u0442\u044C?"
  - Can we fix it?
