%YAML 1.1
%TAG !u! tag:unity3d.com,2011:
--- !u!114 &6518368213212571176
MonoBehaviour:
  m_ObjectHideFlags: 0
  m_CorrespondingSourceObject: {fileID: 0}
  m_PrefabInstance: {fileID: 0}
  m_PrefabAsset: {fileID: 0}
  m_GameObject: {fileID: 1176121444276704055}
  m_Enabled: 1
  m_EditorHideFlags: 0
  m_Script: {fileID: 11500000, guid: 3245ec927659c4140ac4f8d17403cc18, type: 3}
  m_Name: 
  m_EditorClassIdentifier: 
  m_HorizontalFit: 0
  m_VerticalFit: 1
--- !u!114 &3809586392696631394
MonoBehaviour:
  m_ObjectHideFlags: 0
  m_CorrespondingSourceObject: {fileID: 0}
  m_PrefabInstance: {fileID: 0}
  m_PrefabAsset: {fileID: 0}
  m_GameObject: {fileID: 1176121444276704055}
  m_Enabled: 1
  m_EditorHideFlags: 0
  m_Script: {fileID: 11500000, guid: 8a8695521f0d02e499659fee002a26c2, type: 3}
  m_Name: 
  m_EditorClassIdentifier: 
  m_Padding:
    m_Left: 0
    m_Right: 0
    m_Top: 55
    m_Bottom: 35
  m_ChildAlignment: 0
  m_StartCorner: 0
  m_StartAxis: 0
  m_CellSize: {x: 430, y: 335}
  m_Spacing: {x: 30, y: 50}
  m_Constraint: 0
  m_ConstraintCount: 2
--- !u!1001 &6377006753104495887
PrefabInstance:
  m_ObjectHideFlags: 0
  serializedVersion: 2
  m_Modification:
    m_TransformParent: {fileID: 0}
    m_Modifications:
    - target: {fileID: 5201026322602386297, guid: 10c5050f3ffc1894fb1a22a7f3467047,
        type: 3}
      propertyPath: m_Sprite
      value: 
      objectReference: {fileID: 21300000, guid: f1c6c0fcc884a084bb79d32ef47c39a7,
        type: 3}
    - target: {fileID: 5201026322602386297, guid: 10c5050f3ffc1894fb1a22a7f3467047,
        type: 3}
      propertyPath: m_PixelsPerUnitMultiplier
      value: 2
      objectReference: {fileID: 0}
    - target: {fileID: 5201026322692261609, guid: 10c5050f3ffc1894fb1a22a7f3467047,
        type: 3}
      propertyPath: m_Pivot.x
      value: 0.5
      objectReference: {fileID: 0}
    - target: {fileID: 5201026322692261609, guid: 10c5050f3ffc1894fb1a22a7f3467047,
        type: 3}
      propertyPath: m_Pivot.y
      value: 0.5
      objectReference: {fileID: 0}
    - target: {fileID: 5201026322692261609, guid: 10c5050f3ffc1894fb1a22a7f3467047,
        type: 3}
      propertyPath: m_RootOrder
      value: 0
      objectReference: {fileID: 0}
    - target: {fileID: 5201026322692261609, guid: 10c5050f3ffc1894fb1a22a7f3467047,
        type: 3}
      propertyPath: m_AnchorMax.x
      value: 1
      objectReference: {fileID: 0}
    - target: {fileID: 5201026322692261609, guid: 10c5050f3ffc1894fb1a22a7f3467047,
        type: 3}
      propertyPath: m_AnchorMax.y
      value: 1
      objectReference: {fileID: 0}
    - target: {fileID: 5201026322692261609, guid: 10c5050f3ffc1894fb1a22a7f3467047,
        type: 3}
      propertyPath: m_AnchorMin.x
      value: 0
      objectReference: {fileID: 0}
    - target: {fileID: 5201026322692261609, guid: 10c5050f3ffc1894fb1a22a7f3467047,
        type: 3}
      propertyPath: m_AnchorMin.y
      value: 0
      objectReference: {fileID: 0}
    - target: {fileID: 5201026322692261609, guid: 10c5050f3ffc1894fb1a22a7f3467047,
        type: 3}
      propertyPath: m_SizeDelta.x
      value: -90
      objectReference: {fileID: 0}
    - target: {fileID: 5201026322692261609, guid: 10c5050f3ffc1894fb1a22a7f3467047,
        type: 3}
      propertyPath: m_SizeDelta.y
      value: -30
      objectReference: {fileID: 0}
    - target: {fileID: 5201026322692261609, guid: 10c5050f3ffc1894fb1a22a7f3467047,
        type: 3}
      propertyPath: m_LocalPosition.x
      value: 0
      objectReference: {fileID: 0}
    - target: {fileID: 5201026322692261609, guid: 10c5050f3ffc1894fb1a22a7f3467047,
        type: 3}
      propertyPath: m_LocalPosition.y
      value: 0
      objectReference: {fileID: 0}
    - target: {fileID: 5201026322692261609, guid: 10c5050f3ffc1894fb1a22a7f3467047,
        type: 3}
      propertyPath: m_LocalPosition.z
      value: 0
      objectReference: {fileID: 0}
    - target: {fileID: 5201026322692261609, guid: 10c5050f3ffc1894fb1a22a7f3467047,
        type: 3}
      propertyPath: m_LocalRotation.w
      value: 1
      objectReference: {fileID: 0}
    - target: {fileID: 5201026322692261609, guid: 10c5050f3ffc1894fb1a22a7f3467047,
        type: 3}
      propertyPath: m_LocalRotation.x
      value: 0
      objectReference: {fileID: 0}
    - target: {fileID: 5201026322692261609, guid: 10c5050f3ffc1894fb1a22a7f3467047,
        type: 3}
      propertyPath: m_LocalRotation.y
      value: 0
      objectReference: {fileID: 0}
    - target: {fileID: 5201026322692261609, guid: 10c5050f3ffc1894fb1a22a7f3467047,
        type: 3}
      propertyPath: m_LocalRotation.z
      value: 0
      objectReference: {fileID: 0}
    - target: {fileID: 5201026322692261609, guid: 10c5050f3ffc1894fb1a22a7f3467047,
        type: 3}
      propertyPath: m_AnchoredPosition.x
      value: 0
      objectReference: {fileID: 0}
    - target: {fileID: 5201026322692261609, guid: 10c5050f3ffc1894fb1a22a7f3467047,
        type: 3}
      propertyPath: m_AnchoredPosition.y
      value: 0
      objectReference: {fileID: 0}
    - target: {fileID: 5201026322692261609, guid: 10c5050f3ffc1894fb1a22a7f3467047,
        type: 3}
      propertyPath: m_LocalEulerAnglesHint.x
      value: 0
      objectReference: {fileID: 0}
    - target: {fileID: 5201026322692261609, guid: 10c5050f3ffc1894fb1a22a7f3467047,
        type: 3}
      propertyPath: m_LocalEulerAnglesHint.y
      value: 0
      objectReference: {fileID: 0}
    - target: {fileID: 5201026322692261609, guid: 10c5050f3ffc1894fb1a22a7f3467047,
        type: 3}
      propertyPath: m_LocalEulerAnglesHint.z
      value: 0
      objectReference: {fileID: 0}
    - target: {fileID: 5201026322692261614, guid: 10c5050f3ffc1894fb1a22a7f3467047,
        type: 3}
      propertyPath: m_Name
      value: ScrollViewStructures
      objectReference: {fileID: 0}
    - target: {fileID: 5201026322865019102, guid: 10c5050f3ffc1894fb1a22a7f3467047,
        type: 3}
      propertyPath: m_AnchorMax.x
      value: 0
      objectReference: {fileID: 0}
    - target: {fileID: 5201026322865019102, guid: 10c5050f3ffc1894fb1a22a7f3467047,
        type: 3}
      propertyPath: m_AnchorMax.y
      value: 0
      objectReference: {fileID: 0}
    - target: {fileID: 5201026322865019102, guid: 10c5050f3ffc1894fb1a22a7f3467047,
        type: 3}
      propertyPath: m_SizeDelta.x
      value: 0
      objectReference: {fileID: 0}
    m_RemovedComponents: []
  m_SourcePrefab: {fileID: 100100000, guid: 10c5050f3ffc1894fb1a22a7f3467047, type: 3}
--- !u!1 &1176121444276704055 stripped
GameObject:
  m_CorrespondingSourceObject: {fileID: 5201026321288435256, guid: 10c5050f3ffc1894fb1a22a7f3467047,
    type: 3}
  m_PrefabInstance: {fileID: 6377006753104495887}
  m_PrefabAsset: {fileID: 0}
