%YAML 1.1
%TAG !u! tag:unity3d.com,2011:
--- !u!114 &11400000
MonoBehaviour:
  m_ObjectHideFlags: 0
  m_CorrespondingSourceObject: {fileID: 0}
  m_PrefabInstance: {fileID: 0}
  m_PrefabAsset: {fileID: 0}
  m_GameObject: {fileID: 0}
  m_Enabled: 1
  m_EditorHideFlags: 0
  m_Script: {fileID: 11500000, guid: cd8c578fd5426984fa367ec08c62c9b7, type: 3}
  m_Name: String 30
  m_EditorClassIdentifier: 
  id: 5050
  text:
  - "\u041D\u0430\u043C \u043D\u0443\u0436\u043D\u0430 \u0432\u043E\u0434\u0430 \u0434\u043B\u044F
    \u0434\u0430\u043B\u044C\u043D\u0435\u0439\u0448\u0435\u0439 \u0440\u0430\u0431\u043E\u0442\u044B.
    \u0414\u0430\u0432\u0430\u0439 \u043F\u043E\u0441\u043C\u043E\u0442\u0440\u0438\u043C,
    \u0447\u0442\u043E \u043D\u0435\u043E\u0431\u0445\u043E\u0434\u0438\u043C\u043E
    \u0434\u043B\u044F \u0441\u043E\u0437\u0434\u0430\u043D\u0438\u044F \u043A\u043E\u043B\u043E\u0434\u0446\u0430."
  - we'll need water for the work. Let's check for the nessesary materials.
