%YAML 1.1
%TAG !u! tag:unity3d.com,2011:
--- !u!114 &11400000
MonoBehaviour:
  m_ObjectHideFlags: 0
  m_CorrespondingSourceObject: {fileID: 0}
  m_PrefabInstance: {fileID: 0}
  m_PrefabAsset: {fileID: 0}
  m_GameObject: {fileID: 0}
  m_Enabled: 1
  m_EditorHideFlags: 0
  m_Script: {fileID: 11500000, guid: 908357e417bc1674285383405a1f3287, type: 3}
  m_Name: "\u041C\u044F\u0441\u043E \u043D\u0430 \u043A\u0430\u043C\u043D\u0435X5"
  m_EditorClassIdentifier: 
  _resource:
    name: {fileID: 11400000, guid: 8c0c4e5e94988124c9fc2dc7b7342a4d, type: 2}
    count: 5
