%YAML 1.1
%TAG !u! tag:unity3d.com,2011:
--- !u!114 &11400000
MonoBehaviour:
  m_ObjectHideFlags: 0
  m_CorrespondingSourceObject: {fileID: 0}
  m_PrefabInstance: {fileID: 0}
  m_PrefabAsset: {fileID: 0}
  m_GameObject: {fileID: 0}
  m_Enabled: 1
  m_EditorHideFlags: 0
  m_Script: {fileID: 11500000, guid: cd8c578fd5426984fa367ec08c62c9b7, type: 3}
  m_Name: Stage3
  m_EditorClassIdentifier: 
  id: 57
  text:
  - "\u041F\u043E\u0441\u043B\u0435 \u0441\u043E\u0437\u0434\u0430\u043D\u0438\u044F
    \u043A\u043E\u043C\u043F\u043E\u0441\u0442\u0430 \u043F\u043E\u043B\u0443\u0447\u0430\u0435\u0442\u0441\u044F
    \u043D\u0430 5 \u0435\u0434\u0438\u043D\u0438\u0446 \u0431\u043E\u043B\u044C\u0448\u0435"
  - Compost production effectiveness increased by 5 items
