%YAML 1.1
%TAG !u! tag:unity3d.com,2011:
--- !u!114 &11400000
MonoBehaviour:
  m_ObjectHideFlags: 0
  m_CorrespondingSourceObject: {fileID: 0}
  m_PrefabInstance: {fileID: 0}
  m_PrefabAsset: {fileID: 0}
  m_GameObject: {fileID: 0}
  m_Enabled: 1
  m_EditorHideFlags: 0
  m_Script: {fileID: 11500000, guid: 376a2939c0f35434c9034601852d677b, type: 3}
  m_Name: "\u041F\u0435\u043A\u0430\u0440\u043D\u044F-\u043C\u0435\u043B\u044C\u043D\u0438\u0446\u0430"
  m_EditorClassIdentifier: 
  Name: {fileID: 11400000, guid: 8e297935ce7615b4d9a4909b0894bacb, type: 2}
  sprite: {fileID: 21300000, guid: 8ffdc03867809b64784628aecea2c972, type: 3}
  timeBuild: 1200
  needResours:
  - name: {fileID: 11400000, guid: 6f5dc31251e6cbc4da05f6a80822a4f5, type: 2}
    count: 10
  - name: {fileID: 11400000, guid: 5d74a03833ac3694d89650040f3debd6, type: 2}
    count: 5
  - name: {fileID: 11400000, guid: 547b202c88fc2294a9eec03376cb927d, type: 2}
    count: 15
  - name: {fileID: 11400000, guid: 30956387bfb85594db69e981ed4aa45f, type: 2}
    count: 25
  returnOnDestruction:
  - name: {fileID: 11400000, guid: 6f5dc31251e6cbc4da05f6a80822a4f5, type: 2}
    count: 4
  - name: {fileID: 11400000, guid: 1fba585e977dc6f4292c499111830a6d, type: 2}
    count: 10
  - name: {fileID: 11400000, guid: 30956387bfb85594db69e981ed4aa45f, type: 2}
    count: 10
  requirementsPasRes:
  - name: {fileID: 11400000, guid: 2fa89ea0c20ba2d46b8ed3321d81ee20, type: 2}
    count: 3
  productionPasRes:
  - name: {fileID: 11400000, guid: d16857abbe42c0b4f943acf7d626c072, type: 2}
    count: -1
  - name: {fileID: 11400000, guid: 548c9112b65d8284fadbe4b890662970, type: 2}
    count: 3
  prefab: {fileID: 8985870668001089408, guid: 25ffd1c3054fc2c4ba9015f26b27f0f1, type: 3}
  buildingMoreOne: 0
