%YAML 1.1
%TAG !u! tag:unity3d.com,2011:
--- !u!114 &11400000
MonoBehaviour:
  m_ObjectHideFlags: 0
  m_CorrespondingSourceObject: {fileID: 0}
  m_PrefabInstance: {fileID: 0}
  m_PrefabAsset: {fileID: 0}
  m_GameObject: {fileID: 0}
  m_Enabled: 1
  m_EditorHideFlags: 0
  m_Script: {fileID: 11500000, guid: 376a2939c0f35434c9034601852d677b, type: 3}
  m_Name: "\u041F\u043E\u0441\u0430\u0434\u043E\u0447\u043D\u0430\u044F \u043F\u043B\u043E\u0449\u0430\u0434\u043A\u0430"
  m_EditorClassIdentifier: 
  Name: {fileID: 11400000, guid: 095e38c8417be624d94c5a32cdb530e9, type: 2}
  sprite: {fileID: 21300000, guid: edb26bb9426244748b852bee72eced76, type: 3}
  timeBuild: 600
  needResours:
  - name: {fileID: 11400000, guid: 30956387bfb85594db69e981ed4aa45f, type: 2}
    count: 100
  - name: {fileID: 11400000, guid: 5d74a03833ac3694d89650040f3debd6, type: 2}
    count: 3
  - name: {fileID: 11400000, guid: 07b1f2f999b7e564f846a35de4a0e0da, type: 2}
    count: 5
  returnOnDestruction:
  - name: {fileID: 11400000, guid: 30956387bfb85594db69e981ed4aa45f, type: 2}
    count: 25
  - name: {fileID: 11400000, guid: 5d74a03833ac3694d89650040f3debd6, type: 2}
    count: 1
  requirementsPasRes:
  - name: {fileID: 11400000, guid: 052ca318eb086a14dad05eb6004dd476, type: 2}
    count: 3
  productionPasRes: []
  prefab: {fileID: 6611588190917786274, guid: cc6c5df783e34244080f38f93646a4f0, type: 3}
  buildingMoreOne: 0
