%YAML 1.1
%TAG !u! tag:unity3d.com,2011:
--- !u!114 &11400000
MonoBehaviour:
  m_ObjectHideFlags: 0
  m_CorrespondingSourceObject: {fileID: 0}
  m_PrefabInstance: {fileID: 0}
  m_PrefabAsset: {fileID: 0}
  m_GameObject: {fileID: 0}
  m_Enabled: 1
  m_EditorHideFlags: 0
  m_Script: {fileID: 11500000, guid: 376a2939c0f35434c9034601852d677b, type: 3}
  m_Name: "\u0420\u0435\u0441\u0442\u043E\u0440\u0430\u043D"
  m_EditorClassIdentifier: 
  Name: {fileID: 11400000, guid: afd1aa51f30774247a423a7c396e01a6, type: 2}
  sprite: {fileID: 21300000, guid: ba7a20f9d90d8294489550c64c871f2b, type: 3}
  timeBuild: 604800
  needResours:
  - name: {fileID: 11400000, guid: 6f5dc31251e6cbc4da05f6a80822a4f5, type: 2}
    count: 250
  - name: {fileID: 11400000, guid: 2dc0ef5b1b45d454fa76a04b2b95235b, type: 2}
    count: 120
  - name: {fileID: 11400000, guid: f2a68d9d3fae9ca40b87963ef81f797a, type: 2}
    count: 100
  - name: {fileID: 11400000, guid: 5d74a03833ac3694d89650040f3debd6, type: 2}
    count: 620
  returnOnDestruction:
  - name: {fileID: 11400000, guid: 6f5dc31251e6cbc4da05f6a80822a4f5, type: 2}
    count: 50
  - name: {fileID: 11400000, guid: f2a68d9d3fae9ca40b87963ef81f797a, type: 2}
    count: 20
  - name: {fileID: 11400000, guid: 5d74a03833ac3694d89650040f3debd6, type: 2}
    count: 40
  requirementsPasRes:
  - name: {fileID: 11400000, guid: 052ca318eb086a14dad05eb6004dd476, type: 2}
    count: 5
  - name: {fileID: 11400000, guid: 2fa89ea0c20ba2d46b8ed3321d81ee20, type: 2}
    count: 3
  productionPasRes:
  - name: {fileID: 11400000, guid: 548c9112b65d8284fadbe4b890662970, type: 2}
    count: 3
  prefab: {fileID: 306239805265096123, guid: 90950e6460fb21141be5c61c85425e34, type: 3}
  buildingMoreOne: 0
