%YAML 1.1
%TAG !u! tag:unity3d.com,2011:
--- !u!114 &11400000
MonoBehaviour:
  m_ObjectHideFlags: 0
  m_CorrespondingSourceObject: {fileID: 0}
  m_PrefabInstance: {fileID: 0}
  m_PrefabAsset: {fileID: 0}
  m_GameObject: {fileID: 0}
  m_Enabled: 1
  m_EditorHideFlags: 0
  m_Script: {fileID: 11500000, guid: 376a2939c0f35434c9034601852d677b, type: 3}
  m_Name: "\u0422\u0443\u0430\u043B\u0435\u0442"
  m_EditorClassIdentifier: 
  Name: {fileID: 11400000, guid: 8401dabac55c8f34e944463856673003, type: 2}
  sprite: {fileID: 21300000, guid: 46144e95e3c8ab8419a3f258f9e7ae4e, type: 3}
  timeBuild: 4500
  needResours:
  - name: {fileID: 11400000, guid: 07b1f2f999b7e564f846a35de4a0e0da, type: 2}
    count: 25
  - name: {fileID: 11400000, guid: 877a6c69e41b2244cb784e421dd55c70, type: 2}
    count: 2
  - name: {fileID: 11400000, guid: 0235610cc723d77449e12d84a831ea2f, type: 2}
    count: 2
  - name: {fileID: 11400000, guid: 8b8f0ca4bf1b37b4ab5d16a3ea779560, type: 2}
    count: 1
  returnOnDestruction:
  - name: {fileID: 11400000, guid: 0398b5a17c5e40e46a33e7c7990274e4, type: 2}
    count: 25
  requirementsPasRes:
  - name: {fileID: 11400000, guid: 2fa89ea0c20ba2d46b8ed3321d81ee20, type: 2}
    count: 2
  productionPasRes:
  - name: {fileID: 11400000, guid: d16857abbe42c0b4f943acf7d626c072, type: 2}
    count: 5
  prefab: {fileID: 8350503226230957911, guid: 532dcd1fe1db5264fb78c2de03dddccf, type: 3}
  buildingMoreOne: 1
