%YAML 1.1
%TAG !u! tag:unity3d.com,2011:
--- !u!114 &11400000
MonoBehaviour:
  m_ObjectHideFlags: 0
  m_CorrespondingSourceObject: {fileID: 0}
  m_PrefabInstance: {fileID: 0}
  m_PrefabAsset: {fileID: 0}
  m_GameObject: {fileID: 0}
  m_Enabled: 1
  m_EditorHideFlags: 0
  m_Script: {fileID: 11500000, guid: 376a2939c0f35434c9034601852d677b, type: 3}
  m_Name: "\u0424\u0435\u0440\u043C\u0430 \u0416\u0438\u0432\u043E\u0442\u043D\u044B\u0445"
  m_EditorClassIdentifier: 
  Name: {fileID: 11400000, guid: 619c2b1642af9934e80bd141fa5c31b7, type: 2}
  sprite: {fileID: 21300000, guid: 3da2e35f3b630f346ad8f56b76537d94, type: 3}
  timeBuild: 1200
  needResours:
  - name: {fileID: 11400000, guid: 6f5dc31251e6cbc4da05f6a80822a4f5, type: 2}
    count: 3
  - name: {fileID: 11400000, guid: bedcd9845f8bf72488e29386eaedbaa0, type: 2}
    count: 45
  - name: {fileID: 11400000, guid: 547b202c88fc2294a9eec03376cb927d, type: 2}
    count: 25
  - name: {fileID: 11400000, guid: b1ef9db5daeae9e4aa309291a3b81a0e, type: 2}
    count: 5
  returnOnDestruction:
  - name: {fileID: 11400000, guid: 9fa4af201f441b7429cb91a6c00cde5e, type: 2}
    count: 1
  - name: {fileID: 11400000, guid: 85b89c83d87287d43a5e02d47d03c0f9, type: 2}
    count: 5
  requirementsPasRes:
  - name: {fileID: 11400000, guid: 2fa89ea0c20ba2d46b8ed3321d81ee20, type: 2}
    count: 3
  productionPasRes: []
  prefab: {fileID: 6360136165473743937, guid: f2de7b713a2309b44a0287e1ca1c5ff5, type: 3}
  buildingMoreOne: 0
