%YAML 1.1
%TAG !u! tag:unity3d.com,2011:
--- !u!114 &11400000
MonoBehaviour:
  m_ObjectHideFlags: 0
  m_CorrespondingSourceObject: {fileID: 0}
  m_PrefabInstance: {fileID: 0}
  m_PrefabAsset: {fileID: 0}
  m_GameObject: {fileID: 0}
  m_Enabled: 1
  m_EditorHideFlags: 0
  m_Script: {fileID: 11500000, guid: 376a2939c0f35434c9034601852d677b, type: 3}
  m_Name: "\u0428\u0435\u0437\u043B\u043E\u043D\u0433 2"
  m_EditorClassIdentifier: 
  Name: {fileID: 11400000, guid: cc72e84b0948c0c419153ad6ac1f58fa, type: 2}
  sprite: {fileID: 21300000, guid: e333a8cb7eafc8a4083d6dc5e713c122, type: 3}
  timeBuild: 40
  needResours:
  - name: {fileID: 11400000, guid: 547b202c88fc2294a9eec03376cb927d, type: 2}
    count: 4
  - name: {fileID: 11400000, guid: 07b1f2f999b7e564f846a35de4a0e0da, type: 2}
    count: 2
  returnOnDestruction: []
  requirementsPasRes: []
  productionPasRes:
  - name: {fileID: 11400000, guid: d16857abbe42c0b4f943acf7d626c072, type: 2}
    count: 1
  prefab: {fileID: 7755294028151546530, guid: b5af8537c9528d145b8a350e6bc59808, type: 3}
  buildingMoreOne: 1
