%YAML 1.1
%TAG !u! tag:unity3d.com,2011:
--- !u!1001 &232440407935483393
PrefabInstance:
  m_ObjectHideFlags: 0
  serializedVersion: 2
  m_Modification:
    m_TransformParent: {fileID: 0}
    m_Modifications:
    - target: {fileID: 1924137466387506335, guid: 0a87ebe914a9f7a46b061c15b1db5d82,
        type: 3}
      propertyPath: animator
      value: 
      objectReference: {fileID: 0}
    - target: {fileID: 3501215619097219417, guid: 0a87ebe914a9f7a46b061c15b1db5d82,
        type: 3}
      propertyPath: m_Enabled
      value: 0
      objectReference: {fileID: 0}
    - target: {fileID: 3941509915631844108, guid: 0a87ebe914a9f7a46b061c15b1db5d82,
        type: 3}
      propertyPath: m_Name
      value: tree_2_corrupt
      objectReference: {fileID: 0}
    - target: {fileID: 3941509915631844108, guid: 0a87ebe914a9f7a46b061c15b1db5d82,
        type: 3}
      propertyPath: m_IsActive
      value: 1
      objectReference: {fileID: 0}
    - target: {fileID: 3941509915631844109, guid: 0a87ebe914a9f7a46b061c15b1db5d82,
        type: 3}
      propertyPath: m_RootOrder
      value: 0
      objectReference: {fileID: 0}
    - target: {fileID: 3941509915631844109, guid: 0a87ebe914a9f7a46b061c15b1db5d82,
        type: 3}
      propertyPath: m_LocalPosition.x
      value: 0
      objectReference: {fileID: 0}
    - target: {fileID: 3941509915631844109, guid: 0a87ebe914a9f7a46b061c15b1db5d82,
        type: 3}
      propertyPath: m_LocalPosition.y
      value: 0
      objectReference: {fileID: 0}
    - target: {fileID: 3941509915631844109, guid: 0a87ebe914a9f7a46b061c15b1db5d82,
        type: 3}
      propertyPath: m_LocalPosition.z
      value: 0
      objectReference: {fileID: 0}
    - target: {fileID: 3941509915631844109, guid: 0a87ebe914a9f7a46b061c15b1db5d82,
        type: 3}
      propertyPath: m_LocalRotation.w
      value: 1
      objectReference: {fileID: 0}
    - target: {fileID: 3941509915631844109, guid: 0a87ebe914a9f7a46b061c15b1db5d82,
        type: 3}
      propertyPath: m_LocalRotation.x
      value: -0
      objectReference: {fileID: 0}
    - target: {fileID: 3941509915631844109, guid: 0a87ebe914a9f7a46b061c15b1db5d82,
        type: 3}
      propertyPath: m_LocalRotation.y
      value: -0
      objectReference: {fileID: 0}
    - target: {fileID: 3941509915631844109, guid: 0a87ebe914a9f7a46b061c15b1db5d82,
        type: 3}
      propertyPath: m_LocalRotation.z
      value: -0
      objectReference: {fileID: 0}
    - target: {fileID: 3941509915631844109, guid: 0a87ebe914a9f7a46b061c15b1db5d82,
        type: 3}
      propertyPath: m_LocalEulerAnglesHint.x
      value: 0
      objectReference: {fileID: 0}
    - target: {fileID: 3941509915631844109, guid: 0a87ebe914a9f7a46b061c15b1db5d82,
        type: 3}
      propertyPath: m_LocalEulerAnglesHint.y
      value: 0
      objectReference: {fileID: 0}
    - target: {fileID: 3941509915631844109, guid: 0a87ebe914a9f7a46b061c15b1db5d82,
        type: 3}
      propertyPath: m_LocalEulerAnglesHint.z
      value: 0
      objectReference: {fileID: 0}
    - target: {fileID: 6710510023695049539, guid: 0a87ebe914a9f7a46b061c15b1db5d82,
        type: 3}
      propertyPath: m_Sprite
      value: 
      objectReference: {fileID: 21300000, guid: 799e73cacaada8c48bf4a367b7597297,
        type: 3}
    m_RemovedComponents:
    - {fileID: 3501215619097219417, guid: 0a87ebe914a9f7a46b061c15b1db5d82, type: 3}
    - {fileID: 1203989479863236000, guid: 0a87ebe914a9f7a46b061c15b1db5d82, type: 3}
  m_SourcePrefab: {fileID: 100100000, guid: 0a87ebe914a9f7a46b061c15b1db5d82, type: 3}
