%YAML 1.1
%TAG !u! tag:unity3d.com,2011:
--- !u!1001 &1955383404481234370
PrefabInstance:
  m_ObjectHideFlags: 0
  serializedVersion: 2
  m_Modification:
    m_TransformParent: {fileID: 0}
    m_Modifications:
    - target: {fileID: 240336101873335428, guid: 1f652555aef141943ab91e8d04eebe78,
        type: 3}
      propertyPath: m_Enabled
      value: 0
      objectReference: {fileID: 0}
    - target: {fileID: 1736135538668051273, guid: 1f652555aef141943ab91e8d04eebe78,
        type: 3}
      propertyPath: animator
      value: 
      objectReference: {fileID: 0}
    - target: {fileID: 3753495909923275994, guid: 1f652555aef141943ab91e8d04eebe78,
        type: 3}
      propertyPath: m_Name
      value: tree_3_corrupt
      objectReference: {fileID: 0}
    - target: {fileID: 3753495909923275994, guid: 1f652555aef141943ab91e8d04eebe78,
        type: 3}
      propertyPath: m_IsActive
      value: 1
      objectReference: {fileID: 0}
    - target: {fileID: 3753495909923275995, guid: 1f652555aef141943ab91e8d04eebe78,
        type: 3}
      propertyPath: m_RootOrder
      value: 0
      objectReference: {fileID: 0}
    - target: {fileID: 3753495909923275995, guid: 1f652555aef141943ab91e8d04eebe78,
        type: 3}
      propertyPath: m_LocalPosition.x
      value: 0
      objectReference: {fileID: 0}
    - target: {fileID: 3753495909923275995, guid: 1f652555aef141943ab91e8d04eebe78,
        type: 3}
      propertyPath: m_LocalPosition.y
      value: 0
      objectReference: {fileID: 0}
    - target: {fileID: 3753495909923275995, guid: 1f652555aef141943ab91e8d04eebe78,
        type: 3}
      propertyPath: m_LocalPosition.z
      value: 0
      objectReference: {fileID: 0}
    - target: {fileID: 3753495909923275995, guid: 1f652555aef141943ab91e8d04eebe78,
        type: 3}
      propertyPath: m_LocalRotation.w
      value: 1
      objectReference: {fileID: 0}
    - target: {fileID: 3753495909923275995, guid: 1f652555aef141943ab91e8d04eebe78,
        type: 3}
      propertyPath: m_LocalRotation.x
      value: -0
      objectReference: {fileID: 0}
    - target: {fileID: 3753495909923275995, guid: 1f652555aef141943ab91e8d04eebe78,
        type: 3}
      propertyPath: m_LocalRotation.y
      value: -0
      objectReference: {fileID: 0}
    - target: {fileID: 3753495909923275995, guid: 1f652555aef141943ab91e8d04eebe78,
        type: 3}
      propertyPath: m_LocalRotation.z
      value: -0
      objectReference: {fileID: 0}
    - target: {fileID: 3753495909923275995, guid: 1f652555aef141943ab91e8d04eebe78,
        type: 3}
      propertyPath: m_LocalEulerAnglesHint.x
      value: 0
      objectReference: {fileID: 0}
    - target: {fileID: 3753495909923275995, guid: 1f652555aef141943ab91e8d04eebe78,
        type: 3}
      propertyPath: m_LocalEulerAnglesHint.y
      value: 0
      objectReference: {fileID: 0}
    - target: {fileID: 3753495909923275995, guid: 1f652555aef141943ab91e8d04eebe78,
        type: 3}
      propertyPath: m_LocalEulerAnglesHint.z
      value: 0
      objectReference: {fileID: 0}
    - target: {fileID: 6882788403641523349, guid: 1f652555aef141943ab91e8d04eebe78,
        type: 3}
      propertyPath: m_Sprite
      value: 
      objectReference: {fileID: 21300000, guid: 3914c80ca3086a64fa138084d5660bd6,
        type: 3}
    m_RemovedComponents:
    - {fileID: 240336101873335428, guid: 1f652555aef141943ab91e8d04eebe78, type: 3}
    - {fileID: 1301954583710370422, guid: 1f652555aef141943ab91e8d04eebe78, type: 3}
  m_SourcePrefab: {fileID: 100100000, guid: 1f652555aef141943ab91e8d04eebe78, type: 3}
