%YAML 1.1
%TAG !u! tag:unity3d.com,2011:
--- !u!114 &11400000
MonoBehaviour:
  m_ObjectHideFlags: 0
  m_CorrespondingSourceObject: {fileID: 0}
  m_PrefabInstance: {fileID: 0}
  m_PrefabAsset: {fileID: 0}
  m_GameObject: {fileID: 0}
  m_Enabled: 1
  m_EditorHideFlags: 0
  m_Script: {fileID: 11500000, guid: 9f805cf31f55f3548ae24755b3c7b834, type: 3}
  m_Name: "\u0422\u041E"
  m_EditorClassIdentifier: 
  nameRes: {fileID: 11400000, guid: 3159859f2a8497b43a06778ffcc81ad7, type: 2}
  sprite: {fileID: 21300000, guid: edf32b0b8f9367c408f7bd7e0b0da910, type: 3}
  maxCountOneCell: 1000000000
  type: 0
  canSell: 0
  canPut: 0
  Target: 0
