%YAML 1.1
%TAG !u! tag:unity3d.com,2011:
--- !u!114 &11400000
MonoBehaviour:
  m_ObjectHideFlags: 0
  m_CorrespondingSourceObject: {fileID: 0}
  m_PrefabInstance: {fileID: 0}
  m_PrefabAsset: {fileID: 0}
  m_GameObject: {fileID: 0}
  m_Enabled: 1
  m_EditorHideFlags: 0
  m_Script: {fileID: 11500000, guid: cd8c578fd5426984fa367ec08c62c9b7, type: 3}
  m_Name: String 2
  m_EditorClassIdentifier: 
  id: 2
  text:
  - "\u043E\u0441\u0442\u0430\u0432\u0438\u0432 \u0437\u0430 \u0441\u043E\u0431\u043E\u0439
    \u043F\u043B\u0430\u043D\u0435\u0442\u0443 \u043D\u0435 \u043F\u0440\u0438\u0433\u043E\u043D\u0443\u044E
    \u0434\u043B\u044F \u0436\u0438\u0437\u043D\u0438"
  - leaving an unlivable planet behind
