%YAML 1.1
%TAG !u! tag:unity3d.com,2011:
--- !u!114 &11400000
MonoBehaviour:
  m_ObjectHideFlags: 0
  m_CorrespondingSourceObject: {fileID: 0}
  m_PrefabInstance: {fileID: 0}
  m_PrefabAsset: {fileID: 0}
  m_GameObject: {fileID: 0}
  m_Enabled: 1
  m_EditorHideFlags: 0
  m_Script: {fileID: 11500000, guid: 2971ebaf7b1c4d55b3a5807c225e0490, type: 3}
  m_Name: ClothcraftStage4
  m_EditorClassIdentifier: 
  StageID: 4
  StageDescription: {fileID: 11400000, guid: 4c3d944a1d9e3974f9ad9bf6a632c2ee, type: 2}
  StageBonus: {fileID: 11400000, guid: 105eb9d2b2d18f24c93fd6ad095d4d65, type: 2}
  QuestToLvlUp: {fileID: 0}
