%YAML 1.1
%TAG !u! tag:unity3d.com,2011:
--- !u!114 &11400000
MonoBehaviour:
  m_ObjectHideFlags: 0
  m_CorrespondingSourceObject: {fileID: 0}
  m_PrefabInstance: {fileID: 0}
  m_PrefabAsset: {fileID: 0}
  m_GameObject: {fileID: 0}
  m_Enabled: 1
  m_EditorHideFlags: 0
  m_Script: {fileID: 11500000, guid: 1451c8b8edec82c4c9669aa4e7dbd898, type: 3}
  m_Name: "\u041F\u0440\u043E\u0438\u0437\u0432\u043E\u0434\u0441\u0442\u0432\u043E"
  m_EditorClassIdentifier: 
  Name: {fileID: 11400000, guid: e753e9ad88f3a0345a8e934708868f57, type: 2}
  centerPanelDatas:
  - {fileID: 11400000, guid: 04bfe53a97e13704fac0f7863354ebdb, type: 2}
  - {fileID: 11400000, guid: 5086e3d8c60e5b9499785a3957533498, type: 2}
  - {fileID: 11400000, guid: ca615ecd61eacf54eaa9173b402ae12d, type: 2}
