%YAML 1.1
%TAG !u! tag:unity3d.com,2011:
--- !u!114 &11400000
MonoBehaviour:
  m_ObjectHideFlags: 0
  m_CorrespondingSourceObject: {fileID: 0}
  m_PrefabInstance: {fileID: 0}
  m_PrefabAsset: {fileID: 0}
  m_GameObject: {fileID: 0}
  m_Enabled: 1
  m_EditorHideFlags: 0
  m_Script: {fileID: 11500000, guid: b3e6cd9e0e2621b45ba1ea1440678fb8, type: 3}
  m_Name: "\u0420\u0430\u0441\u0442\u0438\u0442\u0435\u043B\u044C\u043D\u043E\u0435"
  m_EditorClassIdentifier: 
  Name: {fileID: 11400000, guid: d0205042582b2114081c7e137e9f41bc, type: 2}
  structureDatas:
  - {fileID: 11400000, guid: 11b2f8a457785f14da1ce310a40eb925, type: 2}
  - {fileID: 11400000, guid: 6e6d8f3e623f51d419931153886c1a55, type: 2}
  - {fileID: 11400000, guid: 875f28f0190c03f43a7f04851d5bef4d, type: 2}
  - {fileID: 11400000, guid: a86f847d62353ab4f8bb8c9fa5386f11, type: 2}
  - {fileID: 11400000, guid: 77f5a7d128e890a459fc1c99f3bb5af3, type: 2}
  - {fileID: 11400000, guid: 3703f41b15a34dc4d9c5a61adbd4b3e7, type: 2}
  - {fileID: 11400000, guid: 0989d983107dc534caae0078b8151189, type: 2}
  - {fileID: 11400000, guid: 0ef9327ac03d1f649859f218ee642960, type: 2}
  - {fileID: 11400000, guid: 36de83518f310b046b0b4270fd3745ea, type: 2}
