%YAML 1.1
%TAG !u! tag:unity3d.com,2011:
--- !u!114 &11400000
MonoBehaviour:
  m_ObjectHideFlags: 0
  m_CorrespondingSourceObject: {fileID: 0}
  m_PrefabInstance: {fileID: 0}
  m_PrefabAsset: {fileID: 0}
  m_GameObject: {fileID: 0}
  m_Enabled: 1
  m_EditorHideFlags: 0
  m_Script: {fileID: 11500000, guid: 6911168827124f27acc63f29a6f2e852, type: 3}
  m_Name: TutorialBlock14
  m_EditorClassIdentifier: 
  TutorialParts:
  - TutorialMessage: {fileID: 11400000, guid: 9c7026a40ad8c074680255f3b3042b16, type: 2}
    SimpleNextToContinue: 1
    NeedToOpenBuildMenu: 0
    ShowResPanel: 0
    NeedToScrollAround: 0
  - TutorialMessage: {fileID: 11400000, guid: 17de69a99df161c4b8c2f6bebb2227d8, type: 2}
    SimpleNextToContinue: 1
    NeedToOpenBuildMenu: 0
    ShowResPanel: 0
    NeedToScrollAround: 0
  - TutorialMessage: {fileID: 11400000, guid: 97dc024bbbe775a4aaa7cad5daff10ee, type: 2}
    SimpleNextToContinue: 1
    NeedToOpenBuildMenu: 0
    ShowResPanel: 0
    NeedToScrollAround: 0
