%YAML 1.1
%TAG !u! tag:unity3d.com,2011:
--- !u!114 &11400000
MonoBehaviour:
  m_ObjectHideFlags: 0
  m_CorrespondingSourceObject: {fileID: 0}
  m_PrefabInstance: {fileID: 0}
  m_PrefabAsset: {fileID: 0}
  m_GameObject: {fileID: 0}
  m_Enabled: 1
  m_EditorHideFlags: 0
  m_Script: {fileID: 11500000, guid: 6911168827124f27acc63f29a6f2e852, type: 3}
  m_Name: TutorialBlock11
  m_EditorClassIdentifier: 
  TutorialParts:
  - TutorialMessage: {fileID: 11400000, guid: c1281cf8ed7de4a47aadfe53785229d3, type: 2}
    SimpleNextToContinue: 1
    NeedToOpenBuildMenu: 0
    ShowResPanel: 0
    NeedToScrollAround: 0
  - TutorialMessage: {fileID: 11400000, guid: a8d756b54fe525e489db6746cc43f2ec, type: 2}
    SimpleNextToContinue: 1
    NeedToOpenBuildMenu: 0
    ShowResPanel: 0
    NeedToScrollAround: 0
  - TutorialMessage: {fileID: 11400000, guid: 4120adc77065f834f9a6e3adf2a22604, type: 2}
    SimpleNextToContinue: 1
    NeedToOpenBuildMenu: 0
    ShowResPanel: 0
    NeedToScrollAround: 0
  - TutorialMessage: {fileID: 11400000, guid: 910cdc94d6625984080caa61c19ef4af, type: 2}
    SimpleNextToContinue: 0
    NeedToOpenBuildMenu: 0
    ShowResPanel: 0
    NeedToScrollAround: 0
