%YAML 1.1
%TAG !u! tag:unity3d.com,2011:
--- !u!114 &11400000
MonoBehaviour:
  m_ObjectHideFlags: 0
  m_CorrespondingSourceObject: {fileID: 0}
  m_PrefabInstance: {fileID: 0}
  m_PrefabAsset: {fileID: 0}
  m_GameObject: {fileID: 0}
  m_Enabled: 1
  m_EditorHideFlags: 0
  m_Script: {fileID: 11500000, guid: 6911168827124f27acc63f29a6f2e852, type: 3}
  m_Name: TutorialBlock5
  m_EditorClassIdentifier: 
  TutorialParts:
  - TutorialMessage: {fileID: 11400000, guid: dd2ea44f3618fd6458109ac6c5507313, type: 2}
    SimpleNextToContinue: 1
    NeedToOpenBuildMenu: 0
    ShowResPanel: 0
    NeedToScrollAround: 0
  - TutorialMessage: {fileID: 11400000, guid: 67f1a1fb33c3bce4bb401c968d6841cf, type: 2}
    SimpleNextToContinue: 1
    NeedToOpenBuildMenu: 0
    ShowResPanel: 0
    NeedToScrollAround: 0
  - TutorialMessage: {fileID: 11400000, guid: 11bfc0c34f7c1ec489f349f94b7f4d5d, type: 2}
    SimpleNextToContinue: 1
    NeedToOpenBuildMenu: 0
    ShowResPanel: 1
    NeedToScrollAround: 0
