%YAML 1.1
%TAG !u! tag:unity3d.com,2011:
--- !u!114 &11400000
MonoBehaviour:
  m_ObjectHideFlags: 0
  m_CorrespondingSourceObject: {fileID: 0}
  m_PrefabInstance: {fileID: 0}
  m_PrefabAsset: {fileID: 0}
  m_GameObject: {fileID: 0}
  m_Enabled: 1
  m_EditorHideFlags: 0
  m_Script: {fileID: 11500000, guid: 6911168827124f27acc63f29a6f2e852, type: 3}
  m_Name: TutorialBlock2
  m_EditorClassIdentifier: 
  TutorialParts:
  - TutorialMessage: {fileID: 11400000, guid: 7a895081aae26034482d5e71c4fd26da, type: 2}
    SimpleNextToContinue: 1
    NeedToOpenBuildMenu: 0
    ShowResPanel: 0
    NeedToScrollAround: 0
  - TutorialMessage: {fileID: 11400000, guid: a1bf898f431a35b4783f08cdfc73465e, type: 2}
    SimpleNextToContinue: 1
    NeedToOpenBuildMenu: 0
    ShowResPanel: 0
    NeedToScrollAround: 0
  - TutorialMessage: {fileID: 11400000, guid: 2d4e64cf31ce4bb40b51ad7e0f4bff74, type: 2}
    SimpleNextToContinue: 1
    NeedToOpenBuildMenu: 0
    ShowResPanel: 0
    NeedToScrollAround: 0
  - TutorialMessage: {fileID: 11400000, guid: 243541ecc6c634f46a3d2558f47a0bc0, type: 2}
    SimpleNextToContinue: 0
    NeedToOpenBuildMenu: 1
    ShowResPanel: 0
    NeedToScrollAround: 0
  - TutorialMessage: {fileID: 11400000, guid: d30f4f81204ca7a4fbc2712df9c545d3, type: 2}
    SimpleNextToContinue: 1
    NeedToOpenBuildMenu: 0
    ShowResPanel: 0
    NeedToScrollAround: 0
  - TutorialMessage: {fileID: 11400000, guid: 971f2e67566471347ab3af757b7c93bd, type: 2}
    SimpleNextToContinue: 1
    NeedToOpenBuildMenu: 0
    ShowResPanel: 0
    NeedToScrollAround: 0
