%YAML 1.1
%TAG !u! tag:unity3d.com,2011:
--- !u!114 &11400000
MonoBehaviour:
  m_ObjectHideFlags: 0
  m_CorrespondingSourceObject: {fileID: 0}
  m_PrefabInstance: {fileID: 0}
  m_PrefabAsset: {fileID: 0}
  m_GameObject: {fileID: 0}
  m_Enabled: 1
  m_EditorHideFlags: 0
  m_Script: {fileID: 11500000, guid: cd8c578fd5426984fa367ec08c62c9b7, type: 3}
  m_Name: Block15_2
  m_EditorClassIdentifier: 
  id: 129
  text:
  - "\u041F\u043E\u0441\u0442\u0440\u043E\u0438\u0442\u044C \u043E\u0434\u043D\u0443
    \u043F\u043B\u043E\u0449\u0430\u0434\u043A\u0443 \u0431\u044B\u043B\u043E \u0431\u044B
    \u043D\u0435\u043F\u043B\u043E\u0445\u043E. \u042D\u0442\u043E \u043D\u0430\u0432\u0435\u0440\u043D\u044F\u043A\u0430
    \u0443\u0432\u0435\u043B\u0438\u0447\u0438\u0442 \u043F\u0440\u0435\u0441\u0442\u0438\u0436
    \u043D\u0430\u0448\u0435\u0439 \u0442\u0435\u0440\u0440\u0438\u0442\u043E\u0440\u0438\u0438."
  - It would be nice to build a sports ground. This will increase the prestige for
    sure.
