%YAML 1.1
%TAG !u! tag:unity3d.com,2011:
--- !u!114 &11400000
MonoBehaviour:
  m_ObjectHideFlags: 0
  m_CorrespondingSourceObject: {fileID: 0}
  m_PrefabInstance: {fileID: 0}
  m_PrefabAsset: {fileID: 0}
  m_GameObject: {fileID: 0}
  m_Enabled: 1
  m_EditorHideFlags: 0
  m_Script: {fileID: 11500000, guid: 3d59133e77fb4c749aaa4a4feb7b7059, type: 3}
  m_Name: "\u0421\u043F\u0430"
  m_EditorClassIdentifier: 
  nameSO: {fileID: 11400000, guid: 45f1c51401bb2044c9713c3554e87d03, type: 2}
  price: 750
  time: 750
  prestige: 60
  countPay: 14
  repair: 6000
  trafficAndBoost: 0
