%YAML 1.1
%TAG !u! tag:unity3d.com,2011:
--- !u!114 &11400000
MonoBehaviour:
  m_ObjectHideFlags: 0
  m_CorrespondingSourceObject: {fileID: 0}
  m_PrefabInstance: {fileID: 0}
  m_PrefabAsset: {fileID: 0}
  m_GameObject: {fileID: 0}
  m_Enabled: 1
  m_EditorHideFlags: 0
  m_Script: {fileID: 11500000, guid: 2971ebaf7b1c4d55b3a5807c225e0490, type: 3}
  m_Name: PlasticcraftStage3
  m_EditorClassIdentifier: 
  StageID: 3
  StageDescription: {fileID: 11400000, guid: 847e742172d5777418fe5c74757da646, type: 2}
  StageBonus: {fileID: 11400000, guid: 19d0be66a29fa454b9d1a176c180abb6, type: 2}
  QuestToLvlUp: {fileID: 0}
