%YAML 1.1
%TAG !u! tag:unity3d.com,2011:
--- !u!114 &11400000
MonoBehaviour:
  m_ObjectHideFlags: 0
  m_CorrespondingSourceObject: {fileID: 0}
  m_PrefabInstance: {fileID: 0}
  m_PrefabAsset: {fileID: 0}
  m_GameObject: {fileID: 0}
  m_Enabled: 1
  m_EditorHideFlags: 0
  m_Script: {fileID: 11500000, guid: cd8c578fd5426984fa367ec08c62c9b7, type: 3}
  m_Name: Stage2
  m_EditorClassIdentifier: 
  id: 81
  text:
  - "\u0421\u043A\u043E\u0440\u043E\u0441\u0442\u044C \u0440\u0430\u0431\u043E\u0442\u044B
    \u041F\u0438\u043B\u043E\u0440\u0430\u043C\u044B \u0443\u0432\u0435\u043B\u0438\u0447\u0438\u0432\u0430\u0435\u0442\u0441\u044F
    \u043D\u0430 5%"
  - Sawmill working speed increased by 5%
