%YAML 1.1
%TAG !u! tag:unity3d.com,2011:
--- !u!114 &11400000
MonoBehaviour:
  m_ObjectHideFlags: 0
  m_CorrespondingSourceObject: {fileID: 0}
  m_PrefabInstance: {fileID: 0}
  m_PrefabAsset: {fileID: 0}
  m_GameObject: {fileID: 0}
  m_Enabled: 1
  m_EditorHideFlags: 0
  m_Script: {fileID: 11500000, guid: cd8c578fd5426984fa367ec08c62c9b7, type: 3}
  m_Name: Block2_1
  m_EditorClassIdentifier: 
  id: 94
  text:
  - "\u0414\u043B\u044F \u043E\u0431\u0440\u0430\u0431\u043E\u0442\u043A\u0438 \u0432\u0441\u0435\u0445
    \u044D\u0442\u0438\u0445 \u043E\u0442\u0445\u043E\u0434\u043E\u0432 \u043D\u0430\u043C
    \u0431\u044B \u043F\u0440\u0438\u0433\u043E\u0434\u0438\u043B\u0430\u0441\u044C
    \u041F\u0438\u043B\u043E\u0440\u0430\u043C\u0430."
  - A sawmill would come in handy to recycle.
