%YAML 1.1
%TAG !u! tag:unity3d.com,2011:
--- !u!114 &11400000
MonoBehaviour:
  m_ObjectHideFlags: 0
  m_CorrespondingSourceObject: {fileID: 0}
  m_PrefabInstance: {fileID: 0}
  m_PrefabAsset: {fileID: 0}
  m_GameObject: {fileID: 0}
  m_Enabled: 1
  m_EditorHideFlags: 0
  m_Script: {fileID: 11500000, guid: cd8c578fd5426984fa367ec08c62c9b7, type: 3}
  m_Name: Block2_7
  m_EditorClassIdentifier: 
  id: 100
  text:
  - "\"\u0427\u0442\u043E\u0431\u044B \u043D\u0435 \u0436\u0434\u0430\u0442\u044C
    \u0446\u0435\u043B\u0443\u044E \u043C\u0438\u043D\u0443\u0442\u0443, \u0441\u0442\u0440\u043E\u0438\u0442\u0435\u043B\u044C\u0441\u0442\u0432\u043E
    \u043C\u043E\u0436\u043D\u043E \u0443\u0441\u043A\u043E\u0440\u0438\u0442\u044C!\""
  - Why waiting a minute? Speed up the erection.
