%YAML 1.1
%TAG !u! tag:unity3d.com,2011:
--- !u!114 &11400000
MonoBehaviour:
  m_ObjectHideFlags: 0
  m_CorrespondingSourceObject: {fileID: 0}
  m_PrefabInstance: {fileID: 0}
  m_PrefabAsset: {fileID: 0}
  m_GameObject: {fileID: 0}
  m_Enabled: 1
  m_EditorHideFlags: 0
  m_Script: {fileID: 11500000, guid: d1d6456eae5858c439e8d6ae701b73c0, type: 3}
  m_Name: trash_bus
  m_EditorClassIdentifier: 
  myName: {fileID: 11400000, guid: 627dd091191251d4893a0d937911ede1, type: 2}
  resources:
  - name: {fileID: 11400000, guid: 85b89c83d87287d43a5e02d47d03c0f9, type: 2}
    count: 300
  - name: {fileID: 11400000, guid: 0398b5a17c5e40e46a33e7c7990274e4, type: 2}
    count: 100
  - name: {fileID: 11400000, guid: 3159859f2a8497b43a06778ffcc81ad7, type: 2}
    count: 60
  - name: {fileID: 11400000, guid: 9bae6a68135870843ba83b13a3ae1155, type: 2}
    count: 60
  onlyRobots: 1
