%YAML 1.1
%TAG !u! tag:unity3d.com,2011:
--- !u!114 &11400000
MonoBehaviour:
  m_ObjectHideFlags: 0
  m_CorrespondingSourceObject: {fileID: 0}
  m_PrefabInstance: {fileID: 0}
  m_PrefabAsset: {fileID: 0}
  m_GameObject: {fileID: 0}
  m_Enabled: 1
  m_EditorHideFlags: 0
  m_Script: {fileID: 11500000, guid: 3803d5d0208eb674bb27394fb20d46f6, type: 3}
  m_Name: "10 \u0421\u0442\u0435\u043A\u043B\u043E\u0432\u043E\u043B\u043E\u043A\u043D\u043E"
  m_EditorClassIdentifier: 
  id: 8
  product:
    name: {fileID: 11400000, guid: aa973e928332f384a9331f2030910548, type: 2}
    count: 15
  timeSec: 100
  needResours:
  - name: {fileID: 11400000, guid: 2dc0ef5b1b45d454fa76a04b2b95235b, type: 2}
    count: 3
  - name: {fileID: 11400000, guid: c4284d7f1eacee54580aae6f0beed9f4, type: 2}
    count: 1
  - name: {fileID: 11400000, guid: 2f50216d86f17504385d72eb71607445, type: 2}
    count: 1
