%YAML 1.1
%TAG !u! tag:unity3d.com,2011:
--- !u!114 &11400000
MonoBehaviour:
  m_ObjectHideFlags: 0
  m_CorrespondingSourceObject: {fileID: 0}
  m_PrefabInstance: {fileID: 0}
  m_PrefabAsset: {fileID: 0}
  m_GameObject: {fileID: 0}
  m_Enabled: 1
  m_EditorHideFlags: 0
  m_Script: {fileID: 11500000, guid: 3803d5d0208eb674bb27394fb20d46f6, type: 3}
  m_Name: "102 \u0421\u0432\u0438\u043D\u0438\u043D\u0430"
  m_EditorClassIdentifier: 
  id: 50
  product:
    name: {fileID: 11400000, guid: 2cde95c917dacf543b74dffd086e7b6e, type: 2}
    count: 75
  timeSec: 2700
  needResours:
  - name: {fileID: 11400000, guid: 2554047ede9863144960b28bd07c5c45, type: 2}
    count: 100
