%YAML 1.1
%TAG !u! tag:unity3d.com,2011:
--- !u!114 &11400000
MonoBehaviour:
  m_ObjectHideFlags: 0
  m_CorrespondingSourceObject: {fileID: 0}
  m_PrefabInstance: {fileID: 0}
  m_PrefabAsset: {fileID: 0}
  m_GameObject: {fileID: 0}
  m_Enabled: 1
  m_EditorHideFlags: 0
  m_Script: {fileID: 11500000, guid: 3803d5d0208eb674bb27394fb20d46f6, type: 3}
  m_Name: "111 \u0421\u044D\u043D\u0434\u0432\u0438\u0447"
  m_EditorClassIdentifier: 
  id: 58
  product:
    name: {fileID: 11400000, guid: 0983c39a6e5bb6f418c811b0212b3e30, type: 2}
    count: 10
  timeSec: 90
  needResours:
  - name: {fileID: 11400000, guid: f9ec58d55a2d2374fab1e988838a7dde, type: 2}
    count: 2
  - name: {fileID: 11400000, guid: 2cde95c917dacf543b74dffd086e7b6e, type: 2}
    count: 1
