%YAML 1.1
%TAG !u! tag:unity3d.com,2011:
--- !u!114 &11400000
MonoBehaviour:
  m_ObjectHideFlags: 0
  m_CorrespondingSourceObject: {fileID: 0}
  m_PrefabInstance: {fileID: 0}
  m_PrefabAsset: {fileID: 0}
  m_GameObject: {fileID: 0}
  m_Enabled: 1
  m_EditorHideFlags: 0
  m_Script: {fileID: 11500000, guid: 3803d5d0208eb674bb27394fb20d46f6, type: 3}
  m_Name: "118 \u0411\u0443\u0440\u0433\u0435\u0440"
  m_EditorClassIdentifier: 
  id: 63
  product:
    name: {fileID: 11400000, guid: 09802768d428f824bba332f8e45cf2ff, type: 2}
    count: 2
  timeSec: 90
  needResours:
  - name: {fileID: 11400000, guid: 8bb518a85528e394ab40efcc767cac16, type: 2}
    count: 1
  - name: {fileID: 11400000, guid: 1a3bf6d19a1a5b04a82acd537d647100, type: 2}
    count: 1
  - name: {fileID: 11400000, guid: 837286e6a34fbc947a8ce34e1978eaf3, type: 2}
    count: 1
  - name: {fileID: 11400000, guid: 2cde95c917dacf543b74dffd086e7b6e, type: 2}
    count: 1
