%YAML 1.1
%TAG !u! tag:unity3d.com,2011:
--- !u!114 &11400000
MonoBehaviour:
  m_ObjectHideFlags: 0
  m_CorrespondingSourceObject: {fileID: 0}
  m_PrefabInstance: {fileID: 0}
  m_PrefabAsset: {fileID: 0}
  m_GameObject: {fileID: 0}
  m_Enabled: 1
  m_EditorHideFlags: 0
  m_Script: {fileID: 11500000, guid: 3803d5d0208eb674bb27394fb20d46f6, type: 3}
  m_Name: "13 \u0411\u0430\u043B\u043A\u0430"
  m_EditorClassIdentifier: 
  id: 10
  product:
    name: {fileID: 11400000, guid: 1fa75c0d09d64df4ea6077b4a4966654, type: 2}
    count: 3
  timeSec: 3600
  needResours:
  - name: {fileID: 11400000, guid: 5d74a03833ac3694d89650040f3debd6, type: 2}
    count: 1
  - name: {fileID: 11400000, guid: 2f50216d86f17504385d72eb71607445, type: 2}
    count: 10
  - name: {fileID: 11400000, guid: c4284d7f1eacee54580aae6f0beed9f4, type: 2}
    count: 5
