%YAML 1.1
%TAG !u! tag:unity3d.com,2011:
--- !u!114 &11400000
MonoBehaviour:
  m_ObjectHideFlags: 0
  m_CorrespondingSourceObject: {fileID: 0}
  m_PrefabInstance: {fileID: 0}
  m_PrefabAsset: {fileID: 0}
  m_GameObject: {fileID: 0}
  m_Enabled: 1
  m_EditorHideFlags: 0
  m_Script: {fileID: 11500000, guid: 3803d5d0208eb674bb27394fb20d46f6, type: 3}
  m_Name: "131 \u0417\u0430\u0432\u0430\u0440\u043D\u043E\u0439 \u043A\u0440\u0435\u043C"
  m_EditorClassIdentifier: 
  id: 70
  product:
    name: {fileID: 11400000, guid: c832de0612aae7145b0d53b62fe28431, type: 2}
    count: 1
  timeSec: 66
  needResours:
  - name: {fileID: 11400000, guid: 41ee14618baa52346aa6741bb943d484, type: 2}
    count: 2
  - name: {fileID: 11400000, guid: c137b717b2754ea47b33284c81d7f3ea, type: 2}
    count: 1
  - name: {fileID: 11400000, guid: 3fcf5cfe0be6a8e4b8ceb3b89621e226, type: 2}
    count: 1
