%YAML 1.1
%TAG !u! tag:unity3d.com,2011:
--- !u!114 &11400000
MonoBehaviour:
  m_ObjectHideFlags: 0
  m_CorrespondingSourceObject: {fileID: 0}
  m_PrefabInstance: {fileID: 0}
  m_PrefabAsset: {fileID: 0}
  m_GameObject: {fileID: 0}
  m_Enabled: 1
  m_EditorHideFlags: 0
  m_Script: {fileID: 11500000, guid: 3803d5d0208eb674bb27394fb20d46f6, type: 3}
  m_Name: "144 \u041C\u044F\u0441\u043E \u043D\u0430 \u043A\u0430\u043C\u043D\u0435"
  m_EditorClassIdentifier: 
  id: 74
  product:
    name: {fileID: 11400000, guid: 8c0c4e5e94988124c9fc2dc7b7342a4d, type: 2}
    count: 1
  timeSec: 80
  needResours:
  - name: {fileID: 11400000, guid: 2cde95c917dacf543b74dffd086e7b6e, type: 2}
    count: 1
  - name: {fileID: 11400000, guid: 2760d0dc411e69440a10263f013fc218, type: 2}
    count: 1
  - name: {fileID: 11400000, guid: 66993fb01bc18a44e9488680c3d47a62, type: 2}
    count: 1
