%YAML 1.1
%TAG !u! tag:unity3d.com,2011:
--- !u!114 &11400000
MonoBehaviour:
  m_ObjectHideFlags: 0
  m_CorrespondingSourceObject: {fileID: 0}
  m_PrefabInstance: {fileID: 0}
  m_PrefabAsset: {fileID: 0}
  m_GameObject: {fileID: 0}
  m_Enabled: 1
  m_EditorHideFlags: 0
  m_Script: {fileID: 11500000, guid: 3803d5d0208eb674bb27394fb20d46f6, type: 3}
  m_Name: "27 \u042D\u043F\u043E\u043A\u0441\u0438\u0434\u043D\u0430\u044F \u0441\u043C\u043E\u043B\u0430"
  m_EditorClassIdentifier: 
  id: 21
  product:
    name: {fileID: 11400000, guid: 8b8f0ca4bf1b37b4ab5d16a3ea779560, type: 2}
    count: 10
  timeSec: 15
  needResours:
  - name: {fileID: 11400000, guid: 2554047ede9863144960b28bd07c5c45, type: 2}
    count: 2
