%YAML 1.1
%TAG !u! tag:unity3d.com,2011:
--- !u!114 &11400000
MonoBehaviour:
  m_ObjectHideFlags: 0
  m_CorrespondingSourceObject: {fileID: 0}
  m_PrefabInstance: {fileID: 0}
  m_PrefabAsset: {fileID: 0}
  m_GameObject: {fileID: 0}
  m_Enabled: 1
  m_EditorHideFlags: 0
  m_Script: {fileID: 11500000, guid: 3803d5d0208eb674bb27394fb20d46f6, type: 3}
  m_Name: "4 \u0413\u0440\u0430\u043D\u0443\u043B\u044B \u041F\u0435\u043B\u043B\u0435\u0442\u044B"
  m_EditorClassIdentifier: 
  id: 3
  product:
    name: {fileID: 11400000, guid: 2f50216d86f17504385d72eb71607445, type: 2}
    count: 5
  timeSec: 90
  needResours:
  - name: {fileID: 11400000, guid: 4bdcf555a5c63f04792b0268d234f300, type: 2}
    count: 15
