%YAML 1.1
%TAG !u! tag:unity3d.com,2011:
--- !u!114 &11400000
MonoBehaviour:
  m_ObjectHideFlags: 0
  m_CorrespondingSourceObject: {fileID: 0}
  m_PrefabInstance: {fileID: 0}
  m_PrefabAsset: {fileID: 0}
  m_GameObject: {fileID: 0}
  m_Enabled: 1
  m_EditorHideFlags: 0
  m_Script: {fileID: 11500000, guid: 3803d5d0208eb674bb27394fb20d46f6, type: 3}
  m_Name: "73 \u041F\u043B\u0438\u0442\u043A\u0430 (\u043F\u043B\u0430\u0441\u0442\u0438\u043A)"
  m_EditorClassIdentifier: 
  id: 32
  product:
    name: {fileID: 11400000, guid: 6904dec9b133c484699312d761368d7e, type: 2}
    count: 4
  timeSec: 80
  needResours:
  - name: {fileID: 11400000, guid: 07b1f2f999b7e564f846a35de4a0e0da, type: 2}
    count: 4
  - name: {fileID: 11400000, guid: 2f50216d86f17504385d72eb71607445, type: 2}
    count: 1
