%YAML 1.1
%TAG !u! tag:unity3d.com,2011:
--- !u!114 &11400000
MonoBehaviour:
  m_ObjectHideFlags: 0
  m_CorrespondingSourceObject: {fileID: 0}
  m_PrefabInstance: {fileID: 0}
  m_PrefabAsset: {fileID: 0}
  m_GameObject: {fileID: 0}
  m_Enabled: 1
  m_EditorHideFlags: 0
  m_Script: {fileID: 11500000, guid: 3803d5d0208eb674bb27394fb20d46f6, type: 3}
  m_Name: "79 \u041A\u0430\u043F\u0443\u0441\u0442\u0430"
  m_EditorClassIdentifier: 
  id: 36
  product:
    name: {fileID: 11400000, guid: 837286e6a34fbc947a8ce34e1978eaf3, type: 2}
    count: 90
  timeSec: 900
  needResours:
  - name: {fileID: 11400000, guid: b41483789907dcb4b968bb24e9fb8b87, type: 2}
    count: 12
  - name: {fileID: 11400000, guid: c4284d7f1eacee54580aae6f0beed9f4, type: 2}
    count: 1
