%YAML 1.1
%TAG !u! tag:unity3d.com,2011:
--- !u!114 &11400000
MonoBehaviour:
  m_ObjectHideFlags: 0
  m_CorrespondingSourceObject: {fileID: 0}
  m_PrefabInstance: {fileID: 0}
  m_PrefabAsset: {fileID: 0}
  m_GameObject: {fileID: 0}
  m_Enabled: 1
  m_EditorHideFlags: 0
  m_Script: {fileID: 11500000, guid: 3803d5d0208eb674bb27394fb20d46f6, type: 3}
  m_Name: "8 \u0421\u0438\u043B\u0438\u043A\u0430\u0442\u043D\u044B\u0439 \u043A\u043B\u0435\u0439"
  m_EditorClassIdentifier: 
  id: 6
  product:
    name: {fileID: 11400000, guid: 940e0ac955ea7d34bbd7c1fc49122f35, type: 2}
    count: 2
  timeSec: 60
  needResours:
  - name: {fileID: 11400000, guid: 2dc0ef5b1b45d454fa76a04b2b95235b, type: 2}
    count: 2
  - name: {fileID: 11400000, guid: 2f50216d86f17504385d72eb71607445, type: 2}
    count: 1
