%YAML 1.1
%TAG !u! tag:unity3d.com,2011:
--- !u!114 &11400000
MonoBehaviour:
  m_ObjectHideFlags: 0
  m_CorrespondingSourceObject: {fileID: 0}
  m_PrefabInstance: {fileID: 0}
  m_PrefabAsset: {fileID: 0}
  m_GameObject: {fileID: 0}
  m_Enabled: 1
  m_EditorHideFlags: 0
  m_Script: {fileID: 11500000, guid: 3803d5d0208eb674bb27394fb20d46f6, type: 3}
  m_Name: "81 \u042F\u0431\u043B\u043E\u043A\u0438"
  m_EditorClassIdentifier: 
  id: 38
  product:
    name: {fileID: 11400000, guid: f6a8ea614bd231a4aaa1509e6756c172, type: 2}
    count: 45
  timeSec: 650
  needResours:
  - name: {fileID: 11400000, guid: d4d5becb1e576114f97052dfa61c4de2, type: 2}
    count: 3
