%YAML 1.1
%TAG !u! tag:unity3d.com,2011:
--- !u!114 &11400000
MonoBehaviour:
  m_ObjectHideFlags: 0
  m_CorrespondingSourceObject: {fileID: 0}
  m_PrefabInstance: {fileID: 0}
  m_PrefabAsset: {fileID: 0}
  m_GameObject: {fileID: 0}
  m_Enabled: 1
  m_EditorHideFlags: 0
  m_Script: {fileID: 11500000, guid: 3803d5d0208eb674bb27394fb20d46f6, type: 3}
  m_Name: "82 \u041A\u0443\u043A\u0443\u0440\u0443\u0437\u0430"
  m_EditorClassIdentifier: 
  id: 39
  product:
    name: {fileID: 11400000, guid: 64bc01be47a3a4444a358f0b7f1ba500, type: 2}
    count: 100
  timeSec: 560
  needResours:
  - name: {fileID: 11400000, guid: d4d5becb1e576114f97052dfa61c4de2, type: 2}
    count: 3
