%YAML 1.1
%TAG !u! tag:unity3d.com,2011:
--- !u!114 &11400000
MonoBehaviour:
  m_ObjectHideFlags: 0
  m_CorrespondingSourceObject: {fileID: 0}
  m_PrefabInstance: {fileID: 0}
  m_PrefabAsset: {fileID: 0}
  m_GameObject: {fileID: 0}
  m_Enabled: 1
  m_EditorHideFlags: 0
  m_Script: {fileID: 11500000, guid: 74835881d69724a4494ae19db85627c8, type: 3}
  m_Name: "\u041C\u0443\u0441\u043E\u0440\u0421\u041E\u042550"
  m_EditorClassIdentifier: 
  _resource:
    name: {fileID: 11400000, guid: 9bae6a68135870843ba83b13a3ae1155, type: 2}
    count: 50
